%!PS-Adobe-3.0 EPSF-3.0
%%Creator: cairo 1.15.10 (http://cairographics.org)
%%CreationDate: Wed Jun 27 10:19:17 2018
%%Pages: 1
%%DocumentData: Clean7Bit
%%LanguageLevel: 2
%%BoundingBox: 0 0 190 21
%%EndComments
%%BeginProlog
50 dict begin
/q { gsave } bind def
/Q { grestore } bind def
/cm { 6 array astore concat } bind def
/w { setlinewidth } bind def
/J { setlinecap } bind def
/j { setlinejoin } bind def
/M { setmiterlimit } bind def
/d { setdash } bind def
/m { moveto } bind def
/l { lineto } bind def
/c { curveto } bind def
/h { closepath } bind def
/re { exch dup neg 3 1 roll 5 3 roll moveto 0 rlineto
      0 exch rlineto 0 rlineto closepath } bind def
/S { stroke } bind def
/f { fill } bind def
/f* { eofill } bind def
/n { newpath } bind def
/W { clip } bind def
/W* { eoclip } bind def
/BT { } bind def
/ET { } bind def
/BDC { mark 3 1 roll /BDC pdfmark } bind def
/EMC { mark /EMC pdfmark } bind def
/cairo_store_point { /cairo_point_y exch def /cairo_point_x exch def } def
/Tj { show currentpoint cairo_store_point } bind def
/TJ {
  {
    dup
    type /stringtype eq
    { show } { -0.001 mul 0 cairo_font_matrix dtransform rmoveto } ifelse
  } forall
  currentpoint cairo_store_point
} bind def
/cairo_selectfont { cairo_font_matrix aload pop pop pop 0 0 6 array astore
    cairo_font exch selectfont cairo_point_x cairo_point_y moveto } bind def
/Tf { pop /cairo_font exch def /cairo_font_matrix where
      { pop cairo_selectfont } if } bind def
/Td { matrix translate cairo_font_matrix matrix concatmatrix dup
      /cairo_font_matrix exch def dup 4 get exch 5 get cairo_store_point
      /cairo_font where { pop cairo_selectfont } if } bind def
/Tm { 2 copy 8 2 roll 6 array astore /cairo_font_matrix exch def
      cairo_store_point /cairo_font where { pop cairo_selectfont } if } bind def
/g { setgray } bind def
/rg { setrgbcolor } bind def
/d1 { setcachedevice } bind def
/cairo_data_source {
  CairoDataIndex CairoData length lt
    { CairoData CairoDataIndex get /CairoDataIndex CairoDataIndex 1 add def }
    { () } ifelse
} def
/cairo_flush_ascii85_file { cairo_ascii85_file status { cairo_ascii85_file flushfile } if } def
/cairo_image { image cairo_flush_ascii85_file } def
/cairo_imagemask { imagemask cairo_flush_ascii85_file } def
%%EndProlog
%%BeginSetup
%%EndSetup
%%Page: 1 1
%%BeginPageSetup
%%PageBoundingBox: 0 0 190 21
%%EndPageSetup
q 0 0 190 21 rectclip
1 0 0 -1 0 21 cm q
0.87451 0.121569 0.211765 rg
184.984 0 m 184.984 14.312 l 173.508 0 l 169.48 0 l 169.48 20.871 l 173.656
 20.871 l 173.656 6.559 l 185.133 20.871 l 189.16 20.871 l 189.16 0 l h
184.984 0 m f
47.852 0 m 42.484 0 l 33.246 20.867 l 37.875 20.867 l 45.164 4.188 l 45.172
 4.172 l 48.449 11.773 l 44.801 11.773 l 44.719 11.855 l 44.801 11.773 l
 41.223 15.352 l 50.09 15.352 l 52.473 20.867 l 57.094 20.867 l h
47.852 0 m f
109.172 3.578 m 118.605 3.578 l 122.184 0 l 105.031 0 l 105.031 20.867 
l 120.527 20.867 l 120.527 17.297 l 109.172 17.297 l 109.172 12.242 l 119.027
 12.242 l 119.027 8.598 l 109.172 8.598 l h
109.172 3.578 m f
151.145 20.863 m 154.68 17.324 l 154.68 3.539 l 151.145 0.004 l 151.145
 0 l 138.785 0 l 138.785 0.004 l 135.25 3.539 l 135.25 17.328 l 138.785 
20.863 l h
140.941 17.551 m 138.992 15.602 l 138.992 5.262 l 140.941 3.316 l 148.988
 3.316 l 150.938 5.262 l 150.938 15.602 l 148.988 17.551 l h
140.941 17.551 m f
15.355 13.863 m 15.352 13.859 l 18.547 10.668 l 18.547 3.488 l 15.059 0
 l 0 0 l 0 20.871 l 4.176 20.871 l 4.176 14.012 l 10.586 14.012 l 15.504
 20.871 l 20.422 20.871 l h
13.117 10.434 m 4.176 10.434 l 4.176 3.578 l 13.117 3.578 l 14.758 5.219
 l 14.758 8.805 l h
13.117 10.434 m f
86.07 0 m 70.57 0 l 70.57 20.871 l 86.066 20.871 l 90.246 16.691 l 90.246
 4.164 l h
74.742 17.293 m 74.742 3.578 l 84.133 3.578 l 86.07 5.516 l 86.07 15.355
 l 84.133 17.293 l h
74.742 17.293 m f
Q Q
showpage
%%Trailer
end
%%EOF
