%!PS-Adobe-3.0 EPSF-3.0
%%Creator: cairo 1.15.10 (http://cairographics.org)
%%CreationDate: Wed Jun 27 16:40:16 2018
%%Pages: 1
%%DocumentData: Clean7Bit
%%LanguageLevel: 2
%%BoundingBox: 0 0 2085 1158
%%EndComments
%%BeginProlog
50 dict begin
/q { gsave } bind def
/Q { grestore } bind def
/cm { 6 array astore concat } bind def
/w { setlinewidth } bind def
/J { setlinecap } bind def
/j { setlinejoin } bind def
/M { setmiterlimit } bind def
/d { setdash } bind def
/m { moveto } bind def
/l { lineto } bind def
/c { curveto } bind def
/h { closepath } bind def
/re { exch dup neg 3 1 roll 5 3 roll moveto 0 rlineto
      0 exch rlineto 0 rlineto closepath } bind def
/S { stroke } bind def
/f { fill } bind def
/f* { eofill } bind def
/n { newpath } bind def
/W { clip } bind def
/W* { eoclip } bind def
/BT { } bind def
/ET { } bind def
/BDC { mark 3 1 roll /BDC pdfmark } bind def
/EMC { mark /EMC pdfmark } bind def
/cairo_store_point { /cairo_point_y exch def /cairo_point_x exch def } def
/Tj { show currentpoint cairo_store_point } bind def
/TJ {
  {
    dup
    type /stringtype eq
    { show } { -0.001 mul 0 cairo_font_matrix dtransform rmoveto } ifelse
  } forall
  currentpoint cairo_store_point
} bind def
/cairo_selectfont { cairo_font_matrix aload pop pop pop 0 0 6 array astore
    cairo_font exch selectfont cairo_point_x cairo_point_y moveto } bind def
/Tf { pop /cairo_font exch def /cairo_font_matrix where
      { pop cairo_selectfont } if } bind def
/Td { matrix translate cairo_font_matrix matrix concatmatrix dup
      /cairo_font_matrix exch def dup 4 get exch 5 get cairo_store_point
      /cairo_font where { pop cairo_selectfont } if } bind def
/Tm { 2 copy 8 2 roll 6 array astore /cairo_font_matrix exch def
      cairo_store_point /cairo_font where { pop cairo_selectfont } if } bind def
/g { setgray } bind def
/rg { setrgbcolor } bind def
/d1 { setcachedevice } bind def
/cairo_data_source {
  CairoDataIndex CairoData length lt
    { CairoData CairoDataIndex get /CairoDataIndex CairoDataIndex 1 add def }
    { () } ifelse
} def
/cairo_flush_ascii85_file { cairo_ascii85_file status { cairo_ascii85_file flushfile } if } def
/cairo_image { image cairo_flush_ascii85_file } def
/cairo_imagemask { imagemask cairo_flush_ascii85_file } def
%%EndProlog
%%BeginSetup
%%EndSetup
%%Page: 1 1
%%BeginPageSetup
%%PageBoundingBox: 0 0 2085 1158
%%EndPageSetup
q 0 0 2085 1158 rectclip
1 0 0 -1 0 1158 cm q
0.984314 0.67451 0.188235 rg
2084.941 841.688 m 1599.246 0.23 l 1113.562 841.688 l h
2084.941 841.688 m f
0.0705882 0.694118 0.490196 rg
2084.941 841.688 m 1902.414 631.324 l 1296.074 631.324 l 1113.562 841.688
 l h
2084.941 841.688 m f
0.733333 0.145098 0.360784 rg
1599.246 1157.227 m 1902.414 631.324 l 1296.074 631.324 l h
1599.246 1157.227 m f
0 g
450.98 764.848 m 220.543 764.848 l 197.129 842.277 l 0 842.277 l 221.43
 241.852 l 450.078 241.852 l 671.523 842.277 l 474.383 842.277 l h
267.34 613.637 m 404.168 613.637 l 335.758 402.082 l h
267.34 613.637 m f
551.762 241.852 m 757.898 241.852 l 887.535 646.035 l 1017.156 241.852 
l 1223.301 241.852 l 1001.859 842.277 l 773.211 842.277 l 551.762 241.852
 l f
0.945098 0.956863 0.831373 rg
1564.191 392.188 m 1501.184 454.293 l 1434.562 384.082 l 1581.293 241.852
 l 1683.016 241.852 l 1683.016 601.922 l 1564.191 601.922 l 1564.191 392.188
 l f
Q Q
showpage
%%Trailer
end
%%EOF
