%!PS-Adobe-3.0 EPSF-3.0
%%Creator: cairo 1.15.10 (http://cairographics.org)
%%CreationDate: Wed Jun 27 10:39:35 2018
%%Pages: 1
%%DocumentData: Clean7Bit
%%LanguageLevel: 2
%%BoundingBox: 0 0 1019 422
%%EndComments
%%BeginProlog
50 dict begin
/q { gsave } bind def
/Q { grestore } bind def
/cm { 6 array astore concat } bind def
/w { setlinewidth } bind def
/J { setlinecap } bind def
/j { setlinejoin } bind def
/M { setmiterlimit } bind def
/d { setdash } bind def
/m { moveto } bind def
/l { lineto } bind def
/c { curveto } bind def
/h { closepath } bind def
/re { exch dup neg 3 1 roll 5 3 roll moveto 0 rlineto
      0 exch rlineto 0 rlineto closepath } bind def
/S { stroke } bind def
/f { fill } bind def
/f* { eofill } bind def
/n { newpath } bind def
/W { clip } bind def
/W* { eoclip } bind def
/BT { } bind def
/ET { } bind def
/BDC { mark 3 1 roll /BDC pdfmark } bind def
/EMC { mark /EMC pdfmark } bind def
/cairo_store_point { /cairo_point_y exch def /cairo_point_x exch def } def
/Tj { show currentpoint cairo_store_point } bind def
/TJ {
  {
    dup
    type /stringtype eq
    { show } { -0.001 mul 0 cairo_font_matrix dtransform rmoveto } ifelse
  } forall
  currentpoint cairo_store_point
} bind def
/cairo_selectfont { cairo_font_matrix aload pop pop pop 0 0 6 array astore
    cairo_font exch selectfont cairo_point_x cairo_point_y moveto } bind def
/Tf { pop /cairo_font exch def /cairo_font_matrix where
      { pop cairo_selectfont } if } bind def
/Td { matrix translate cairo_font_matrix matrix concatmatrix dup
      /cairo_font_matrix exch def dup 4 get exch 5 get cairo_store_point
      /cairo_font where { pop cairo_selectfont } if } bind def
/Tm { 2 copy 8 2 roll 6 array astore /cairo_font_matrix exch def
      cairo_store_point /cairo_font where { pop cairo_selectfont } if } bind def
/g { setgray } bind def
/rg { setrgbcolor } bind def
/d1 { setcachedevice } bind def
/cairo_data_source {
  CairoDataIndex CairoData length lt
    { CairoData CairoDataIndex get /CairoDataIndex CairoDataIndex 1 add def }
    { () } ifelse
} def
/cairo_flush_ascii85_file { cairo_ascii85_file status { cairo_ascii85_file flushfile } if } def
/cairo_image { image cairo_flush_ascii85_file } def
/cairo_imagemask { imagemask cairo_flush_ascii85_file } def
%%EndProlog
%%BeginSetup
%%EndSetup
%%Page: 1 1
%%BeginPageSetup
%%PageBoundingBox: 0 0 1019 422
%%EndPageSetup
q 0 0 1019 422 rectclip
1 0 0 -1 0 422 cm q
0.333333 0.52549 0.643137 rg
138.289 236.266 m 140.645 244.855 144.344 252.59 149.391 259.461 c 154.434
 266.332 160.906 271.855 168.812 276.031 c 176.715 280.207 186.129 282.285
 197.066 282.285 c 207.996 282.285 217.41 280.207 225.316 276.031 c 233.219
 271.855 239.691 266.332 244.738 259.461 c 249.781 252.59 253.48 244.855
 255.836 236.266 c 258.191 227.672 259.367 218.957 259.367 210.121 c 259.367
 201.285 258.191 192.578 255.836 183.984 c 253.48 175.391 249.781 167.66
 244.738 160.785 c 239.691 153.914 233.219 148.395 225.316 144.219 c 217.41
 140.043 207.996 137.957 197.066 137.957 c 186.129 137.957 176.715 140.043
 168.812 144.219 c 160.906 148.395 154.434 153.914 149.391 160.785 c 144.344
 167.66 140.645 175.391 138.289 183.984 c 135.934 192.578 134.762 201.285
 134.762 210.121 c 134.762 218.957 135.934 227.672 138.289 236.266 c h
116.316 175.605 m 119.926 164.574 125.348 154.801 132.566 146.301 c 139.785
 137.801 148.777 131.012 159.523 125.945 c 170.27 120.879 182.785 118.34
 197.066 118.34 c 211.34 118.34 223.855 120.879 234.602 125.945 c 245.348
 131.012 254.34 137.801 261.559 146.301 c 268.777 154.801 274.199 164.574
 277.809 175.605 c 281.418 186.641 283.23 198.125 283.23 210.059 c 283.23
 221.992 281.418 233.484 277.809 244.516 c 274.199 255.547 268.777 265.32
 261.559 273.82 c 254.34 282.324 245.348 289.07 234.602 294.055 c 223.855
 299.035 211.34 301.531 197.066 301.531 c 182.785 301.531 170.27 299.035
 159.523 294.055 c 148.777 289.07 139.785 282.324 132.566 273.82 c 125.348
 265.32 119.926 255.547 116.316 244.516 c 112.707 233.484 110.902 221.992
 110.902 210.059 c 110.902 198.125 112.707 186.641 116.316 175.605 c f
385.938 225.762 m 384.543 220.801 382.418 216.379 379.555 212.492 c 376.688
 208.605 373.016 205.512 368.535 203.211 c 364.047 200.91 358.801 199.758
 352.781 199.758 c 346.461 199.758 341.098 200.984 336.695 203.43 c 332.285
 205.879 328.691 209.074 325.898 213.031 c 323.102 216.984 321.086 221.484
 319.836 226.523 c 318.586 231.559 317.965 236.664 317.965 241.84 c 317.965
 247.309 318.621 252.594 319.949 257.699 c 321.27 262.812 323.363 267.305
 326.227 271.191 c 329.09 275.078 332.797 278.203 337.352 280.578 c 341.91
 282.953 347.418 284.137 353.883 284.137 c 360.344 284.137 365.742 282.918
 370.074 280.473 c 374.406 278.027 377.898 274.789 380.543 270.758 c 383.18
 266.734 385.094 262.129 386.27 256.949 c 387.441 251.766 388.031 246.445
 388.031 240.977 c 388.031 235.801 387.336 230.73 385.938 225.762 c h
318.723 186.074 m 318.723 201.199 l 319.102 201.199 l 322.191 195.008 327.051
 190.5 333.68 187.691 c 340.305 184.883 347.59 183.477 355.547 183.477 c
 364.375 183.477 372.066 185.059 378.625 188.23 c 385.176 191.398 390.621
 195.68 394.965 201.07 c 399.309 206.473 402.578 212.695 404.793 219.746
 c 407 226.797 408.105 234.281 408.105 242.199 c 408.105 250.113 407.035
 257.598 404.906 264.652 c 402.77 271.703 399.531 277.859 395.188 283.109
 c 390.844 288.359 385.395 292.5 378.844 295.52 c 372.285 298.535 364.668
 300.051 355.984 300.051 c 353.184 300.051 350.055 299.762 346.598 299.188
 c 343.137 298.605 339.715 297.676 336.328 296.379 c 332.945 295.086 329.738
 293.312 326.719 291.082 c 323.699 288.852 321.164 286.082 319.102 282.762
 c 318.723 282.762 l 318.723 340.391 l 299.785 340.391 l 299.785 186.074
 l 318.723 186.074 l f
500.105 218.934 m 498.418 215.059 496.137 211.719 493.273 208.918 c 490.402
 206.121 487.02 203.895 483.125 202.242 c 479.223 200.586 474.922 199.758
 470.215 199.758 c 465.363 199.758 460.984 200.586 457.09 202.242 c 453.191
 203.895 449.848 206.156 447.055 209.023 c 444.262 211.898 442.055 215.238
 440.438 219.043 c 438.816 222.848 437.863 226.906 437.566 231.215 c 503.09
 231.215 l 502.793 226.906 501.801 222.812 500.105 218.934 c h
504.695 290.562 m 496.137 296.887 485.371 300.051 472.387 300.051 c 463.238
 300.051 455.305 298.613 448.594 295.738 c 441.875 292.859 436.23 288.828
 431.656 283.645 c 427.082 278.465 423.648 272.277 421.363 265.078 c 419.082
 257.883 417.789 250.039 417.492 241.551 c 417.492 233.062 418.82 225.289
 421.484 218.234 c 424.141 211.18 427.867 205.062 432.668 199.883 c 437.465
 194.699 443.152 190.676 449.723 187.797 c 456.293 184.918 463.496 183.477
 471.324 183.477 c 481.516 183.477 489.965 185.535 496.688 189.641 c 503.41
 193.75 508.801 198.98 512.859 205.324 c 516.922 211.672 519.73 218.594 
521.281 226.086 c 522.832 233.586 523.461 240.723 523.164 247.5 c 437.566
 247.5 l 437.418 252.387 438.004 257.02 439.332 261.402 c 440.656 265.785
 442.789 269.664 445.734 273.043 c 448.684 276.418 452.434 279.105 457.004
 281.117 c 461.562 283.133 466.938 284.137 473.121 284.137 c 481.07 284.137
 487.586 282.34 492.664 278.738 c 497.742 275.133 501.09 269.66 502.711 
262.305 c 521.293 262.305 l 518.785 274.816 513.254 284.234 504.695 290.562
 c f
553.516 186.074 m 553.516 203.797 l 553.871 203.797 l 561.719 190.254 574.164
 183.477 591.203 183.477 c 598.754 183.477 605.047 184.488 610.09 186.504
 c 615.125 188.523 619.199 191.336 622.312 194.938 c 625.426 198.539 627.609
 202.824 628.867 207.797 c 630.121 212.77 630.758 218.281 630.758 224.336
 c 630.758 297.832 l 611.82 297.832 l 611.82 222.227 l 611.82 215.316 609.746
 209.844 605.609 205.809 c 601.469 201.777 595.781 199.758 588.543 199.758
 c 582.781 199.758 577.793 200.625 573.578 202.355 c 569.363 204.086 565.855
 206.531 563.051 209.699 c 560.246 212.867 558.141 216.574 556.734 220.82
 c 555.328 225.07 554.629 229.711 554.629 234.754 c 554.629 297.832 l 535.691
 297.832 l 535.691 186.074 l 553.516 186.074 l f
761.664 296.617 m 753.113 300.137 744.48 301.902 735.77 301.902 c 722.016
 301.902 709.652 299.559 698.672 294.887 c 687.684 290.211 678.426 283.77
 670.879 275.555 c 663.336 267.352 657.551 257.707 653.527 246.625 c 649.504
 235.547 647.492 223.602 647.492 210.797 c 647.492 197.672 649.5 185.484
 653.512 174.234 c 657.523 162.992 663.293 153.188 670.82 144.816 c 678.348
 136.441 687.598 129.879 698.574 125.113 c 709.551 120.355 721.914 117.973
 735.668 117.973 c 744.887 117.973 753.812 119.332 762.445 122.043 c 771.082
 124.762 778.875 128.75 785.836 134.012 c 792.793 139.273 798.535 145.762
 803.062 153.469 c 807.59 161.184 810.359 170.031 811.363 180.023 c 773.645
 180.023 l 771.297 170.199 766.766 162.828 760.062 157.91 c 753.352 152.996
 745.219 150.539 735.668 150.539 c 726.781 150.539 719.234 152.223 713.031
 155.586 c 706.832 158.953 701.801 163.469 697.941 169.129 c 694.082 174.797
 691.277 181.238 689.523 188.461 c 687.758 195.684 686.883 203.148 686.883
 210.863 c 686.883 218.254 687.762 225.434 689.527 232.406 c 691.289 239.383
 694.102 245.66 697.961 251.242 c 701.816 256.82 706.855 261.289 713.066
 264.656 c 719.277 268.023 726.832 269.703 735.734 269.703 c 748.824 269.703
 758.93 266.48 766.066 260.023 c 773.203 253.57 777.359 244.215 778.535 
231.957 c 738.805 231.957 l 738.805 203.09 l 814.141 203.09 l 814.141 297.965
 l 789.074 297.965 l 785.059 278.062 l 778.016 286.906 770.215 293.094 761.664
 296.617 c f
878.164 122.414 m 878.164 265.266 l 965.68 265.266 l 965.68 297.832 l 838.773
 297.832 l 838.773 122.414 l 878.164 122.414 l f
691.883 319.637 m 631.617 355.453 541.348 375.84 440.637 375.84 c 259.184
 375.84 112.09 302.012 112.09 210.938 c 112.09 119.863 259.184 46.031 440.637
 46.031 c 541.719 46.031 632.352 66.797 692.621 102.84 c 626.836 42.453 
508.887 0.02 374.023 0 c 167.477 -0.031 0.02 94.383 0 210.879 c -0.02 327.375
 167.406 421.848 373.957 421.875 c 508.281 421.898 625.926 379.602 691.883
 319.637 c f
0 g
998.465 280.312 m 1000.367 280.312 l 1001.625 280.312 1002.516 280.109 
1003.039 279.699 c 1003.555 279.289 1003.809 278.762 1003.809 278.117 c 
1003.809 277.469 1003.566 276.941 1003.07 276.531 c 1002.57 276.121 1001.727
 275.918 1000.539 275.918 c 998.465 275.918 l h
994.098 272.859 m 1001.961 272.859 l 1004.184 272.859 1005.797 273.309 
1006.801 274.207 c 1007.793 275.102 1008.289 276.305 1008.289 277.816 c 
1008.289 278.992 1007.914 280.012 1007.156 280.875 c 1006.387 281.738 1005.188
 282.363 1003.555 282.75 c 1004.23 283.008 1004.727 283.281 1005.039 283.566
 c 1005.488 283.969 1005.957 284.566 1006.445 285.355 c 1006.473 285.414
 1007.418 287.109 1009.285 290.441 c 1004.109 290.441 l 1002.43 287.094 
1001.305 285.094 1000.734 284.438 c 1000.152 283.785 999.582 283.457 999.008
 283.457 c 998.879 283.457 998.699 283.48 998.465 283.523 c 998.465 290.441
 l 994.098 290.441 l h
1014.824 281.648 m 1014.824 277.988 1013.523 274.859 1010.934 272.266 c
 1008.336 269.672 1005.215 268.379 1001.551 268.379 c 997.883 268.379 994.762
 269.672 992.164 272.266 c 989.57 274.859 988.273 277.988 988.273 281.648
 c 988.273 285.312 989.57 288.441 992.164 291.035 c 994.762 293.625 997.883
 294.922 1001.551 294.922 c 1005.215 294.922 1008.336 293.625 1010.934 291.035
 c 1013.523 288.441 1014.824 285.312 1014.824 281.648 c h
1018.012 281.648 m 1018.012 284.594 1017.273 287.34 1015.801 289.879 c 
1014.328 292.422 1012.32 294.426 1009.781 295.891 c 1007.242 297.359 1004.492
 298.09 1001.551 298.09 c 998.617 298.09 995.887 297.359 993.336 295.891
 c 990.797 294.426 988.789 292.422 987.32 289.879 c 985.848 287.34 985.105
 284.594 985.105 281.648 c 985.105 278.719 985.848 275.98 987.32 273.43 
c 988.789 270.879 990.797 268.875 993.336 267.406 c 995.887 265.941 998.617
 265.211 1001.551 265.211 c 1004.492 265.211 1007.242 265.941 1009.781 267.406
 c 1012.32 268.875 1014.328 270.879 1015.801 273.43 c 1017.273 275.98 1018.012
 278.719 1018.012 281.648 c f
Q Q
showpage
%%Trailer
end
%%EOF
