%!PS-Adobe-3.0 EPSF-3.0
%%Creator: cairo 1.15.10 (http://cairographics.org)
%%CreationDate: Wed Jun 27 16:39:30 2018
%%Pages: 1
%%DocumentData: Clean7Bit
%%LanguageLevel: 3
%%BoundingBox: 3 3 234 105
%%EndComments
%%BeginProlog
50 dict begin
/q { gsave } bind def
/Q { grestore } bind def
/cm { 6 array astore concat } bind def
/w { setlinewidth } bind def
/J { setlinecap } bind def
/j { setlinejoin } bind def
/M { setmiterlimit } bind def
/d { setdash } bind def
/m { moveto } bind def
/l { lineto } bind def
/c { curveto } bind def
/h { closepath } bind def
/re { exch dup neg 3 1 roll 5 3 roll moveto 0 rlineto
      0 exch rlineto 0 rlineto closepath } bind def
/S { stroke } bind def
/f { fill } bind def
/f* { eofill } bind def
/n { newpath } bind def
/W { clip } bind def
/W* { eoclip } bind def
/BT { } bind def
/ET { } bind def
/BDC { mark 3 1 roll /BDC pdfmark } bind def
/EMC { mark /EMC pdfmark } bind def
/cairo_store_point { /cairo_point_y exch def /cairo_point_x exch def } def
/Tj { show currentpoint cairo_store_point } bind def
/TJ {
  {
    dup
    type /stringtype eq
    { show } { -0.001 mul 0 cairo_font_matrix dtransform rmoveto } ifelse
  } forall
  currentpoint cairo_store_point
} bind def
/cairo_selectfont { cairo_font_matrix aload pop pop pop 0 0 6 array astore
    cairo_font exch selectfont cairo_point_x cairo_point_y moveto } bind def
/Tf { pop /cairo_font exch def /cairo_font_matrix where
      { pop cairo_selectfont } if } bind def
/Td { matrix translate cairo_font_matrix matrix concatmatrix dup
      /cairo_font_matrix exch def dup 4 get exch 5 get cairo_store_point
      /cairo_font where { pop cairo_selectfont } if } bind def
/Tm { 2 copy 8 2 roll 6 array astore /cairo_font_matrix exch def
      cairo_store_point /cairo_font where { pop cairo_selectfont } if } bind def
/g { setgray } bind def
/rg { setrgbcolor } bind def
/d1 { setcachedevice } bind def
/cairo_data_source {
  CairoDataIndex CairoData length lt
    { CairoData CairoDataIndex get /CairoDataIndex CairoDataIndex 1 add def }
    { () } ifelse
} def
/cairo_flush_ascii85_file { cairo_ascii85_file status { cairo_ascii85_file flushfile } if } def
/cairo_image { image cairo_flush_ascii85_file } def
/cairo_imagemask { imagemask cairo_flush_ascii85_file } def
%%EndProlog
%%BeginSetup
%%EndSetup
%%Page: 1 1
%%BeginPageSetup
%%PageBoundingBox: 3 3 234 105
%%EndPageSetup
q 3 3 231 102 rectclip
1 0 0 -1 0 108 cm q
0.2 g
45.227 62.262 m 47.672 78.434 l 48.352 78.434 l 51.07 62.125 l 69.281 6.406
 l 88.848 6.406 l 53.516 102.215 l 40.199 102.215 l 4.594 6.406 l 26.199
 6.406 l h
45.227 62.262 m f
0.160784 g
1.68375 w
0 J
0 j
[] 0.0 d
4 M q 1 0 0 1 0 0 cm
45.227 62.262 m 47.672 78.434 l 48.352 78.434 l 51.07 62.125 l 69.281 6.406
 l 88.848 6.406 l 53.516 102.215 l 40.199 102.215 l 4.594 6.406 l 26.199
 6.406 l h
45.227 62.262 m S Q
0.2 g
96.094 7.359 m 99.898 6.633 104.066 6.09 108.594 5.727 c 113.215 5.273 
117.789 5.047 122.32 5.047 c 127.031 5.047 131.742 5.453 136.453 6.27 c 
141.254 6.996 145.559 8.535 149.363 10.891 c 153.168 13.156 156.25 16.371
 158.605 20.539 c 161.051 24.617 162.273 29.961 162.273 36.574 c 162.273
 42.555 161.234 47.629 159.148 51.797 c 157.066 55.875 154.301 59.227 150.859
 61.852 c 147.418 64.48 143.477 66.383 139.035 67.562 c 134.688 68.738 130.156
 69.328 125.445 69.328 c 124.992 69.328 124.27 69.328 123.273 69.328 c 122.273
 69.328 121.234 69.328 120.145 69.328 c 119.059 69.238 117.973 69.145 116.883
 69.055 c 115.887 68.965 115.164 68.875 114.711 68.785 c 114.711 101.535
 l 96.094 101.535 l h
123.816 21.082 m 122.004 21.082 120.281 21.176 118.652 21.355 c 117.02 
21.445 115.707 21.582 114.711 21.762 c 114.711 52.613 l 115.074 52.703 115.617
 52.793 116.34 52.883 c 117.066 52.973 117.836 53.066 118.652 53.156 c 119.465
 53.156 120.238 53.156 120.961 53.156 c 121.777 53.156 122.367 53.156 122.727
 53.156 c 125.176 53.156 127.574 52.93 129.93 52.477 c 132.375 52.023 134.551
 51.207 136.453 50.031 c 138.355 48.762 139.852 47.039 140.938 44.867 c 
142.117 42.691 142.707 39.836 142.707 36.305 c 142.707 33.312 142.16 30.867
 141.074 28.965 c 139.988 26.973 138.539 25.387 136.727 24.211 c 135.004
 23.031 133.012 22.215 130.746 21.762 c 128.48 21.309 126.172 21.082 123.816
 21.082 c f
0.160784 g
q 1 0 0 1 0 0 cm
96.094 7.359 m 99.898 6.633 104.066 6.09 108.594 5.727 c 113.215 5.273 
117.789 5.047 122.32 5.047 c 127.031 5.047 131.742 5.453 136.453 6.27 c 
141.254 6.996 145.559 8.535 149.363 10.891 c 153.168 13.156 156.25 16.371
 158.605 20.539 c 161.051 24.617 162.273 29.961 162.273 36.574 c 162.273
 42.555 161.234 47.629 159.148 51.797 c 157.066 55.875 154.301 59.227 150.859
 61.852 c 147.418 64.48 143.477 66.383 139.035 67.562 c 134.688 68.738 130.156
 69.328 125.445 69.328 c 124.992 69.328 124.27 69.328 123.273 69.328 c 122.273
 69.328 121.234 69.328 120.145 69.328 c 119.059 69.238 117.973 69.145 116.883
 69.055 c 115.887 68.965 115.164 68.875 114.711 68.785 c 114.711 101.535
 l 96.094 101.535 l h
123.816 21.082 m 122.004 21.082 120.281 21.176 118.652 21.355 c 117.02 
21.445 115.707 21.582 114.711 21.762 c 114.711 52.613 l 115.074 52.703 115.617
 52.793 116.34 52.883 c 117.066 52.973 117.836 53.066 118.652 53.156 c 119.465
 53.156 120.238 53.156 120.961 53.156 c 121.777 53.156 122.367 53.156 122.727
 53.156 c 125.176 53.156 127.574 52.93 129.93 52.477 c 132.375 52.023 134.551
 51.207 136.453 50.031 c 138.355 48.762 139.852 47.039 140.938 44.867 c 
142.117 42.691 142.707 39.836 142.707 36.305 c 142.707 33.312 142.16 30.867
 141.074 28.965 c 139.988 26.973 138.539 25.387 136.727 24.211 c 135.004
 23.031 133.012 22.215 130.746 21.762 c 128.48 21.309 126.172 21.082 123.816
 21.082 c S Q
q
168.934 36.168 m 168.934 31.547 169.613 27.289 170.969 23.395 c 172.422
 19.496 174.457 16.191 177.086 13.473 c 179.805 10.664 183.066 8.488 186.871
 6.949 c 190.766 5.32 195.207 4.504 200.188 4.504 c 210.426 4.504 218.445
 7.586 224.242 13.746 c 230.133 19.816 233.078 28.695 233.078 40.383 c 233.078
 50.891 231.719 59.996 229 67.695 c 226.371 75.309 222.793 81.695 218.262
 86.859 c 213.824 91.934 208.66 95.828 202.77 98.547 c 196.883 101.266 190.676
 102.895 184.152 103.438 c 180.348 89.578 l 185.332 88.941 189.77 87.719
 193.664 85.906 c 197.562 84.094 200.914 81.875 203.723 79.25 c 206.531 
76.531 208.797 73.496 210.516 70.145 c 212.328 66.699 213.598 63.031 214.324
 59.137 c 212.148 61.492 209.793 63.121 207.254 64.027 c 204.809 64.934 
201.504 65.387 197.336 65.387 c 193.891 65.387 190.449 64.797 187.008 63.621
 c 183.656 62.441 180.621 60.676 177.902 58.32 c 175.273 55.875 173.098 
52.84 171.379 49.215 c 169.746 45.5 168.934 41.152 168.934 36.168 c 186.055
 35.219 m 186.055 40.383 187.504 44.277 190.402 46.902 c 193.305 49.531 
196.926 50.844 201.277 50.844 c 204.992 50.844 208.027 50.258 210.383 49.078
 c 212.738 47.902 214.547 46.453 215.816 44.73 c 216.09 42.828 216.227 41.016
 216.227 39.293 c 216.227 36.758 215.906 34.266 215.273 31.82 c 214.641 
29.375 213.645 27.199 212.285 25.297 c 211.016 23.395 209.34 21.898 207.254
 20.812 c 205.262 19.633 202.863 19.047 200.055 19.043 c 195.613 19.047 
192.172 20.496 189.723 23.395 c 187.277 26.203 186.055 30.145 186.055 35.219
 c W n
[0.75 0 0 0.75 -322.891853 78.352538] concat
/CairoFunction
   << /FunctionType 2
      /Domain [ 0 1 ]
      /C0 [ 0.541176 0.886275 0.203922 ]
      /C1 [ 0.305882 0.603922 0.0235294 ]
      /N 1
   >>
def
   << /ShadingType 2
      /ColorSpace /DeviceRGB
      /Coords [ 656.699768 -94.192993 720.699768 3.807011 ]
      /Extend [ true true ]
      /Function CairoFunction
   >>
shfill
Q
0.211765 0.415686 0.0156863 rg
1.507307 w
0 J
1 j
[] 0.0 d
4 M q 1 0 0 1 0 0 cm
168.934 36.168 m 168.934 31.547 169.613 27.289 170.969 23.395 c 172.422
 19.496 174.457 16.191 177.086 13.473 c 179.805 10.664 183.066 8.488 186.871
 6.949 c 190.766 5.32 195.207 4.504 200.188 4.504 c 210.426 4.504 218.445
 7.586 224.242 13.746 c 230.133 19.816 233.078 28.695 233.078 40.383 c 233.078
 50.891 231.719 59.996 229 67.695 c 226.371 75.309 222.793 81.695 218.262
 86.859 c 213.824 91.934 208.66 95.828 202.77 98.547 c 196.883 101.266 190.676
 102.895 184.152 103.438 c 180.348 89.578 l 185.332 88.941 189.77 87.719
 193.664 85.906 c 197.562 84.094 200.914 81.875 203.723 79.25 c 206.531 
76.531 208.797 73.496 210.516 70.145 c 212.328 66.699 213.598 63.031 214.324
 59.137 c 212.148 61.492 209.793 63.121 207.254 64.027 c 204.809 64.934 
201.504 65.387 197.336 65.387 c 193.891 65.387 190.449 64.797 187.008 63.621
 c 183.656 62.441 180.621 60.676 177.902 58.32 c 175.273 55.875 173.098 
52.84 171.379 49.215 c 169.746 45.5 168.934 41.152 168.934 36.168 c 186.055
 35.219 m 186.055 40.383 187.504 44.277 190.402 46.902 c 193.305 49.531 
196.926 50.844 201.277 50.844 c 204.992 50.844 208.027 50.258 210.383 49.078
 c 212.738 47.902 214.547 46.453 215.816 44.73 c 216.09 42.828 216.227 41.016
 216.227 39.293 c 216.227 36.758 215.906 34.266 215.273 31.82 c 214.641 
29.375 213.645 27.199 212.285 25.297 c 211.016 23.395 209.34 21.898 207.254
 20.812 c 205.262 19.633 202.863 19.047 200.055 19.043 c 195.613 19.047 
192.172 20.496 189.723 23.395 c 187.277 26.203 186.055 30.145 186.055 35.219
 c S Q
Q Q
showpage
%%Trailer
end
%%EOF
