%!PS-Adobe-3.0 EPSF-3.0
%%Creator: cairo 1.15.10 (http://cairographics.org)
%%CreationDate: Wed Jun 27 10:38:59 2018
%%Pages: 1
%%DocumentData: Clean7Bit
%%LanguageLevel: 2
%%BoundingBox: 0 0 840 223
%%EndComments
%%BeginProlog
50 dict begin
/q { gsave } bind def
/Q { grestore } bind def
/cm { 6 array astore concat } bind def
/w { setlinewidth } bind def
/J { setlinecap } bind def
/j { setlinejoin } bind def
/M { setmiterlimit } bind def
/d { setdash } bind def
/m { moveto } bind def
/l { lineto } bind def
/c { curveto } bind def
/h { closepath } bind def
/re { exch dup neg 3 1 roll 5 3 roll moveto 0 rlineto
      0 exch rlineto 0 rlineto closepath } bind def
/S { stroke } bind def
/f { fill } bind def
/f* { eofill } bind def
/n { newpath } bind def
/W { clip } bind def
/W* { eoclip } bind def
/BT { } bind def
/ET { } bind def
/BDC { mark 3 1 roll /BDC pdfmark } bind def
/EMC { mark /EMC pdfmark } bind def
/cairo_store_point { /cairo_point_y exch def /cairo_point_x exch def } def
/Tj { show currentpoint cairo_store_point } bind def
/TJ {
  {
    dup
    type /stringtype eq
    { show } { -0.001 mul 0 cairo_font_matrix dtransform rmoveto } ifelse
  } forall
  currentpoint cairo_store_point
} bind def
/cairo_selectfont { cairo_font_matrix aload pop pop pop 0 0 6 array astore
    cairo_font exch selectfont cairo_point_x cairo_point_y moveto } bind def
/Tf { pop /cairo_font exch def /cairo_font_matrix where
      { pop cairo_selectfont } if } bind def
/Td { matrix translate cairo_font_matrix matrix concatmatrix dup
      /cairo_font_matrix exch def dup 4 get exch 5 get cairo_store_point
      /cairo_font where { pop cairo_selectfont } if } bind def
/Tm { 2 copy 8 2 roll 6 array astore /cairo_font_matrix exch def
      cairo_store_point /cairo_font where { pop cairo_selectfont } if } bind def
/g { setgray } bind def
/rg { setrgbcolor } bind def
/d1 { setcachedevice } bind def
/cairo_data_source {
  CairoDataIndex CairoData length lt
    { CairoData CairoDataIndex get /CairoDataIndex CairoDataIndex 1 add def }
    { () } ifelse
} def
/cairo_flush_ascii85_file { cairo_ascii85_file status { cairo_ascii85_file flushfile } if } def
/cairo_image { image cairo_flush_ascii85_file } def
/cairo_imagemask { imagemask cairo_flush_ascii85_file } def
%%EndProlog
%%BeginSetup
%%EndSetup
%%Page: 1 1
%%BeginPageSetup
%%PageBoundingBox: 0 0 840 223
%%EndPageSetup
q 0 0 840 223 rectclip
1 0 0 -1 0 223 cm q
0 g
816.938 205.645 m 811.465 205.645 l 811.465 219.969 l 806.664 219.969 l
 806.664 205.645 l 801.188 205.645 l 801.188 201.52 l 817.016 201.52 l 817.016
 205.645 l h
816.938 205.645 m f
819.113 201.52 m 826.238 201.52 l 829.391 213.82 l 829.465 213.82 l 832.613
 201.52 l 839.738 201.52 l 839.738 219.969 l 835.238 219.969 l 835.238 205.945
 l 835.164 205.945 l 831.266 219.969 l 827.59 219.969 l 823.688 205.945 
l 823.613 205.945 l 823.613 219.969 l 819.113 219.969 l h
819.113 201.52 m f
0.643137 0.117647 0.133333 rg
466.312 219.82 m 435.863 219.82 l 435.863 219.82 435.863 145.57 435.863
 122.547 c 445.613 127.945 458.438 137.922 466.312 147.52 c h
466.312 219.82 m f
209.59 219.82 m 171.641 219.82 l 122.141 66.82 l 156.641 66.82 l 190.688
 174.445 l 191.141 174.445 l 225.641 66.82 l 260.363 66.82 l h
209.59 219.82 m f
362.363 219.82 m 333.414 219.82 l 333.414 204.371 l 332.738 204.371 l 328.914
 210.82 323.891 215.469 317.738 218.32 c 311.59 221.172 305.289 222.594 
298.914 222.594 c 290.738 222.594 284.062 221.547 278.891 219.371 c 273.641
 217.195 269.59 214.195 266.59 210.297 c 263.59 206.395 261.488 201.594 
260.289 195.969 c 259.09 190.344 258.488 184.047 258.488 177.219 c 258.488
 109.047 l 288.938 109.047 l 288.938 171.594 l 288.938 180.746 290.363 187.57
 293.215 192.07 c 296.062 196.57 301.164 198.82 308.438 198.82 c 316.688
 198.82 322.766 196.344 326.438 191.395 c 330.188 186.445 331.988 178.344
 331.988 167.094 c 331.988 109.047 l 362.438 109.047 l 362.438 219.82 l 
h
362.363 219.82 m f
503.891 149.695 m 550.391 219.82 l 513.488 219.82 l 471.34 153.145 l 471.266
 148.871 l 509.664 108.969 l 545.664 108.969 l h
503.891 149.695 m f
555.938 143.094 m 556.391 135.969 558.188 130.047 561.34 125.32 c 564.488
 120.594 568.465 116.844 573.34 113.996 c 578.215 111.145 583.688 109.121
 589.766 107.922 c 595.84 106.719 601.914 106.121 608.062 106.121 c 613.613
 106.121 619.312 106.496 625.016 107.32 c 630.715 108.145 635.965 109.645
 640.688 111.895 c 645.414 114.219 649.238 117.371 652.238 121.422 c 655.238
 125.469 656.738 130.871 656.738 137.621 c 656.738 195.297 l 656.738 200.32
 657.039 205.121 657.562 209.621 c 658.164 214.195 659.141 217.645 660.562
 219.895 c 629.664 219.895 l 629.062 218.172 628.613 216.445 628.238 214.645
 c 627.863 212.844 627.641 211.047 627.488 209.172 c 622.613 214.195 616.914
 217.645 610.312 219.672 c 603.715 221.695 597.039 222.672 590.141 222.672
 c 584.891 222.672 579.938 221.996 575.363 220.719 c 570.789 219.445 566.812
 217.422 563.363 214.719 c 559.914 212.02 557.215 208.57 555.34 204.445 
c 553.391 200.32 552.414 195.371 552.414 189.672 c 552.414 183.371 553.539
 178.195 555.715 174.145 c 557.965 170.094 560.812 166.797 564.266 164.395
 c 567.789 161.996 571.766 160.121 576.266 158.922 c 580.766 157.719 585.266
 156.746 589.84 155.996 c 594.414 155.32 598.914 154.719 603.34 154.27 c
 607.766 153.82 611.664 153.219 615.113 152.32 c 618.562 151.496 621.266
 150.219 623.289 148.57 c 625.312 146.922 626.215 144.52 626.062 141.371
 c 626.062 138.07 625.539 135.445 624.414 133.57 c 623.363 131.621 621.938
 130.121 620.141 129.07 c 618.34 128.02 616.312 127.27 613.914 126.895 c
 611.59 126.52 609.039 126.371 606.34 126.371 c 600.34 126.371 595.613 127.645
 592.164 130.195 c 588.715 132.746 586.766 137.02 586.164 143.02 c 555.938
 143.02 l h
626.289 165.594 m 625.016 166.719 623.363 167.621 621.488 168.297 c 619.539
 168.969 617.516 169.496 615.266 169.945 c 613.09 170.395 610.766 170.695
 608.289 170.996 c 605.891 171.297 603.414 171.672 601.016 172.047 c 598.766
 172.496 596.516 173.02 594.266 173.77 c 592.016 174.52 590.141 175.422 
588.488 176.695 c 586.84 177.895 585.488 179.469 584.516 181.27 c 583.539
 183.145 583.016 185.469 583.016 188.32 c 583.016 191.02 583.539 193.344
 584.516 195.145 c 585.488 197.02 586.84 198.445 588.562 199.57 c 590.289
 200.621 592.312 201.371 594.562 201.82 c 596.891 202.27 599.215 202.496
 601.613 202.496 c 607.613 202.496 612.266 201.52 615.562 199.496 c 618.863
 197.469 621.266 195.07 622.84 192.297 c 624.414 189.52 625.391 186.672 
625.766 183.82 c 626.141 180.969 626.289 178.645 626.289 176.996 c h
626.289 165.594 m f
676.391 108.969 m 705.34 108.969 l 705.34 124.422 l 706.016 124.422 l 709.84
 117.969 714.863 113.32 721.016 110.395 c 727.164 107.469 733.465 105.969
 739.84 105.969 c 748.016 105.969 754.688 107.094 759.863 109.27 c 765.113
 111.52 769.164 114.594 772.164 118.496 c 775.164 122.395 777.266 127.195
 778.465 132.82 c 779.664 138.445 780.266 144.746 780.266 151.57 c 780.266
 219.746 l 749.812 219.746 l 749.812 157.195 l 749.812 148.047 748.391 141.219
 745.539 136.719 c 742.688 132.219 737.59 129.969 730.312 129.969 c 722.062
 129.969 716.062 132.445 712.312 137.395 c 708.562 142.344 706.766 150.445
 706.766 161.695 c 706.766 219.746 l 676.312 219.746 l 676.312 108.969 l
 h
676.391 108.969 m f
382.539 89.844 m 382.539 219.746 l 412.988 219.746 l 412.988 106.645 l 
403.164 100.645 393.039 95.02 382.539 89.844 c h
382.539 89.844 m f
72.039 95.395 m 89.664 43.719 195.188 24.746 307.613 53.094 c 375.113 70.047
 430.238 102.969 466.238 135.52 c 449.965 92.32 370.766 30.82 261.641 9.746
 c 138.266 -14.105 16.613 6.82 1.539 61.57 c -9.336 101.094 38.438 147.445
 112.312 179.094 c 79.09 152.246 62.965 122.094 72.039 95.395 c h
72.039 95.395 m f
466.391 116.695 m 466.391 66.746 l 435.938 66.746 l 435.938 81.895 l 448.914
 93.52 459.188 105.297 466.391 116.695 c h
466.391 116.695 m f
Q Q
showpage
%%Trailer
end
%%EOF
