%!PS-Adobe-3.0 EPSF-3.0
%%Creator: cairo 1.15.10 (http://cairographics.org)
%%CreationDate: Wed Jun 27 16:41:21 2018
%%Pages: 1
%%DocumentData: Clean7Bit
%%LanguageLevel: 2
%%BoundingBox: 4 4 559 101
%%EndComments
%%BeginProlog
50 dict begin
/q { gsave } bind def
/Q { grestore } bind def
/cm { 6 array astore concat } bind def
/w { setlinewidth } bind def
/J { setlinecap } bind def
/j { setlinejoin } bind def
/M { setmiterlimit } bind def
/d { setdash } bind def
/m { moveto } bind def
/l { lineto } bind def
/c { curveto } bind def
/h { closepath } bind def
/re { exch dup neg 3 1 roll 5 3 roll moveto 0 rlineto
      0 exch rlineto 0 rlineto closepath } bind def
/S { stroke } bind def
/f { fill } bind def
/f* { eofill } bind def
/n { newpath } bind def
/W { clip } bind def
/W* { eoclip } bind def
/BT { } bind def
/ET { } bind def
/BDC { mark 3 1 roll /BDC pdfmark } bind def
/EMC { mark /EMC pdfmark } bind def
/cairo_store_point { /cairo_point_y exch def /cairo_point_x exch def } def
/Tj { show currentpoint cairo_store_point } bind def
/TJ {
  {
    dup
    type /stringtype eq
    { show } { -0.001 mul 0 cairo_font_matrix dtransform rmoveto } ifelse
  } forall
  currentpoint cairo_store_point
} bind def
/cairo_selectfont { cairo_font_matrix aload pop pop pop 0 0 6 array astore
    cairo_font exch selectfont cairo_point_x cairo_point_y moveto } bind def
/Tf { pop /cairo_font exch def /cairo_font_matrix where
      { pop cairo_selectfont } if } bind def
/Td { matrix translate cairo_font_matrix matrix concatmatrix dup
      /cairo_font_matrix exch def dup 4 get exch 5 get cairo_store_point
      /cairo_font where { pop cairo_selectfont } if } bind def
/Tm { 2 copy 8 2 roll 6 array astore /cairo_font_matrix exch def
      cairo_store_point /cairo_font where { pop cairo_selectfont } if } bind def
/g { setgray } bind def
/rg { setrgbcolor } bind def
/d1 { setcachedevice } bind def
/cairo_data_source {
  CairoDataIndex CairoData length lt
    { CairoData CairoDataIndex get /CairoDataIndex CairoDataIndex 1 add def }
    { () } ifelse
} def
/cairo_flush_ascii85_file { cairo_ascii85_file status { cairo_ascii85_file flushfile } if } def
/cairo_image { image cairo_flush_ascii85_file } def
/cairo_imagemask { imagemask cairo_flush_ascii85_file } def
%%EndProlog
%%BeginSetup
%%EndSetup
%%Page: 1 1
%%BeginPageSetup
%%PageBoundingBox: 4 4 559 101
%%EndPageSetup
q 4 4 555 97 rectclip
1 0 0 -1 0 105 cm q
1 0.4 0 rg
290.695 78.477 m 290.695 90.891 280.633 100.957 268.219 100.957 c 255.805
 100.957 245.742 90.891 245.742 78.477 c 245.742 66.062 255.805 56 268.219
 56 c 280.633 56 290.695 66.062 290.695 78.477 c f
1 0.8 0 rg
335.152 47.008 m 335.152 59.418 325.09 69.484 312.676 69.484 c 300.262 
69.484 290.199 59.418 290.199 47.008 c 290.199 34.594 300.262 24.527 312.676
 24.527 c 325.09 24.527 335.152 34.594 335.152 47.008 c f
0 0.537255 0.8 rg
280.211 46.512 m 280.211 58.922 270.145 68.988 257.73 68.988 c 245.32 68.988
 235.254 58.922 235.254 46.512 c 235.254 34.098 245.32 24.031 257.73 24.031
 c 270.145 24.031 280.211 34.098 280.211 46.512 c f
0 0.6 0.223529 rg
325.164 78.477 m 325.164 90.891 315.102 100.957 302.684 100.957 c 290.27
 100.957 280.207 90.891 280.207 78.477 c 280.207 66.062 290.27 56 302.684
 56 c 315.102 56 325.164 66.062 325.164 78.477 c f
0.74902 0 0 rg
307.68 26.527 m 307.68 38.941 297.617 49.008 285.203 49.008 c 272.789 49.008
 262.727 38.941 262.727 26.527 c 262.727 14.113 272.789 4.051 285.203 4.051
 c 297.617 4.051 307.68 14.113 307.68 26.527 c f
0.988235 0 0.027451 rg
290.199 47.008 m 290.199 47.48 290.242 47.941 290.27 48.41 c 300.242 46.109
 307.684 37.195 307.684 26.527 c 307.684 26.055 307.641 25.59 307.609 25.121
 c 297.641 27.422 290.199 36.336 290.199 47.008 c f
0.109804 0.827451 0.0235294 rg
293.168 58.137 m 297.039 64.91 304.32 69.484 312.68 69.484 c 316.09 69.484
 319.305 68.703 322.203 67.348 c 318.328 60.574 311.051 55.996 302.688 55.996
 c 299.281 55.996 296.062 56.777 293.168 58.137 c f
0.0588235 0.458824 0.0156863 rg
280.211 78.477 m 280.211 83.969 282.184 88.996 285.457 92.898 c 288.723
 88.996 290.699 83.969 290.699 78.477 c 290.699 72.984 288.723 67.961 285.457
 64.055 c 282.184 67.961 280.211 72.984 280.211 78.477 c f
0.0470588 0.368627 0.529412 rg
248.832 67.148 m 251.562 68.328 254.566 68.988 257.73 68.988 c 266.008 
68.988 273.219 64.5 277.121 57.84 c 274.391 56.66 271.383 56 268.223 56 
c 259.945 56 252.73 60.488 248.832 67.148 c f
0.419608 0 0.00392157 rg
262.824 24.629 m 262.77 25.258 262.727 25.887 262.727 26.527 c 262.727 
37.188 270.156 46.094 280.113 48.402 c 280.164 47.777 280.211 47.148 280.211
 46.508 c 280.211 35.848 272.781 26.938 262.824 24.629 c f
1 g
264.922 75.695 m 261.406 75.695 l 258.301 75.695 255.777 73.176 255.777
 70.082 c 255.777 38.254 l 255.777 35.156 258.301 32.641 261.406 32.641 
c 305.496 32.641 l 308.602 32.641 311.125 35.156 311.125 38.254 c 311.125
 70.082 l 311.125 73.176 308.602 75.695 305.496 75.695 c 290.477 75.695 
l 260.34 90.469 l h
264.922 75.695 m f
0.2 g
65.039 80.699 m 52.66 34.789 l 40.125 80.699 l 39.152 84.184 38.367 86.688
 37.777 88.223 c 37.219 89.719 36.227 91.078 34.797 92.297 c 33.371 93.48
 31.473 94.07 29.105 94.07 c 27.191 94.07 25.605 93.707 24.352 92.973 c 
23.133 92.277 22.141 91.285 21.375 89.996 c 20.609 88.672 19.98 87.125 19.496
 85.348 c 19.008 83.539 18.57 81.867 18.188 80.336 c 5.445 28.781 l 4.68
 25.789 4.297 23.508 4.297 21.941 c 4.297 19.957 4.992 18.285 6.387 16.926
 c 7.777 15.566 9.5 14.891 11.555 14.891 c 14.375 14.891 16.273 15.793 17.25
 17.605 c 18.223 19.414 19.078 22.043 19.809 25.492 c 29.836 70.203 l 41.066
 28.363 l 41.902 25.16 42.652 22.723 43.312 21.055 c 43.973 19.383 45.055
 17.938 46.551 16.719 c 48.047 15.5 50.086 14.891 52.66 14.891 c 55.273 
14.891 57.293 15.535 58.719 16.82 c 60.184 18.074 61.191 19.449 61.75 20.949
 c 62.309 22.445 63.055 24.918 63.996 28.363 c 75.328 70.203 l 85.359 25.492
 l 85.844 23.16 86.297 21.332 86.715 20.008 c 87.168 18.684 87.918 17.5 
88.961 16.457 c 90.043 15.41 91.59 14.891 93.609 14.891 c 95.629 14.891 
97.336 15.566 98.73 16.926 c 100.156 18.25 100.871 19.922 100.871 21.941
 c 100.871 23.367 100.488 25.648 99.723 28.781 c 86.977 80.336 l 86.105 
83.816 85.375 86.375 84.785 88.012 c 84.227 89.613 83.25 91.023 81.859 92.242
 c 80.5 93.461 78.566 94.07 76.062 94.07 c 73.695 94.07 71.797 93.48 70.367
 92.297 c 68.941 91.109 67.949 89.789 67.391 88.324 c 66.832 86.828 66.051
 84.285 65.039 80.699 c h
65.039 80.699 m f
147.305 68.578 m 119.41 68.578 l 119.445 71.816 120.09 74.672 121.344 77.145
 c 122.633 79.617 124.32 81.48 126.41 82.734 c 128.535 83.988 130.867 84.613
 133.41 84.613 c 135.117 84.613 136.664 84.422 138.059 84.039 c 139.484 
83.621 140.863 82.996 142.184 82.16 c 143.508 81.289 144.727 80.367 145.84
 79.391 c 146.953 78.418 148.398 77.094 150.176 75.422 c 150.906 74.797 
151.953 74.48 153.309 74.48 c 154.773 74.48 155.957 74.883 156.863 75.684
 c 157.766 76.484 158.219 77.617 158.219 79.078 c 158.219 80.367 157.715
 81.883 156.703 83.621 c 155.695 85.328 154.164 86.984 152.109 88.586 c 
150.09 90.152 147.531 91.457 144.43 92.5 c 141.367 93.547 137.832 94.07 
133.828 94.07 c 124.672 94.07 117.551 91.457 112.465 86.234 c 107.383 81.012
 104.84 73.926 104.84 64.977 c 104.84 60.762 105.465 56.863 106.719 53.277
 c 107.973 49.656 109.801 46.555 112.203 43.98 c 114.605 41.402 117.566 
39.434 121.082 38.078 c 124.602 36.684 128.5 35.988 132.785 35.988 c 138.355
 35.988 143.125 37.172 147.094 39.539 c 151.098 41.871 154.094 44.902 156.078
 48.629 c 158.062 52.355 159.055 56.148 159.055 60.016 c 159.055 63.602 
158.027 65.934 155.973 67.012 c 153.918 68.059 151.031 68.582 147.305 68.582
 c h
119.41 60.484 m 145.266 60.484 l 144.918 55.609 143.594 51.973 141.297 
49.566 c 139.031 47.129 136.039 45.91 132.312 45.91 c 128.762 45.91 125.836
 47.148 123.539 49.621 c 121.273 52.059 119.898 55.68 119.41 60.484 c h
119.41 60.484 m f
182.715 23.039 m 182.715 44.82 l 185.398 42.035 188.129 39.91 190.918 38.449
 c 193.703 36.949 197.148 36.203 201.258 36.203 c 205.992 36.203 210.137
 37.332 213.688 39.598 c 217.277 41.824 220.043 45.082 221.992 49.363 c 
223.98 53.613 224.973 58.66 224.973 64.512 c 224.973 68.828 224.414 72.797
 223.301 76.418 c 222.219 80.008 220.637 83.121 218.547 85.77 c 216.457 
88.414 213.914 90.469 210.922 91.934 c 207.961 93.359 204.688 94.074 201.102
 94.074 c 198.906 94.074 196.836 93.812 194.887 93.289 c 192.973 92.77 191.336
 92.09 189.977 91.254 c 188.617 90.383 187.453 89.496 186.477 88.59 c 185.535
 87.684 184.285 86.328 182.715 84.516 c 182.715 85.926 l 182.715 88.605 
182.074 90.645 180.785 92.035 c 179.496 93.395 177.859 94.074 175.875 94.074
 c 173.855 94.074 172.234 93.395 171.016 92.035 c 169.832 90.645 169.242
 88.605 169.242 85.926 c 169.242 23.668 l 169.242 20.777 169.816 18.602 
170.965 17.137 c 172.148 15.641 173.785 14.891 175.875 14.891 c 178.066 
14.891 179.758 15.605 180.941 17.035 c 182.125 18.426 182.715 20.43 182.715
 23.039 c h
183.395 65.398 m 183.395 71.074 184.684 75.445 187.262 78.508 c 189.871
 81.539 193.285 83.055 197.496 83.055 c 201.082 83.055 204.164 81.504 206.742
 78.406 c 209.352 75.27 210.66 70.797 210.66 64.98 c 210.66 61.223 210.121
 57.984 209.039 55.266 c 207.961 52.551 206.43 50.461 204.445 49 c 202.457
 47.5 200.145 46.754 197.496 46.754 c 194.781 46.754 192.359 47.5 190.238
 49 c 188.113 50.461 186.441 52.602 185.223 55.422 c 184.004 58.207 183.395
 61.535 183.395 65.398 c h
183.395 65.398 m f
368.574 58.328 m 362.859 58.328 l 362.859 84.199 l 362.859 87.605 362.109
 90.113 360.609 91.727 c 359.105 93.336 357.148 94.145 354.73 94.145 c 352.129
 94.145 350.117 93.301 348.688 91.617 c 347.258 89.93 346.547 87.461 346.547
 84.199 c 346.547 22.238 l 346.547 18.723 347.332 16.176 348.906 14.602 
c 350.48 13.027 353.027 12.238 356.543 12.238 c 383.074 12.238 l 386.738
 12.238 389.867 12.406 392.469 12.734 c 395.066 13.027 397.41 13.648 399.5
 14.602 c 402.027 15.664 404.262 17.184 406.199 19.16 c 408.141 21.137 409.605
 23.445 410.594 26.082 c 411.621 28.684 412.133 31.449 412.133 34.379 c 
412.133 40.383 410.43 45.18 407.023 48.77 c 403.656 52.359 398.527 54.902
 391.645 56.406 c 394.535 57.941 397.301 60.215 399.938 63.215 c 402.574
 66.219 404.918 69.422 406.969 72.828 c 409.059 76.199 410.668 79.258 411.805
 82.004 c 412.977 84.711 413.562 86.578 413.562 87.605 c 413.562 88.668 
413.215 89.73 412.52 90.793 c 411.859 91.816 410.945 92.621 409.773 93.207
 c 408.602 93.832 407.246 94.141 405.707 94.141 c 403.875 94.141 402.336
 93.703 401.094 92.824 c 399.848 91.98 398.766 90.902 397.852 89.582 c 396.973
 88.266 395.766 86.324 394.227 83.762 c 387.688 72.883 l 385.344 68.891 
383.238 65.852 381.371 63.766 c 379.539 61.676 377.672 60.25 375.77 59.48
 c 373.863 58.711 371.465 58.328 368.574 58.328 c h
377.91 24.488 m 362.859 24.488 l 362.859 46.629 l 377.473 46.629 l 381.391
 46.629 384.688 46.297 387.359 45.641 c 390.031 44.941 392.066 43.789 393.457
 42.18 c 394.887 40.531 395.598 38.277 395.598 35.422 c 395.598 33.188 395.031
 31.227 393.895 29.543 c 392.762 27.824 391.188 26.539 389.172 25.699 c 
387.27 24.895 383.516 24.488 377.91 24.488 c h
377.91 24.488 m f
474.426 25.695 m 456.629 25.695 l 456.629 84.195 l 456.629 87.566 455.879
 90.074 454.379 91.723 c 452.875 93.336 450.934 94.141 448.555 94.141 c 
446.137 94.141 444.16 93.316 442.621 91.668 c 441.121 90.02 440.371 87.531
 440.371 84.195 c 440.371 25.695 l 422.574 25.695 l 419.789 25.695 417.719
 25.09 416.367 23.883 c 415.012 22.637 414.332 21.008 414.332 18.992 c 414.332
 16.906 415.027 15.258 416.422 14.051 c 417.848 12.84 419.898 12.238 422.574
 12.238 c 474.43 12.238 l 477.25 12.238 479.336 12.859 480.691 14.105 c 
482.082 15.348 482.777 16.98 482.777 18.992 c 482.777 21.008 482.082 22.637
 480.691 23.883 c 479.301 25.09 477.211 25.695 474.43 25.695 c h
474.426 25.695 m f
558.203 67.336 m 558.203 69.898 557.562 72.684 556.281 75.684 c 555.035
 78.652 553.059 81.582 550.348 84.473 c 547.637 87.332 544.176 89.656 539.965
 91.449 c 535.754 93.246 530.848 94.141 525.242 94.141 c 520.996 94.141 
517.133 93.738 513.652 92.934 c 510.172 92.129 507.008 90.883 504.148 89.199
 c 501.328 87.477 498.73 85.227 496.348 82.441 c 494.227 79.914 492.414 
77.094 490.91 73.98 c 489.41 70.832 488.273 67.48 487.504 63.93 c 486.773
 60.379 486.406 56.605 486.406 52.613 c 486.406 46.133 487.34 40.328 489.207
 35.199 c 491.113 30.074 493.824 25.699 497.34 22.07 c 500.855 18.41 504.973
 15.625 509.699 13.723 c 514.422 11.816 519.457 10.867 524.805 10.867 c 
531.324 10.867 537.129 12.164 542.219 14.766 c 547.309 17.367 551.211 20.59
 553.918 24.434 c 556.629 28.242 557.984 31.852 557.984 35.254 c 557.984
 37.125 557.324 38.77 556.008 40.199 c 554.688 41.629 553.094 42.344 551.227
 42.344 c 549.141 42.344 547.566 41.848 546.504 40.859 c 545.477 39.871 
544.324 38.168 543.043 35.75 c 540.918 31.758 538.41 28.773 535.516 26.797
 c 532.66 24.82 529.125 23.832 524.914 23.832 c 518.215 23.832 512.867 26.375
 508.875 31.465 c 504.918 36.555 502.941 43.789 502.941 53.164 c 502.941
 59.426 503.82 64.645 505.578 68.82 c 507.336 72.957 509.828 76.051 513.051
 78.102 c 516.273 80.152 520.043 81.18 524.367 81.18 c 529.055 81.18 533.008
 80.027 536.23 77.719 c 539.488 75.375 541.945 71.949 543.59 67.445 c 544.289
 65.324 545.148 63.602 546.172 62.285 c 547.199 60.93 548.848 60.25 551.117
 60.25 c 553.059 60.25 554.723 60.93 556.117 62.285 c 557.508 63.637 558.203
 65.324 558.203 67.336 c h
558.203 67.336 m f
Q Q
showpage
%%Trailer
end
%%EOF
