%!PS-Adobe-3.0 EPSF-3.0
%%Creator: cairo 1.15.10 (http://cairographics.org)
%%CreationDate: Tue May 15 21:07:01 2018
%%Pages: 1
%%DocumentData: Clean7Bit
%%LanguageLevel: 2
%%BoundingBox: 0 0 450 290
%%EndComments
%%BeginProlog
50 dict begin
/q { gsave } bind def
/Q { grestore } bind def
/cm { 6 array astore concat } bind def
/w { setlinewidth } bind def
/J { setlinecap } bind def
/j { setlinejoin } bind def
/M { setmiterlimit } bind def
/d { setdash } bind def
/m { moveto } bind def
/l { lineto } bind def
/c { curveto } bind def
/h { closepath } bind def
/re { exch dup neg 3 1 roll 5 3 roll moveto 0 rlineto
      0 exch rlineto 0 rlineto closepath } bind def
/S { stroke } bind def
/f { fill } bind def
/f* { eofill } bind def
/n { newpath } bind def
/W { clip } bind def
/W* { eoclip } bind def
/BT { } bind def
/ET { } bind def
/BDC { mark 3 1 roll /BDC pdfmark } bind def
/EMC { mark /EMC pdfmark } bind def
/cairo_store_point { /cairo_point_y exch def /cairo_point_x exch def } def
/Tj { show currentpoint cairo_store_point } bind def
/TJ {
  {
    dup
    type /stringtype eq
    { show } { -0.001 mul 0 cairo_font_matrix dtransform rmoveto } ifelse
  } forall
  currentpoint cairo_store_point
} bind def
/cairo_selectfont { cairo_font_matrix aload pop pop pop 0 0 6 array astore
    cairo_font exch selectfont cairo_point_x cairo_point_y moveto } bind def
/Tf { pop /cairo_font exch def /cairo_font_matrix where
      { pop cairo_selectfont } if } bind def
/Td { matrix translate cairo_font_matrix matrix concatmatrix dup
      /cairo_font_matrix exch def dup 4 get exch 5 get cairo_store_point
      /cairo_font where { pop cairo_selectfont } if } bind def
/Tm { 2 copy 8 2 roll 6 array astore /cairo_font_matrix exch def
      cairo_store_point /cairo_font where { pop cairo_selectfont } if } bind def
/g { setgray } bind def
/rg { setrgbcolor } bind def
/d1 { setcachedevice } bind def
/cairo_data_source {
  CairoDataIndex CairoData length lt
    { CairoData CairoDataIndex get /CairoDataIndex CairoDataIndex 1 add def }
    { () } ifelse
} def
/cairo_flush_ascii85_file { cairo_ascii85_file status { cairo_ascii85_file flushfile } if } def
/cairo_image { image cairo_flush_ascii85_file } def
/cairo_imagemask { imagemask cairo_flush_ascii85_file } def
%%EndProlog
%%BeginSetup
%%EndSetup
%%Page: 1 1
%%BeginPageSetup
%%PageBoundingBox: 0 0 450 290
%%EndPageSetup
q 0 0 450 290 rectclip
1 0 0 -1 0 290 cm q
0.996078 g
0 0 450 289.5 re f
0.458824 g
1.5 w
0 J
0 j
[] 0.0 d
4 M q 1 0 0 1 0 0 cm
0 0 450 289.5 re S Q
178.453 43.5 m 178.453 39.953 l 177.828 39.953 l 176.797 43.047 l 175.75
 39.953 l 175.109 39.953 l 175.109 43.5 l 175.547 43.5 l 175.547 40.516 
l 176.547 43.5 l 177.031 43.5 l 178.031 40.516 l 178.031 43.5 l h
178.453 43.5 m f
179.566 43.5 m 179.566 40.953 l 179.16 40.953 l 179.16 43.5 l h
179.613 40.562 m 179.613 40.047 l 179.113 40.047 l 179.113 40.562 l h
179.613 40.562 m f
182.277 43.5 m 182.277 41.562 l 182.277 41.141 181.965 40.875 181.465 40.875
 c 181.09 40.875 180.84 41.016 180.621 41.375 c 180.621 40.953 l 180.246
 40.953 l 180.246 43.5 l 180.652 43.5 l 180.652 42.094 l 180.652 41.562 
180.934 41.234 181.34 41.234 c 181.668 41.234 181.871 41.422 181.871 41.734
 c 181.871 43.5 l h
182.277 43.5 m f
219.188 43.5 m 217.938 39.953 l 217.344 39.953 l 216.078 43.5 l 216.562
 43.5 l 216.938 42.438 l 218.312 42.438 l 218.672 43.5 l h
218.188 42.047 m 217.047 42.047 l 217.641 40.438 l h
218.188 42.047 m f
221.488 40.953 m 221.02 40.953 l 220.301 43.016 l 219.613 40.953 l 219.16
 40.953 l 220.066 43.5 l 220.504 43.5 l h
221.488 40.953 m f
223.867 43.078 m 223.867 40.953 l 223.492 40.953 l 223.492 41.312 l 223.273
 41.016 223.039 40.875 222.711 40.875 c 222.055 40.875 221.617 41.422 221.617
 42.25 c 221.617 43.047 222.07 43.578 222.664 43.578 c 222.992 43.578 223.211
 43.438 223.492 43.109 c 223.492 43.281 l 223.492 43.969 223.211 44.219 
222.727 44.219 c 222.414 44.219 222.164 44.109 222.117 43.797 c 221.695 
43.797 l 221.742 44.281 222.117 44.562 222.727 44.562 c 223.523 44.562 223.867
 44.203 223.867 43.078 c h
223.445 42.234 m 223.445 42.844 223.18 43.203 222.758 43.203 c 222.305 
43.203 222.039 42.844 222.039 42.219 c 222.039 41.609 222.32 41.25 222.742
 41.25 c 223.195 41.25 223.445 41.625 223.445 42.234 c h
223.445 42.234 m f
260.953 43.5 m 260.953 39.953 l 260.328 39.953 l 259.297 43.047 l 258.25
 39.953 l 257.609 39.953 l 257.609 43.5 l 258.047 43.5 l 258.047 40.516 
l 259.047 43.5 l 259.531 43.5 l 260.531 40.516 l 260.531 43.5 l h
260.953 43.5 m f
263.926 43.484 m 263.926 43.188 l 263.879 43.188 263.863 43.188 263.832
 43.188 c 263.691 43.188 263.613 43.125 263.613 43 c 263.613 41.562 l 263.613
 41.109 263.285 40.875 262.66 40.875 c 262.035 40.875 261.66 41.109 261.629
 41.703 c 262.035 41.703 l 262.082 41.391 262.27 41.25 262.645 41.25 c 263.004
 41.25 263.207 41.391 263.207 41.625 c 263.207 41.734 l 263.207 41.906 263.113
 41.984 262.785 42.016 c 262.207 42.094 262.129 42.109 261.973 42.172 c 
261.676 42.297 261.52 42.531 261.52 42.844 c 261.52 43.297 261.848 43.578
 262.363 43.578 c 262.691 43.578 263.004 43.438 263.223 43.203 c 263.27 
43.391 263.441 43.531 263.645 43.531 c 263.723 43.531 263.785 43.531 263.926
 43.484 c h
263.207 42.625 m 263.207 42.984 262.848 43.219 262.441 43.219 c 262.129
 43.219 261.941 43.109 261.941 42.828 c 261.941 42.562 262.129 42.438 262.566
 42.375 c 262.988 42.312 263.082 42.297 263.207 42.234 c h
263.207 42.625 m f
266.344 43.5 m 265.453 42.172 l 266.312 40.953 l 265.859 40.953 l 265.234
 41.875 l 264.625 40.953 l 264.156 40.953 l 265.016 42.203 l 264.109 43.5
 l 264.578 43.5 l 265.219 42.516 l 265.859 43.5 l h
266.344 43.5 m f
0.956863 0.262745 0.211765 rg
38.25 46.5 7.5 7.5 re f
0.458824 g
0.75 w
q 1 0 0 1 0 0 cm
38.25 46.5 7.5 7.5 re S Q
0.403922 0.227451 0.717647 rg
38.25 58.5 7.5 7.5 re f
0.458824 g
q 1 0 0 1 0 0 cm
38.25 58.5 7.5 7.5 re S Q
0.956863 0.262745 0.211765 rg
52.75 49.625 m 52.75 49.078 l 48.891 49.078 l 48.891 49.625 l 50.516 49.625
 l 50.516 54 l 51.141 54 l 51.141 49.625 l h
52.75 49.625 m f
55.52 54 m 55.52 50.469 l 54.957 50.469 l 54.957 52.406 l 54.957 53.141
 54.582 53.609 54.004 53.609 c 53.551 53.609 53.27 53.344 53.27 52.906 c
 53.27 50.469 l 52.707 50.469 l 52.707 53.141 l 52.707 53.719 53.145 54.094
 53.832 54.094 c 54.348 54.094 54.691 53.922 55.02 53.453 c 55.02 54 l h
55.52 54 m f
58.199 50.953 m 58.199 50.375 l 58.105 50.375 58.059 50.359 57.98 50.359
 c 57.621 50.359 57.34 50.578 57.012 51.109 c 57.012 50.469 l 56.496 50.469
 l 56.496 54 l 57.059 54 l 57.059 52.156 l 57.059 51.375 57.324 50.969 58.199
 50.953 c h
58.199 50.953 m f
60.453 50.953 m 60.453 50.375 l 60.359 50.375 60.312 50.359 60.234 50.359
 c 59.875 50.359 59.594 50.578 59.266 51.109 c 59.266 50.469 l 58.75 50.469
 l 58.75 54 l 59.312 54 l 59.312 52.156 l 59.312 51.375 59.578 50.969 60.453
 50.953 c h
60.453 50.953 m f
61.566 54 m 61.566 50.469 l 61.004 50.469 l 61.004 54 l h
61.645 49.922 m 61.645 49.234 l 60.941 49.234 l 60.941 49.922 l h
61.645 49.922 m f
65.133 53 m 65.133 52.484 64.836 52.219 64.133 52.047 c 63.602 51.922 l
 63.133 51.812 62.945 51.672 62.945 51.422 c 62.945 51.094 63.227 50.875
 63.695 50.875 c 64.148 50.875 64.383 51.078 64.398 51.453 c 64.992 51.453
 l 64.992 50.75 64.523 50.359 63.711 50.359 c 62.883 50.359 62.352 50.781
 62.352 51.438 c 62.352 52 62.633 52.266 63.477 52.469 c 64.008 52.594 l
 64.398 52.688 64.555 52.797 64.555 53.062 c 64.555 53.391 64.227 53.578
 63.727 53.578 c 63.227 53.578 62.93 53.453 62.867 52.922 c 62.273 52.922
 l 62.289 53.734 62.758 54.094 63.68 54.094 c 64.57 54.094 65.133 53.688
 65.133 53 c h
65.133 53 m f
72.301 51.625 m 72.301 50.031 71.363 48.953 69.91 48.953 c 68.504 48.953
 67.535 50.031 67.535 51.578 c 67.535 53.109 68.504 54.125 69.91 54.125 
c 71.363 54.125 72.301 53.062 72.301 51.625 c h
71.66 51.609 m 71.66 52.797 70.957 53.562 69.91 53.562 c 68.879 53.562 
68.176 52.797 68.176 51.578 c 68.176 50.359 68.879 49.516 69.91 49.516 c
 70.973 49.516 71.66 50.359 71.66 51.609 c h
71.66 51.609 m f
77.66 54 m 77.66 51.344 l 77.66 50.719 77.316 50.359 76.66 50.359 c 76.176
 50.359 75.895 50.5 75.566 50.906 c 75.363 50.531 75.066 50.359 74.613 50.359
 c 74.145 50.359 73.832 50.531 73.535 50.969 c 73.535 50.469 l 73.02 50.469
 l 73.02 54 l 73.582 54 l 73.582 51.781 l 73.582 51.266 73.941 50.859 74.41
 50.859 c 74.816 50.859 75.066 51.109 75.066 51.562 c 75.066 54 l 75.613
 54 l 75.613 51.781 l 75.613 51.266 76.004 50.859 76.457 50.859 c 76.863
 50.859 77.098 51.125 77.098 51.562 c 77.098 54 l h
77.66 54 m f
81.445 54 m 81.445 51.328 l 81.445 50.734 81.008 50.359 80.336 50.359 c
 79.805 50.359 79.461 50.562 79.164 51.062 c 79.164 50.469 l 78.633 50.469
 l 78.633 54 l 79.195 54 l 79.195 52.047 l 79.195 51.328 79.586 50.859 80.164
 50.859 c 80.602 50.859 80.898 51.125 80.898 51.547 c 80.898 54 l h
81.445 54 m f
82.953 54 m 82.953 50.469 l 82.391 50.469 l 82.391 54 l h
83.031 49.922 m 83.031 49.234 l 82.328 49.234 l 82.328 49.922 l h
83.031 49.922 m f
87.031 53.984 m 87.031 53.562 l 86.969 53.578 86.953 53.578 86.906 53.578
 c 86.719 53.578 86.609 53.469 86.609 53.297 c 86.609 51.328 l 86.609 50.703
 86.156 50.359 85.281 50.359 c 84.422 50.359 83.891 50.688 83.859 51.516
 c 84.422 51.516 l 84.469 51.078 84.734 50.875 85.266 50.875 c 85.766 50.875
 86.047 51.078 86.047 51.406 c 86.047 51.562 l 86.047 51.797 85.906 51.891
 85.453 51.953 c 84.656 52.047 84.547 52.078 84.328 52.156 c 83.922 52.328
 83.703 52.656 83.703 53.078 c 83.703 53.719 84.156 54.094 84.859 54.094
 c 85.312 54.094 85.75 53.906 86.062 53.578 c 86.125 53.844 86.375 54.047
 86.641 54.047 c 86.766 54.047 86.844 54.031 87.031 53.984 c h
86.047 52.781 m 86.047 53.281 85.531 53.609 84.984 53.609 c 84.547 53.609
 84.297 53.453 84.297 53.062 c 84.297 52.703 84.547 52.531 85.141 52.453
 c 85.734 52.359 85.859 52.344 86.047 52.25 c h
86.047 52.781 m f
178.219 52.656 m 178.219 52.109 177.938 51.75 177.391 51.484 c 177.875 
51.188 178.047 50.938 178.047 50.484 c 178.047 49.734 177.453 49.219 176.609
 49.219 c 175.766 49.219 175.172 49.734 175.172 50.484 c 175.172 50.938 
175.328 51.172 175.812 51.484 c 175.266 51.75 175 52.109 175 52.641 c 175
 53.516 175.656 54.094 176.609 54.094 c 177.547 54.094 178.219 53.516 178.219
 52.656 c h
177.438 50.5 m 177.438 50.953 177.109 51.25 176.609 51.25 c 176.109 51.25
 175.781 50.953 175.781 50.5 c 175.781 50.031 176.109 49.734 176.609 49.734
 c 177.109 49.734 177.438 50.031 177.438 50.5 c h
177.609 52.656 m 177.609 53.219 177.203 53.578 176.594 53.578 c 176.016
 53.578 175.609 53.219 175.609 52.656 c 175.609 52.094 176.016 51.75 176.609
 51.75 c 177.203 51.75 177.609 52.094 177.609 52.656 c h
177.609 52.656 m f
180.852 54 m 180.852 49.219 l 180.461 49.219 l 180.242 49.953 180.117 50.047
 179.195 50.172 c 179.195 50.594 l 180.258 50.594 l 180.258 54 l h
180.852 54 m f
182.859 53.297 0.703 0.703 re f
187.605 52.656 m 187.605 52.109 187.324 51.75 186.777 51.484 c 187.262 
51.188 187.434 50.938 187.434 50.484 c 187.434 49.734 186.84 49.219 185.996
 49.219 c 185.152 49.219 184.559 49.734 184.559 50.484 c 184.559 50.938 
184.715 51.172 185.199 51.484 c 184.652 51.75 184.387 52.109 184.387 52.641
 c 184.387 53.516 185.043 54.094 185.996 54.094 c 186.934 54.094 187.605
 53.516 187.605 52.656 c h
186.824 50.5 m 186.824 50.953 186.496 51.25 185.996 51.25 c 185.496 51.25
 185.168 50.953 185.168 50.5 c 185.168 50.031 185.496 49.734 185.996 49.734
 c 186.496 49.734 186.824 50.031 186.824 50.5 c h
186.996 52.656 m 186.996 53.219 186.59 53.578 185.98 53.578 c 185.402 53.578
 184.996 53.219 184.996 52.656 c 184.996 52.094 185.402 51.75 185.996 51.75
 c 186.59 51.75 186.996 52.094 186.996 52.656 c h
186.996 52.656 m f
219.438 51.5 m 219.438 50 218.922 49.219 217.828 49.219 c 216.906 49.219
 216.25 49.859 216.25 50.797 c 216.25 51.688 216.859 52.297 217.734 52.297
 c 218.188 52.297 218.516 52.125 218.828 51.766 c 218.812 52.922 218.438
 53.578 217.75 53.578 c 217.344 53.578 217.047 53.312 216.953 52.859 c 216.359
 52.859 l 216.469 53.641 216.984 54.094 217.719 54.094 c 218.828 54.094 
219.438 53.156 219.438 51.5 c h
218.781 50.781 m 218.781 51.375 218.375 51.766 217.797 51.766 c 217.219
 51.766 216.859 51.391 216.859 50.75 c 216.859 50.141 217.266 49.734 217.812
 49.734 c 218.375 49.734 218.781 50.172 218.781 50.781 c h
218.781 50.781 m f
222.102 54 m 222.102 49.219 l 221.711 49.219 l 221.492 49.953 221.367 50.047
 220.445 50.172 c 220.445 50.594 l 221.508 50.594 l 221.508 54 l h
222.102 54 m f
224.109 53.297 0.703 0.703 re f
228.902 49.812 m 228.902 49.312 l 225.699 49.312 l 225.699 49.906 l 228.277
 49.906 l 227.324 51.109 226.652 52.5 226.324 54 c 226.949 54 l 227.215 
52.453 227.887 51.016 228.902 49.812 c h
228.902 49.812 m f
260.688 51.5 m 260.688 50 260.172 49.219 259.078 49.219 c 258.156 49.219
 257.5 49.859 257.5 50.797 c 257.5 51.688 258.109 52.297 258.984 52.297 
c 259.438 52.297 259.766 52.125 260.078 51.766 c 260.062 52.922 259.688 
53.578 259 53.578 c 258.594 53.578 258.297 53.312 258.203 52.859 c 257.609
 52.859 l 257.719 53.641 258.234 54.094 258.969 54.094 c 260.078 54.094 
260.688 53.156 260.688 51.5 c h
260.031 50.781 m 260.031 51.375 259.625 51.766 259.047 51.766 c 258.469
 51.766 258.109 51.391 258.109 50.75 c 258.109 50.141 258.516 49.734 259.062
 49.734 c 259.625 49.734 260.031 50.172 260.031 50.781 c h
260.031 50.781 m f
264.523 52.859 m 264.523 52.312 l 263.805 52.312 l 263.805 49.219 l 263.367
 49.219 l 261.195 52.219 l 261.195 52.859 l 263.211 52.859 l 263.211 54 
l 263.805 54 l 263.805 52.859 l h
263.211 52.312 m 261.711 52.312 l 263.211 50.234 l h
263.211 52.312 m f
265.359 53.297 0.703 0.703 re f
270.09 50.625 m 270.09 49.812 269.465 49.219 268.559 49.219 c 267.574 49.219
 267.012 49.719 266.98 50.875 c 267.574 50.875 l 267.621 50.078 267.949 
49.734 268.527 49.734 c 269.074 49.734 269.48 50.125 269.48 50.625 c 269.48
 51.016 269.262 51.328 268.824 51.578 c 268.215 51.922 l 267.215 52.5 266.918
 52.953 266.871 54 c 270.059 54 l 270.059 53.406 l 267.527 53.406 l 267.59
 53.016 267.809 52.766 268.402 52.422 c 269.074 52.062 l 269.746 51.703 
270.09 51.203 270.09 50.625 c h
270.09 50.625 m f
0.403922 0.227451 0.717647 rg
52.75 61.625 m 52.75 61.078 l 48.891 61.078 l 48.891 61.625 l 50.516 61.625
 l 50.516 66 l 51.141 66 l 51.141 61.625 l h
52.75 61.625 m f
55.52 66 m 55.52 62.469 l 54.957 62.469 l 54.957 64.406 l 54.957 65.141
 54.582 65.609 54.004 65.609 c 53.551 65.609 53.27 65.344 53.27 64.906 c
 53.27 62.469 l 52.707 62.469 l 52.707 65.141 l 52.707 65.719 53.145 66.094
 53.832 66.094 c 54.348 66.094 54.691 65.922 55.02 65.453 c 55.02 66 l h
55.52 66 m f
58.199 62.953 m 58.199 62.375 l 58.105 62.375 58.059 62.359 57.98 62.359
 c 57.621 62.359 57.34 62.578 57.012 63.109 c 57.012 62.469 l 56.496 62.469
 l 56.496 66 l 57.059 66 l 57.059 64.156 l 57.059 63.375 57.324 62.969 58.199
 62.953 c h
58.199 62.953 m f
60.453 62.953 m 60.453 62.375 l 60.359 62.375 60.312 62.359 60.234 62.359
 c 59.875 62.359 59.594 62.578 59.266 63.109 c 59.266 62.469 l 58.75 62.469
 l 58.75 66 l 59.312 66 l 59.312 64.156 l 59.312 63.375 59.578 62.969 60.453
 62.953 c h
60.453 62.953 m f
61.566 66 m 61.566 62.469 l 61.004 62.469 l 61.004 66 l h
61.645 61.922 m 61.645 61.234 l 60.941 61.234 l 60.941 61.922 l h
61.645 61.922 m f
65.133 65 m 65.133 64.484 64.836 64.219 64.133 64.047 c 63.602 63.922 l
 63.133 63.812 62.945 63.672 62.945 63.422 c 62.945 63.094 63.227 62.875
 63.695 62.875 c 64.148 62.875 64.383 63.078 64.398 63.453 c 64.992 63.453
 l 64.992 62.75 64.523 62.359 63.711 62.359 c 62.883 62.359 62.352 62.781
 62.352 63.438 c 62.352 64 62.633 64.266 63.477 64.469 c 64.008 64.594 l
 64.398 64.688 64.555 64.797 64.555 65.062 c 64.555 65.391 64.227 65.578
 63.727 65.578 c 63.227 65.578 62.93 65.453 62.867 64.922 c 62.273 64.922
 l 62.289 65.734 62.758 66.094 63.68 66.094 c 64.57 66.094 65.133 65.688
 65.133 65 c h
65.133 65 m f
72.301 63.625 m 72.301 62.031 71.363 60.953 69.91 60.953 c 68.504 60.953
 67.535 62.031 67.535 63.578 c 67.535 65.109 68.504 66.125 69.91 66.125 
c 71.363 66.125 72.301 65.062 72.301 63.625 c h
71.66 63.609 m 71.66 64.797 70.957 65.562 69.91 65.562 c 68.879 65.562 
68.176 64.797 68.176 63.578 c 68.176 62.359 68.879 61.516 69.91 61.516 c
 70.973 61.516 71.66 62.359 71.66 63.609 c h
71.66 63.609 m f
77.66 66 m 77.66 63.344 l 77.66 62.719 77.316 62.359 76.66 62.359 c 76.176
 62.359 75.895 62.5 75.566 62.906 c 75.363 62.531 75.066 62.359 74.613 62.359
 c 74.145 62.359 73.832 62.531 73.535 62.969 c 73.535 62.469 l 73.02 62.469
 l 73.02 66 l 73.582 66 l 73.582 63.781 l 73.582 63.266 73.941 62.859 74.41
 62.859 c 74.816 62.859 75.066 63.109 75.066 63.562 c 75.066 66 l 75.613
 66 l 75.613 63.781 l 75.613 63.266 76.004 62.859 76.457 62.859 c 76.863
 62.859 77.098 63.125 77.098 63.562 c 77.098 66 l h
77.66 66 m f
81.445 66 m 81.445 63.328 l 81.445 62.734 81.008 62.359 80.336 62.359 c
 79.805 62.359 79.461 62.562 79.164 63.062 c 79.164 62.469 l 78.633 62.469
 l 78.633 66 l 79.195 66 l 79.195 64.047 l 79.195 63.328 79.586 62.859 80.164
 62.859 c 80.602 62.859 80.898 63.125 80.898 63.547 c 80.898 66 l h
81.445 66 m f
82.953 66 m 82.953 62.469 l 82.391 62.469 l 82.391 66 l h
83.031 61.922 m 83.031 61.234 l 82.328 61.234 l 82.328 61.922 l h
83.031 61.922 m f
87.031 65.984 m 87.031 65.562 l 86.969 65.578 86.953 65.578 86.906 65.578
 c 86.719 65.578 86.609 65.469 86.609 65.297 c 86.609 63.328 l 86.609 62.703
 86.156 62.359 85.281 62.359 c 84.422 62.359 83.891 62.688 83.859 63.516
 c 84.422 63.516 l 84.469 63.078 84.734 62.875 85.266 62.875 c 85.766 62.875
 86.047 63.078 86.047 63.406 c 86.047 63.562 l 86.047 63.797 85.906 63.891
 85.453 63.953 c 84.656 64.047 84.547 64.078 84.328 64.156 c 83.922 64.328
 83.703 64.656 83.703 65.078 c 83.703 65.719 84.156 66.094 84.859 66.094
 c 85.312 66.094 85.75 65.906 86.062 65.578 c 86.125 65.844 86.375 66.047
 86.641 66.047 c 86.766 66.047 86.844 66.031 87.031 65.984 c h
86.047 64.781 m 86.047 65.281 85.531 65.609 84.984 65.609 c 84.547 65.609
 84.297 65.453 84.297 65.062 c 84.297 64.703 84.547 64.531 85.141 64.453
 c 85.734 64.359 85.859 64.344 86.047 64.25 c h
86.047 64.781 m f
92.66 65.984 m 92.66 65.562 l 92.598 65.578 92.582 65.578 92.535 65.578
 c 92.348 65.578 92.238 65.469 92.238 65.297 c 92.238 63.328 l 92.238 62.703
 91.785 62.359 90.91 62.359 c 90.051 62.359 89.52 62.688 89.488 63.516 c
 90.051 63.516 l 90.098 63.078 90.363 62.875 90.895 62.875 c 91.395 62.875
 91.676 63.078 91.676 63.406 c 91.676 63.562 l 91.676 63.797 91.535 63.891
 91.082 63.953 c 90.285 64.047 90.176 64.078 89.957 64.156 c 89.551 64.328
 89.332 64.656 89.332 65.078 c 89.332 65.719 89.785 66.094 90.488 66.094
 c 90.941 66.094 91.379 65.906 91.691 65.578 c 91.754 65.844 92.004 66.047
 92.27 66.047 c 92.395 66.047 92.473 66.031 92.66 65.984 c h
91.676 64.781 m 91.676 65.281 91.16 65.609 90.613 65.609 c 90.176 65.609
 89.926 65.453 89.926 65.062 c 89.926 64.703 90.176 64.531 90.77 64.453 
c 91.363 64.359 91.488 64.344 91.676 64.25 c h
91.676 64.781 m f
96.027 64.781 m 95.465 64.781 l 95.371 65.359 95.074 65.578 94.59 65.578
 c 93.98 65.578 93.605 65.109 93.605 64.266 c 93.605 63.375 93.965 62.875
 94.59 62.875 c 95.059 62.875 95.355 63.156 95.418 63.656 c 95.98 63.656
 l 95.918 62.781 95.387 62.359 94.59 62.359 c 93.637 62.359 93.012 63.094
 93.012 64.266 c 93.012 65.406 93.621 66.094 94.59 66.094 c 95.434 66.094
 95.965 65.594 96.027 64.781 c h
96.027 64.781 m f
97.902 66 m 97.902 65.531 l 97.824 65.547 97.73 65.547 97.621 65.547 c 
97.387 65.547 97.324 65.484 97.324 65.234 c 97.324 62.922 l 97.902 62.922
 l 97.902 62.469 l 97.324 62.469 l 97.324 61.484 l 96.762 61.484 l 96.762
 62.469 l 96.277 62.469 l 96.277 62.922 l 96.762 62.922 l 96.762 65.484 
l 96.762 65.844 96.996 66.047 97.434 66.047 c 97.574 66.047 97.715 66.031
 97.902 66 c h
97.902 66 m f
99.09 66 m 99.09 62.469 l 98.527 62.469 l 98.527 66 l h
99.168 61.922 m 99.168 61.234 l 98.465 61.234 l 98.465 61.922 l h
99.168 61.922 m f
102.84 62.469 m 102.199 62.469 l 101.199 65.328 l 100.262 62.469 l 99.621
 62.469 l 100.871 66 l 101.48 66 l h
102.84 62.469 m f
106.273 64.391 m 106.273 63.875 106.227 63.562 106.133 63.297 c 105.898
 62.719 105.352 62.359 104.695 62.359 c 103.711 62.359 103.07 63.094 103.07
 64.25 c 103.07 65.406 103.695 66.094 104.68 66.094 c 105.492 66.094 106.055
 65.641 106.195 64.922 c 105.633 64.922 l 105.477 65.391 105.148 65.578 
104.695 65.578 c 104.117 65.578 103.68 65.203 103.664 64.391 c h
105.664 63.891 m 105.664 63.891 105.664 63.922 105.664 63.938 c 103.68 
63.938 l 103.727 63.312 104.117 62.875 104.695 62.875 c 105.242 62.875 105.664
 63.344 105.664 63.891 c h
105.664 63.891 m f
111.652 64.781 m 111.09 64.781 l 110.996 65.359 110.699 65.578 110.215 
65.578 c 109.605 65.578 109.23 65.109 109.23 64.266 c 109.23 63.375 109.59
 62.875 110.215 62.875 c 110.684 62.875 110.98 63.156 111.043 63.656 c 111.605
 63.656 l 111.543 62.781 111.012 62.359 110.215 62.359 c 109.262 62.359 
108.637 63.094 108.637 64.266 c 108.637 65.406 109.246 66.094 110.215 66.094
 c 111.059 66.094 111.59 65.594 111.652 64.781 c h
111.652 64.781 m f
115.246 64.266 m 115.246 63.031 114.668 62.359 113.652 62.359 c 112.652
 62.359 112.059 63.047 112.059 64.234 c 112.059 65.422 112.652 66.094 113.652
 66.094 c 114.637 66.094 115.246 65.422 115.246 64.266 c h
114.668 64.25 m 114.668 65.078 114.277 65.578 113.652 65.578 c 113.027 
65.578 112.637 65.094 112.637 64.234 c 112.637 63.375 113.027 62.875 113.652
 62.875 c 114.293 62.875 114.668 63.375 114.668 64.25 c h
114.668 64.25 m f
119.004 64.266 m 119.004 63.031 118.426 62.359 117.41 62.359 c 116.41 62.359
 115.816 63.047 115.816 64.234 c 115.816 65.422 116.41 66.094 117.41 66.094
 c 118.395 66.094 119.004 65.422 119.004 64.266 c h
118.426 64.25 m 118.426 65.078 118.035 65.578 117.41 65.578 c 116.785 65.578
 116.395 65.094 116.395 64.234 c 116.395 63.375 116.785 62.875 117.41 62.875
 c 118.051 62.875 118.426 63.375 118.426 64.25 c h
118.426 64.25 m f
119.773 61.078 0.562 4.922 re f
121.855 66 m 121.855 62.469 l 121.293 62.469 l 121.293 66 l h
121.934 61.922 m 121.934 61.234 l 121.23 61.234 l 121.23 61.922 l h
121.934 61.922 m f
125.609 66 m 125.609 63.328 l 125.609 62.734 125.172 62.359 124.5 62.359
 c 123.969 62.359 123.625 62.562 123.328 63.062 c 123.328 62.469 l 122.797
 62.469 l 122.797 66 l 123.359 66 l 123.359 64.047 l 123.359 63.328 123.75
 62.859 124.328 62.859 c 124.766 62.859 125.062 63.125 125.062 63.547 c 
125.062 66 l h
125.609 66 m f
129.383 65.422 m 129.383 62.469 l 128.867 62.469 l 128.867 62.969 l 128.586
 62.562 128.242 62.359 127.789 62.359 c 126.883 62.359 126.289 63.125 126.289
 64.266 c 126.289 65.375 126.914 66.094 127.742 66.094 c 128.18 66.094 128.492
 65.906 128.867 65.469 c 128.867 65.703 l 128.867 66.641 128.477 67 127.82
 67 c 127.383 67 127.039 66.844 126.977 66.406 c 126.398 66.406 l 126.461
 67.078 126.977 67.469 127.805 67.469 c 128.914 67.469 129.383 66.984 129.383
 65.422 c h
128.82 64.25 m 128.82 65.094 128.445 65.578 127.852 65.578 c 127.242 65.578
 126.867 65.094 126.867 64.234 c 126.867 63.375 127.242 62.875 127.852 62.875
 c 128.461 62.875 128.82 63.391 128.82 64.25 c h
128.82 64.25 m f
178.219 64.516 m 178.219 63.625 177.609 63.016 176.75 63.016 c 176.281 
63.016 175.906 63.203 175.641 63.562 c 175.656 62.391 176.031 61.734 176.719
 61.734 c 177.125 61.734 177.422 62 177.516 62.469 c 178.109 62.469 l 178
 61.688 177.484 61.219 176.75 61.219 c 175.641 61.219 175.047 62.156 175.047
 63.812 c 175.047 65.312 175.547 66.094 176.641 66.094 c 177.562 66.094 
178.219 65.453 178.219 64.516 c h
177.609 64.562 m 177.609 65.156 177.203 65.578 176.656 65.578 c 176.094
 65.578 175.688 65.141 175.688 64.531 c 175.688 63.938 176.094 63.547 176.672
 63.547 c 177.25 63.547 177.609 63.922 177.609 64.562 c h
177.609 64.562 m f
181.93 63.703 m 181.93 62.031 181.398 61.219 180.367 61.219 c 179.336 61.219
 178.805 62.047 178.805 63.656 c 178.805 65.266 179.336 66.094 180.367 66.094
 c 181.383 66.094 181.93 65.266 181.93 63.703 c h
181.32 63.641 m 181.32 65 181.008 65.609 180.352 65.609 c 179.727 65.609
 179.398 64.969 179.398 63.672 c 179.398 62.359 179.727 61.734 180.367 61.734
 c 181.008 61.734 181.32 62.359 181.32 63.641 c h
181.32 63.641 m f
182.859 65.297 0.703 0.703 re f
187.605 64.656 m 187.605 64.109 187.324 63.75 186.777 63.484 c 187.262 
63.188 187.434 62.938 187.434 62.484 c 187.434 61.734 186.84 61.219 185.996
 61.219 c 185.152 61.219 184.559 61.734 184.559 62.484 c 184.559 62.938 
184.715 63.172 185.199 63.484 c 184.652 63.75 184.387 64.109 184.387 64.641
 c 184.387 65.516 185.043 66.094 185.996 66.094 c 186.934 66.094 187.605
 65.516 187.605 64.656 c h
186.824 62.5 m 186.824 62.953 186.496 63.25 185.996 63.25 c 185.496 63.25
 185.168 62.953 185.168 62.5 c 185.168 62.031 185.496 61.734 185.996 61.734
 c 186.496 61.734 186.824 62.031 186.824 62.5 c h
186.996 64.656 m 186.996 65.219 186.59 65.578 185.98 65.578 c 185.402 65.578
 184.996 65.219 184.996 64.656 c 184.996 64.094 185.402 63.75 185.996 63.75
 c 186.59 63.75 186.996 64.094 186.996 64.656 c h
186.996 64.656 m f
219.516 61.812 m 219.516 61.312 l 216.312 61.312 l 216.312 61.906 l 218.891
 61.906 l 217.938 63.109 217.266 64.5 216.938 66 c 217.562 66 l 217.828 
64.453 218.5 63.016 219.516 61.812 c h
219.516 61.812 m f
223.211 62.625 m 223.211 61.812 222.586 61.219 221.68 61.219 c 220.695 
61.219 220.133 61.719 220.102 62.875 c 220.695 62.875 l 220.742 62.078 221.07
 61.734 221.648 61.734 c 222.195 61.734 222.602 62.125 222.602 62.625 c 
222.602 63.016 222.383 63.328 221.945 63.578 c 221.336 63.922 l 220.336 
64.5 220.039 64.953 219.992 66 c 223.18 66 l 223.18 65.406 l 220.648 65.406
 l 220.711 65.016 220.93 64.766 221.523 64.422 c 222.195 64.062 l 222.867
 63.703 223.211 63.203 223.211 62.625 c h
223.211 62.625 m f
224.109 65.297 0.703 0.703 re f
227.73 66 m 227.73 61.219 l 227.34 61.219 l 227.121 61.953 226.996 62.047
 226.074 62.172 c 226.074 62.594 l 227.137 62.594 l 227.137 66 l h
227.73 66 m f
260.766 61.812 m 260.766 61.312 l 257.562 61.312 l 257.562 61.906 l 260.141
 61.906 l 259.188 63.109 258.516 64.5 258.188 66 c 258.812 66 l 259.078 
64.453 259.75 63.016 260.766 61.812 c h
260.766 61.812 m f
264.523 64.859 m 264.523 64.312 l 263.805 64.312 l 263.805 61.219 l 263.367
 61.219 l 261.195 64.219 l 261.195 64.859 l 263.211 64.859 l 263.211 66 
l 263.805 66 l 263.805 64.859 l h
263.211 64.312 m 261.711 64.312 l 263.211 62.234 l h
263.211 64.312 m f
265.359 65.297 0.703 0.703 re f
270.105 64.516 m 270.105 63.625 269.496 63.016 268.637 63.016 c 268.168
 63.016 267.793 63.203 267.527 63.562 c 267.543 62.391 267.918 61.734 268.605
 61.734 c 269.012 61.734 269.309 62 269.402 62.469 c 269.996 62.469 l 269.887
 61.688 269.371 61.219 268.637 61.219 c 267.527 61.219 266.934 62.156 266.934
 63.812 c 266.934 65.312 267.434 66.094 268.527 66.094 c 269.449 66.094 
270.105 65.453 270.105 64.516 c h
269.496 64.562 m 269.496 65.156 269.09 65.578 268.543 65.578 c 267.98 65.578
 267.574 65.141 267.574 64.531 c 267.574 63.938 267.98 63.547 268.559 63.547
 c 269.137 63.547 269.496 63.922 269.496 64.562 c h
269.496 64.562 m f
0.458824 g
q 1 0 0 1 0 0 cm
38.25 91.5 m 38.25 260.25 l S Q
q 1 0 0 1 0 0 cm
38.25 259.5 m 443.25 259.5 l S Q
0.0235294 0.337255 0.584314 rg
383.531 85.625 m 383.531 84.219 382.703 83.266 381.406 83.266 c 380.156
 83.266 379.312 84.234 379.312 85.594 c 379.312 86.969 380.156 87.859 381.422
 87.859 c 382.703 87.859 383.531 86.922 383.531 85.625 c h
382.969 85.625 m 382.969 86.672 382.344 87.359 381.422 87.359 c 380.484
 87.359 379.859 86.672 379.859 85.594 c 379.859 84.516 380.484 83.766 381.406
 83.766 c 382.359 83.766 382.969 84.516 382.969 85.625 c h
382.969 85.625 m f
386.883 86.203 m 386.883 85.156 386.367 84.516 385.523 84.516 c 385.102
 84.516 384.758 84.703 384.523 85.078 c 384.523 84.609 l 384.07 84.609 l
 384.07 89.062 l 384.57 89.062 l 384.57 87.375 l 384.836 87.703 385.133 
87.844 385.539 87.844 c 386.352 87.844 386.883 87.203 386.883 86.203 c h
386.352 86.203 m 386.352 86.906 385.992 87.375 385.445 87.375 c 384.914
 87.375 384.57 86.938 384.57 86.203 c 384.57 85.469 384.914 84.984 385.445
 84.984 c 385.992 84.984 386.352 85.453 386.352 86.203 c h
386.352 86.203 m f
390.16 86.328 m 390.16 85.859 390.129 85.578 390.035 85.344 c 389.832 84.828
 389.348 84.516 388.77 84.516 c 387.879 84.516 387.316 85.156 387.316 86.203
 c 387.316 87.234 387.863 87.844 388.754 87.844 c 389.473 87.844 389.973
 87.438 390.098 86.797 c 389.598 86.797 l 389.457 87.203 389.176 87.375 
388.77 87.375 c 388.238 87.375 387.863 87.047 387.848 86.328 c h
389.629 85.875 m 389.629 85.875 389.629 85.906 389.613 85.906 c 387.863
 85.906 l 387.895 85.359 388.254 84.984 388.754 84.984 c 389.254 84.984 
389.629 85.391 389.629 85.875 c h
389.629 85.875 m f
393.344 87.75 m 393.344 85.375 l 393.344 84.859 392.953 84.516 392.344 
84.516 c 391.875 84.516 391.578 84.703 391.297 85.141 c 391.297 84.609 l
 390.844 84.609 l 390.844 87.75 l 391.344 87.75 l 391.344 86.016 l 391.344
 85.375 391.688 84.953 392.203 84.953 c 392.594 84.953 392.844 85.188 392.844
 85.578 c 392.844 87.75 l h
393.344 87.75 m f
397.496 86.5 m 397.496 85.969 397.262 85.656 396.699 85.438 c 397.105 85.25
 397.309 84.938 397.309 84.484 c 397.309 83.844 396.84 83.375 396.012 83.375
 c 394.23 83.375 l 394.23 87.75 l 396.215 87.75 l 396.996 87.75 397.496 
87.219 397.496 86.5 c h
396.746 84.562 m 396.746 85.016 396.496 85.266 395.871 85.266 c 394.793
 85.266 l 394.793 83.875 l 395.871 83.875 l 396.496 83.875 396.746 84.125
 396.746 84.562 c h
396.949 86.516 m 396.949 86.922 396.684 87.266 396.152 87.266 c 394.793
 87.266 l 394.793 85.75 l 396.152 85.75 l 396.684 85.75 396.949 86.078 396.949
 86.516 c h
396.949 86.516 m f
400.848 86.328 m 400.848 85.859 400.816 85.578 400.723 85.344 c 400.52 
84.828 400.035 84.516 399.457 84.516 c 398.566 84.516 398.004 85.156 398.004
 86.203 c 398.004 87.234 398.551 87.844 399.441 87.844 c 400.16 87.844 400.66
 87.438 400.785 86.797 c 400.285 86.797 l 400.145 87.203 399.863 87.375 
399.457 87.375 c 398.926 87.375 398.551 87.047 398.535 86.328 c h
400.316 85.875 m 400.316 85.875 400.316 85.906 400.301 85.906 c 398.551
 85.906 l 398.582 85.359 398.941 84.984 399.441 84.984 c 399.941 84.984 
400.316 85.391 400.316 85.875 c h
400.316 85.875 m f
404.031 87.75 m 404.031 85.375 l 404.031 84.859 403.641 84.516 403.031 
84.516 c 402.562 84.516 402.266 84.703 401.984 85.141 c 401.984 84.609 l
 401.531 84.609 l 401.531 87.75 l 402.031 87.75 l 402.031 86.016 l 402.031
 85.375 402.375 84.953 402.891 84.953 c 403.281 84.953 403.531 85.188 403.531
 85.578 c 403.531 87.75 l h
404.031 87.75 m f
407.309 86.672 m 406.809 86.672 l 406.73 87.172 406.465 87.375 406.043 
87.375 c 405.48 87.375 405.152 86.953 405.152 86.203 c 405.152 85.422 405.48
 84.984 406.027 84.984 c 406.449 84.984 406.715 85.219 406.777 85.656 c 
407.277 85.656 l 407.215 84.891 406.73 84.516 406.027 84.516 c 405.184 84.516
 404.637 85.156 404.637 86.203 c 404.637 87.219 405.168 87.844 406.027 87.844
 c 406.777 87.844 407.246 87.391 407.309 86.672 c h
407.309 86.672 m f
410.371 87.75 m 410.371 85.375 l 410.371 84.844 409.98 84.516 409.371 84.516
 c 408.934 84.516 408.668 84.656 408.371 85.031 c 408.371 83.375 l 407.871
 83.375 l 407.871 87.75 l 408.371 87.75 l 408.371 86.016 l 408.371 85.375
 408.699 84.953 409.215 84.953 c 409.574 84.953 409.871 85.156 409.871 85.578
 c 409.871 87.75 l h
410.371 87.75 m f
415.352 87.75 m 415.352 85.391 l 415.352 84.828 415.039 84.516 414.445 
84.516 c 414.023 84.516 413.773 84.641 413.477 85 c 413.305 84.656 413.039
 84.516 412.633 84.516 c 412.211 84.516 411.945 84.672 411.664 85.047 c 
411.664 84.609 l 411.211 84.609 l 411.211 87.75 l 411.711 87.75 l 411.711
 85.781 l 411.711 85.312 412.039 84.953 412.445 84.953 c 412.82 84.953 413.039
 85.188 413.039 85.578 c 413.039 87.75 l 413.523 87.75 l 413.523 85.781 
l 413.523 85.312 413.867 84.953 414.273 84.953 c 414.648 84.953 414.852 
85.188 414.852 85.578 c 414.852 87.75 l h
415.352 87.75 m f
418.996 87.734 m 418.996 87.359 l 418.949 87.375 418.918 87.375 418.902
 87.375 c 418.715 87.375 418.621 87.281 418.621 87.125 c 418.621 85.375 
l 418.621 84.812 418.215 84.516 417.449 84.516 c 416.684 84.516 416.215 
84.812 416.184 85.531 c 416.684 85.531 l 416.73 85.156 416.949 84.984 417.418
 84.984 c 417.871 84.984 418.121 85.141 418.121 85.453 c 418.121 85.578 
l 418.121 85.781 417.996 85.875 417.605 85.922 c 416.902 86.016 416.793 
86.047 416.59 86.125 c 416.23 86.266 416.043 86.547 416.043 86.938 c 416.043
 87.5 416.434 87.844 417.074 87.844 c 417.48 87.844 417.871 87.672 418.152
 87.375 c 418.199 87.625 418.418 87.797 418.668 87.797 c 418.762 87.797 
418.84 87.781 418.996 87.734 c h
418.121 86.656 m 418.121 87.109 417.668 87.406 417.184 87.406 c 416.793
 87.406 416.574 87.266 416.574 86.922 c 416.574 86.594 416.793 86.453 417.324
 86.375 c 417.855 86.297 417.965 86.281 418.121 86.203 c h
418.121 86.656 m f
421.055 85.047 m 421.055 84.531 l 420.977 84.516 420.93 84.516 420.867 
84.516 c 420.539 84.516 420.289 84.703 420.008 85.172 c 420.008 84.609 l
 419.555 84.609 l 419.555 87.75 l 420.055 87.75 l 420.055 86.125 l 420.055
 85.406 420.289 85.062 421.055 85.047 c h
421.055 85.047 m f
424.188 87.75 m 422.906 85.688 l 423.984 84.609 l 423.344 84.609 l 422.016
 85.938 l 422.016 83.375 l 421.516 83.375 l 421.516 87.75 l 422.016 87.75
 l 422.016 86.531 l 422.5 86.047 l 423.562 87.75 l h
424.188 87.75 m f
425.094 87.75 m 425.094 84.609 l 424.594 84.609 l 424.594 87.75 l h
425.156 84.125 m 425.156 83.516 l 424.531 83.516 l 424.531 84.125 l h
425.156 84.125 m f
428.43 87.75 m 428.43 85.375 l 428.43 84.859 428.039 84.516 427.43 84.516
 c 426.961 84.516 426.664 84.703 426.383 85.141 c 426.383 84.609 l 425.93
 84.609 l 425.93 87.75 l 426.43 87.75 l 426.43 86.016 l 426.43 85.375 426.773
 84.953 427.289 84.953 c 427.68 84.953 427.93 85.188 427.93 85.578 c 427.93
 87.75 l h
428.43 87.75 m f
431.785 87.234 m 431.785 84.609 l 431.316 84.609 l 431.316 85.062 l 431.066
 84.688 430.754 84.516 430.363 84.516 c 429.566 84.516 429.02 85.188 429.02
 86.203 c 429.02 87.203 429.582 87.844 430.316 87.844 c 430.707 87.844 430.988
 87.672 431.316 87.281 c 431.316 87.484 l 431.316 88.312 430.973 88.641 
430.395 88.641 c 430.004 88.641 429.691 88.5 429.629 88.109 c 429.129 88.109
 l 429.176 88.703 429.645 89.062 430.379 89.062 c 431.363 89.062 431.785
 88.625 431.785 87.234 c h
431.27 86.203 m 431.27 86.953 430.941 87.375 430.426 87.375 c 429.879 87.375
 429.551 86.938 429.551 86.172 c 429.551 85.422 429.879 84.984 430.41 84.984
 c 430.957 84.984 431.27 85.438 431.27 86.203 c h
431.27 86.203 m f
432.703 87.125 0.625 0.625 re f
436.914 86.203 m 436.914 85.109 436.383 84.516 435.477 84.516 c 434.602
 84.516 434.07 85.125 434.07 86.172 c 434.07 87.234 434.602 87.844 435.492
 87.844 c 436.367 87.844 436.914 87.234 436.914 86.203 c h
436.383 86.203 m 436.383 86.938 436.039 87.375 435.492 87.375 c 434.93 
87.375 434.586 86.938 434.586 86.172 c 434.586 85.422 434.93 84.984 435.492
 84.984 c 436.055 84.984 436.383 85.422 436.383 86.203 c h
436.383 86.203 m f
439.113 85.047 m 439.113 84.531 l 439.035 84.516 438.988 84.516 438.926
 84.516 c 438.598 84.516 438.348 84.703 438.066 85.172 c 438.066 84.609 
l 437.613 84.609 l 437.613 87.75 l 438.113 87.75 l 438.113 86.125 l 438.113
 85.406 438.348 85.062 439.113 85.047 c h
439.113 85.047 m f
442.098 87.234 m 442.098 84.609 l 441.629 84.609 l 441.629 85.062 l 441.379
 84.688 441.066 84.516 440.676 84.516 c 439.879 84.516 439.332 85.188 439.332
 86.203 c 439.332 87.203 439.895 87.844 440.629 87.844 c 441.02 87.844 441.301
 87.672 441.629 87.281 c 441.629 87.484 l 441.629 88.312 441.285 88.641 
440.707 88.641 c 440.316 88.641 440.004 88.5 439.941 88.109 c 439.441 88.109
 l 439.488 88.703 439.957 89.062 440.691 89.062 c 441.676 89.062 442.098
 88.625 442.098 87.234 c h
441.582 86.203 m 441.582 86.953 441.254 87.375 440.738 87.375 c 440.191
 87.375 439.863 86.938 439.863 86.172 c 439.863 85.422 440.191 84.984 440.723
 84.984 c 441.27 84.984 441.582 85.438 441.582 86.203 c h
441.582 86.203 m f
41.25 88.5 m 43.875 83.25 l 38.625 83.25 l h
41.25 88.5 m f
0.580392 g
q 1 0 0 1 0 0 cm
41.25 88.5 m 43.875 83.25 l 38.625 83.25 l h
41.25 88.5 m S Q
0.0235294 0.337255 0.584314 rg
51.312 86.156 m 50.734 86.156 l 50.609 86.984 50.25 87.359 49.516 87.359
 c 48.641 87.359 48.094 86.703 48.094 85.609 c 48.094 84.484 48.625 83.766
 49.469 83.766 c 50.156 83.766 50.516 84.062 50.656 84.734 c 51.219 84.734
 l 51.047 83.766 50.5 83.266 49.531 83.266 c 48.203 83.266 47.531 84.344
 47.531 85.609 c 47.531 86.891 48.234 87.859 49.516 87.859 c 50.578 87.859
 51.188 87.297 51.312 86.156 c h
51.312 86.156 m f
54.664 86.328 m 54.664 85.859 54.633 85.578 54.539 85.344 c 54.336 84.828
 53.852 84.516 53.273 84.516 c 52.383 84.516 51.82 85.156 51.82 86.203 c
 51.82 87.234 52.367 87.844 53.258 87.844 c 53.977 87.844 54.477 87.438 
54.602 86.797 c 54.102 86.797 l 53.961 87.203 53.68 87.375 53.273 87.375
 c 52.742 87.375 52.367 87.047 52.352 86.328 c h
54.133 85.875 m 54.133 85.875 54.133 85.906 54.117 85.906 c 52.367 85.906
 l 52.398 85.359 52.758 84.984 53.258 84.984 c 53.758 84.984 54.133 85.391
 54.133 85.875 c h
54.133 85.875 m f
55.332 83.375 0.5 4.375 re f
59.012 86.875 m 59.012 86.406 58.746 86.172 58.121 86.016 c 57.652 85.906
 l 57.246 85.812 57.059 85.672 57.059 85.453 c 57.059 85.156 57.324 84.984
 57.73 84.984 c 58.137 84.984 58.355 85.156 58.355 85.484 c 58.887 85.484
 l 58.887 84.859 58.48 84.516 57.746 84.516 c 57.012 84.516 56.543 84.891
 56.543 85.469 c 56.543 85.969 56.793 86.203 57.543 86.375 c 58.012 86.5
 l 58.355 86.578 58.496 86.688 58.496 86.906 c 58.496 87.203 58.199 87.375
 57.762 87.375 c 57.309 87.375 57.059 87.266 56.996 86.797 c 56.465 86.797
 l 56.496 87.516 56.902 87.844 57.715 87.844 c 58.512 87.844 59.012 87.469
 59.012 86.875 c h
59.012 86.875 m f
60.184 87.75 m 60.184 84.609 l 59.684 84.609 l 59.684 87.75 l h
60.246 84.125 m 60.246 83.516 l 59.621 83.516 l 59.621 84.125 l h
60.246 84.125 m f
63.488 87.75 m 63.488 84.609 l 62.988 84.609 l 62.988 86.344 l 62.988 86.984
 62.66 87.406 62.129 87.406 c 61.738 87.406 61.488 87.156 61.488 86.781 
c 61.488 84.609 l 60.988 84.609 l 60.988 86.984 l 60.988 87.5 61.379 87.844
 61.988 87.844 c 62.457 87.844 62.738 87.672 63.035 87.266 c 63.035 87.75
 l h
63.488 87.75 m f
66.688 86.875 m 66.688 86.406 66.422 86.172 65.797 86.016 c 65.328 85.906
 l 64.922 85.812 64.734 85.672 64.734 85.453 c 64.734 85.156 65 84.984 65.406
 84.984 c 65.812 84.984 66.031 85.156 66.031 85.484 c 66.562 85.484 l 66.562
 84.859 66.156 84.516 65.422 84.516 c 64.688 84.516 64.219 84.891 64.219
 85.469 c 64.219 85.969 64.469 86.203 65.219 86.375 c 65.688 86.5 l 66.031
 86.578 66.172 86.688 66.172 86.906 c 66.172 87.203 65.875 87.375 65.438
 87.375 c 64.984 87.375 64.734 87.266 64.672 86.797 c 64.141 86.797 l 64.172
 87.516 64.578 87.844 65.391 87.844 c 66.188 87.844 66.688 87.469 66.688
 86.875 c h
66.688 86.875 m f
68.094 87.844 m 68.094 87.125 l 67.453 87.125 l 67.453 87.75 l 67.812 87.75
 l 67.812 87.859 l 67.812 88.266 67.734 88.391 67.453 88.406 c 67.453 88.625
 l 67.875 88.625 68.094 88.359 68.094 87.844 c h
68.094 87.844 m f
73.469 87.75 m 73.469 87.266 l 71.297 87.266 l 71.297 83.375 l 70.75 83.375
 l 70.75 87.75 l h
73.469 87.75 m f
76.684 86.328 m 76.684 85.859 76.652 85.578 76.559 85.344 c 76.355 84.828
 75.871 84.516 75.293 84.516 c 74.402 84.516 73.84 85.156 73.84 86.203 c
 73.84 87.234 74.387 87.844 75.277 87.844 c 75.996 87.844 76.496 87.438 
76.621 86.797 c 76.121 86.797 l 75.98 87.203 75.699 87.375 75.293 87.375
 c 74.762 87.375 74.387 87.047 74.371 86.328 c h
76.152 85.875 m 76.152 85.875 76.152 85.906 76.137 85.906 c 74.387 85.906
 l 74.418 85.359 74.777 84.984 75.277 84.984 c 75.777 84.984 76.152 85.391
 76.152 85.875 c h
76.152 85.875 m f
79.695 86.875 m 79.695 86.406 79.43 86.172 78.805 86.016 c 78.336 85.906
 l 77.93 85.812 77.742 85.672 77.742 85.453 c 77.742 85.156 78.008 84.984
 78.414 84.984 c 78.82 84.984 79.039 85.156 79.039 85.484 c 79.57 85.484
 l 79.57 84.859 79.164 84.516 78.43 84.516 c 77.695 84.516 77.227 84.891
 77.227 85.469 c 77.227 85.969 77.477 86.203 78.227 86.375 c 78.695 86.5
 l 79.039 86.578 79.18 86.688 79.18 86.906 c 79.18 87.203 78.883 87.375 
78.445 87.375 c 77.992 87.375 77.742 87.266 77.68 86.797 c 77.148 86.797
 l 77.18 87.516 77.586 87.844 78.398 87.844 c 79.195 87.844 79.695 87.469
 79.695 86.875 c h
79.695 86.875 m f
82.695 86.875 m 82.695 86.406 82.43 86.172 81.805 86.016 c 81.336 85.906
 l 80.93 85.812 80.742 85.672 80.742 85.453 c 80.742 85.156 81.008 84.984
 81.414 84.984 c 81.82 84.984 82.039 85.156 82.039 85.484 c 82.57 85.484
 l 82.57 84.859 82.164 84.516 81.43 84.516 c 80.695 84.516 80.227 84.891
 80.227 85.469 c 80.227 85.969 80.477 86.203 81.227 86.375 c 81.695 86.5
 l 82.039 86.578 82.18 86.688 82.18 86.906 c 82.18 87.203 81.883 87.375 
81.445 87.375 c 80.992 87.375 80.742 87.266 80.68 86.797 c 80.148 86.797
 l 80.18 87.516 80.586 87.844 81.398 87.844 c 82.195 87.844 82.695 87.469
 82.695 86.875 c h
82.695 86.875 m f
85.203 83.375 0.562 4.375 re f
89.023 86.875 m 89.023 86.406 88.758 86.172 88.133 86.016 c 87.664 85.906
 l 87.258 85.812 87.07 85.672 87.07 85.453 c 87.07 85.156 87.336 84.984 
87.742 84.984 c 88.148 84.984 88.367 85.156 88.367 85.484 c 88.898 85.484
 l 88.898 84.859 88.492 84.516 87.758 84.516 c 87.023 84.516 86.555 84.891
 86.555 85.469 c 86.555 85.969 86.805 86.203 87.555 86.375 c 88.023 86.5
 l 88.367 86.578 88.508 86.688 88.508 86.906 c 88.508 87.203 88.211 87.375
 87.773 87.375 c 87.32 87.375 87.07 87.266 87.008 86.797 c 86.477 86.797
 l 86.508 87.516 86.914 87.844 87.727 87.844 c 88.523 87.844 89.023 87.469
 89.023 86.875 c h
89.023 86.875 m f
94.672 86.5 m 94.672 85.969 94.438 85.656 93.875 85.438 c 94.281 85.25 
94.484 84.938 94.484 84.484 c 94.484 83.844 94.016 83.375 93.188 83.375 
c 91.406 83.375 l 91.406 87.75 l 93.391 87.75 l 94.172 87.75 94.672 87.219
 94.672 86.5 c h
93.922 84.562 m 93.922 85.016 93.672 85.266 93.047 85.266 c 91.969 85.266
 l 91.969 83.875 l 93.047 83.875 l 93.672 83.875 93.922 84.125 93.922 84.562
 c h
94.125 86.516 m 94.125 86.922 93.859 87.266 93.328 87.266 c 91.969 87.266
 l 91.969 85.75 l 93.328 85.75 l 93.859 85.75 94.125 86.078 94.125 86.516
 c h
94.125 86.516 m f
98.023 86.328 m 98.023 85.859 97.992 85.578 97.898 85.344 c 97.695 84.828
 97.211 84.516 96.633 84.516 c 95.742 84.516 95.18 85.156 95.18 86.203 c
 95.18 87.234 95.727 87.844 96.617 87.844 c 97.336 87.844 97.836 87.438 
97.961 86.797 c 97.461 86.797 l 97.32 87.203 97.039 87.375 96.633 87.375
 c 96.102 87.375 95.727 87.047 95.711 86.328 c h
97.492 85.875 m 97.492 85.875 97.492 85.906 97.477 85.906 c 95.727 85.906
 l 95.758 85.359 96.117 84.984 96.617 84.984 c 97.117 84.984 97.492 85.391
 97.492 85.875 c h
97.492 85.875 m f
99.758 87.75 m 99.758 87.328 l 99.68 87.344 99.602 87.359 99.508 87.359
 c 99.289 87.359 99.242 87.297 99.242 87.078 c 99.242 85.016 l 99.758 85.016
 l 99.758 84.609 l 99.242 84.609 l 99.242 83.734 l 98.742 83.734 l 98.742
 84.609 l 98.305 84.609 l 98.305 85.016 l 98.742 85.016 l 98.742 87.297 
l 98.742 87.609 98.945 87.797 99.336 87.797 c 99.461 87.797 99.586 87.781
 99.758 87.75 c h
99.758 87.75 m f
101.422 87.75 m 101.422 87.328 l 101.344 87.344 101.266 87.359 101.172 
87.359 c 100.953 87.359 100.906 87.297 100.906 87.078 c 100.906 85.016 l
 101.422 85.016 l 101.422 84.609 l 100.906 84.609 l 100.906 83.734 l 100.406
 83.734 l 100.406 84.609 l 99.969 84.609 l 99.969 85.016 l 100.406 85.016
 l 100.406 87.297 l 100.406 87.609 100.609 87.797 101 87.797 c 101.125 87.797
 101.25 87.781 101.422 87.75 c h
101.422 87.75 m f
104.539 86.328 m 104.539 85.859 104.508 85.578 104.414 85.344 c 104.211
 84.828 103.727 84.516 103.148 84.516 c 102.258 84.516 101.695 85.156 101.695
 86.203 c 101.695 87.234 102.242 87.844 103.133 87.844 c 103.852 87.844 
104.352 87.438 104.477 86.797 c 103.977 86.797 l 103.836 87.203 103.555 
87.375 103.148 87.375 c 102.617 87.375 102.242 87.047 102.227 86.328 c h
104.008 85.875 m 104.008 85.875 104.008 85.906 103.992 85.906 c 102.242
 85.906 l 102.273 85.359 102.633 84.984 103.133 84.984 c 103.633 84.984 
104.008 85.391 104.008 85.875 c h
104.008 85.875 m f
106.723 85.047 m 106.723 84.531 l 106.645 84.516 106.598 84.516 106.535
 84.516 c 106.207 84.516 105.957 84.703 105.676 85.172 c 105.676 84.609 
l 105.223 84.609 l 105.223 87.75 l 105.723 87.75 l 105.723 86.125 l 105.723
 85.406 105.957 85.062 106.723 85.047 c h
106.723 85.047 m f
0.137255 0.121569 0.12549 rg
0 0 450 36 re f
0.996078 g
14.391 14.25 m 14.391 4.953 l 11.516 4.953 l 9.875 12.344 l 8.203 4.953
 l 5.344 4.953 l 5.344 14.25 l 7.25 14.25 l 7.25 7.016 l 8.922 14.25 l 10.844
 14.25 l 12.484 7.016 l 12.484 14.25 l h
14.391 14.25 m f
21.82 11.062 m 21.82 8.688 20.633 7.25 18.602 7.25 c 16.617 7.25 15.414
 8.594 15.414 10.891 c 15.414 13.109 16.617 14.359 18.57 14.359 c 20.102
 14.359 21.352 13.656 21.758 12.312 c 19.992 12.312 l 19.836 12.812 19.273
 13 18.633 13 c 17.789 13 17.242 12.625 17.195 11.281 c 21.82 11.281 l h
19.961 10.094 m 17.227 10.094 l 17.336 9.141 17.789 8.609 18.57 8.609 c
 19.336 8.609 19.883 9.109 19.961 10.094 c h
19.961 10.094 m f
29.199 14.25 m 29.199 9.641 l 29.199 8.125 28.355 7.25 26.887 7.25 c 25.949
 7.25 25.324 7.594 24.824 8.359 c 24.824 7.359 l 23.027 7.359 l 23.027 14.25
 l 24.824 14.25 l 24.824 10.125 l 24.824 9.297 25.387 8.766 26.262 8.766
 c 27.027 8.766 27.402 9.188 27.402 10 c 27.402 14.25 l h
29.199 14.25 m f
36.68 11.859 m 34.977 11.859 l 34.742 12.578 34.383 12.922 33.695 12.922
 c 32.789 12.922 32.242 12.203 32.242 10.859 c 32.242 9.594 32.57 8.688 
33.695 8.688 c 34.43 8.688 34.773 9.031 34.977 9.938 c 36.68 9.938 l 36.555
 8.25 35.43 7.25 33.711 7.25 c 31.648 7.25 30.461 8.516 30.461 10.859 c 
30.461 13.125 31.648 14.359 33.68 14.359 c 35.352 14.359 36.508 13.328 36.68
 11.859 c h
36.68 11.859 m f
44.371 10.859 m 44.371 8.531 43.121 7.25 40.965 7.25 c 38.855 7.25 37.574
 8.547 37.574 10.812 c 37.574 13.078 38.855 14.359 40.965 14.359 c 43.059
 14.359 44.371 13.062 44.371 10.859 c h
42.59 10.828 m 42.59 12.125 41.934 12.922 40.965 12.922 c 39.996 12.922
 39.355 12.125 39.355 10.812 c 39.355 9.5 39.996 8.688 40.965 8.688 c 41.949
 8.688 42.59 9.484 42.59 10.828 c h
42.59 10.828 m f
51.871 14.25 m 51.871 4.953 l 50.074 4.953 l 50.074 8.25 l 49.637 7.562
 49.043 7.25 48.184 7.25 c 46.543 7.25 45.293 8.734 45.293 10.812 c 45.293
 12.766 46.355 14.359 48.184 14.359 c 49.043 14.359 49.637 14.047 50.074
 13.453 c 50.074 14.25 l h
50.074 10.844 m 50.074 12.094 49.465 12.875 48.574 12.875 c 47.684 12.875
 47.074 12.078 47.074 10.812 c 47.074 9.547 47.684 8.734 48.574 8.734 c 
49.48 8.734 50.074 9.531 50.074 10.844 c h
50.074 10.844 m f
59.398 11.062 m 59.398 8.688 58.211 7.25 56.18 7.25 c 54.195 7.25 52.992
 8.594 52.992 10.891 c 52.992 13.109 54.195 14.359 56.148 14.359 c 57.68
 14.359 58.93 13.656 59.336 12.312 c 57.57 12.312 l 57.414 12.812 56.852
 13 56.211 13 c 55.367 13 54.82 12.625 54.773 11.281 c 59.398 11.281 l h
57.539 10.094 m 54.805 10.094 l 54.914 9.141 55.367 8.609 56.148 8.609 
c 56.914 8.609 57.461 9.109 57.539 10.094 c h
57.539 10.094 m f
64.527 9.078 m 64.527 7.266 l 64.418 7.25 64.355 7.25 64.309 7.25 c 63.496
 7.25 62.777 7.781 62.402 8.719 c 62.402 7.359 l 60.605 7.359 l 60.605 14.25
 l 62.402 14.25 l 62.402 10.594 l 62.402 9.547 62.918 9.016 63.965 9.016
 c 64.152 9.016 64.277 9.031 64.527 9.078 c h
64.527 9.078 m f
75.129 7.359 m 73.254 7.359 l 71.863 12.406 l 70.363 7.359 l 68.473 7.359
 l 70.895 14.25 l 72.77 14.25 l h
75.129 7.359 m f
80.211 14.25 m 80.211 5.203 l 79.039 5.203 l 78.758 6.281 77.82 6.828 76.258
 6.828 c 76.258 8.016 l 78.43 8.016 l 78.43 14.25 l h
80.211 14.25 m f
83.309 12.391 1.922 1.859 re f
92.609 11.469 m 92.609 10.406 92.156 9.812 91.125 9.312 c 91.969 8.797 
92.312 8.312 92.312 7.484 c 92.312 5.969 91.188 5.016 89.453 5.016 c 87.703
 5.016 86.516 5.938 86.516 7.906 c 86.516 8.047 l 88.172 8.047 l 88.172 
6.938 88.531 6.453 89.406 6.453 c 90.125 6.453 90.531 6.891 90.531 7.641
 c 90.531 8.547 90.016 8.922 88.953 8.922 c 88.797 8.922 l 88.797 10.125
 l 90.141 10.125 90.828 10.5 90.828 11.469 c 90.828 12.266 90.266 12.828
 89.484 12.828 c 88.641 12.828 88.141 12.344 88.141 11.422 c 86.406 11.422
 l 86.406 13.234 87.594 14.359 89.453 14.359 c 91.375 14.359 92.609 13.234
 92.609 11.469 c h
92.609 11.469 m f
93.941 12.391 1.922 1.859 re f
103.258 9.75 m 103.258 7.188 102.789 5.016 100.148 5.016 c 97.555 5.016
 97.039 7.094 97.039 9.703 c 97.039 12.219 97.523 14.359 100.148 14.359 
c 101.977 14.359 103.258 13.312 103.258 9.75 c h
101.477 9.719 m 101.477 12.25 101.102 12.828 100.148 12.828 c 99.242 12.828
 98.82 12.375 98.82 9.688 c 98.82 7.062 99.195 6.453 100.148 6.453 c 101.023
 6.453 101.477 6.906 101.477 9.719 c h
101.477 9.719 m f
9.719 25.188 m 9.719 24.25 9.25 23.797 8.125 23.578 c 7.188 23.406 l 6.312
 23.234 6.047 23.062 6.047 22.625 c 6.047 22.172 6.453 21.875 7.094 21.875
 c 7.875 21.875 8.359 22.203 8.359 22.812 c 9.5 22.812 l 9.5 21.547 8.609
 20.891 7.141 20.891 c 5.703 20.891 4.875 21.562 4.875 22.734 c 4.875 23.672
 5.344 24.109 6.562 24.359 c 7.406 24.516 l 8.234 24.688 8.531 24.859 8.531
 25.344 c 8.531 25.844 8.078 26.109 7.328 26.109 c 6.484 26.109 5.969 25.75
 5.969 25.109 c 4.766 25.109 l 4.766 26.391 5.719 27.094 7.25 27.094 c 8.812
 27.094 9.719 26.422 9.719 25.188 c h
9.719 25.188 m f
14.449 22.547 m 13.262 22.547 l 12.34 25.781 l 11.355 22.547 l 10.09 22.547
 l 11.746 27.188 l 11.746 27.219 l 11.746 27.641 11.434 27.953 11.027 27.953
 c 10.934 27.953 10.871 27.953 10.715 27.906 c 10.715 28.781 l 10.887 28.797
 10.996 28.812 11.137 28.812 c 11.902 28.812 12.309 28.672 12.621 27.812
 c h
14.449 22.547 m f
18.77 25.688 m 18.77 25.625 l 18.77 25.109 18.473 24.734 17.895 24.562 
c 16.426 24.141 l 16.113 24.047 16.02 23.969 16.02 23.797 c 16.02 23.547
 16.285 23.375 16.691 23.375 c 17.238 23.375 17.52 23.578 17.52 23.984 c
 18.645 23.984 l 18.629 23.047 17.895 22.469 16.707 22.469 c 15.566 22.469
 14.863 23.047 14.863 23.953 c 14.863 24.5 15.02 24.797 15.848 25.047 c 
17.223 25.484 l 17.504 25.578 17.613 25.656 17.613 25.781 c 17.613 26.062
 17.285 26.172 16.754 26.172 c 16.223 26.172 15.941 26.062 15.848 25.594
 c 14.707 25.594 l 14.738 26.562 15.457 27.078 16.816 27.078 c 18.066 27.078
 18.77 26.578 18.77 25.688 c h
18.77 25.688 m f
21.551 27 m 21.551 26.188 l 21.441 26.203 21.363 26.219 21.285 26.219 c
 20.973 26.219 20.91 26.125 20.91 25.734 c 20.91 23.406 l 21.551 23.406 
l 21.551 22.641 l 20.91 22.641 l 20.91 21.438 l 19.754 21.438 l 19.754 22.641
 l 19.176 22.641 l 19.176 23.406 l 19.754 23.406 l 19.754 26.047 l 19.754
 26.75 20.129 27.031 20.879 27.031 c 21.145 27.031 21.348 27.016 21.551 
27 c h
21.551 27 m f
26.102 24.938 m 26.102 23.406 25.336 22.469 24.023 22.469 c 22.742 22.469
 21.961 23.344 21.961 24.828 c 21.961 26.25 22.727 27.078 23.992 27.078 
c 24.992 27.078 25.805 26.625 26.055 25.75 c 24.914 25.75 l 24.82 26.062
 24.461 26.188 24.039 26.188 c 23.492 26.188 23.148 25.938 23.117 25.078
 c 26.102 25.078 l h
24.898 24.312 m 23.133 24.312 l 23.195 23.688 23.492 23.359 24.008 23.359
 c 24.492 23.359 24.836 23.672 24.898 24.312 c h
24.898 24.312 m f
33.164 27 m 33.164 23.844 l 33.164 22.984 32.633 22.469 31.742 22.469 c
 31.18 22.469 30.789 22.672 30.445 23.125 c 30.227 22.703 29.789 22.469 
29.227 22.469 c 28.711 22.469 28.383 22.641 28.008 23.094 c 28.008 22.547
 l 26.867 22.547 l 26.867 27 l 28.023 27 l 28.023 24.328 l 28.023 23.781
 28.32 23.453 28.805 23.453 c 29.195 23.453 29.43 23.672 29.43 24.031 c 
29.43 27 l 30.586 27 l 30.586 24.328 l 30.586 23.781 30.883 23.453 31.383
 23.453 c 31.773 23.453 32.008 23.672 32.008 24.031 c 32.008 27 l h
33.164 27 m f
40.922 22.016 m 40.922 20.984 l 36.094 20.984 l 36.094 22.016 l 37.922 
22.016 l 37.922 27 l 39.156 27 l 39.156 22.016 l h
40.922 22.016 m f
44.777 24.938 m 44.777 23.406 44.012 22.469 42.699 22.469 c 41.418 22.469
 40.637 23.344 40.637 24.828 c 40.637 26.25 41.402 27.078 42.668 27.078 
c 43.668 27.078 44.48 26.625 44.73 25.75 c 43.59 25.75 l 43.496 26.062 43.137
 26.188 42.715 26.188 c 42.168 26.188 41.824 25.938 41.793 25.078 c 44.777
 25.078 l h
43.574 24.312 m 41.809 24.312 l 41.871 23.688 42.168 23.359 42.684 23.359
 c 43.168 23.359 43.512 23.672 43.574 24.312 c h
43.574 24.312 m f
51.84 27 m 51.84 23.844 l 51.84 22.984 51.309 22.469 50.418 22.469 c 49.855
 22.469 49.465 22.672 49.121 23.125 c 48.902 22.703 48.465 22.469 47.902
 22.469 c 47.387 22.469 47.059 22.641 46.684 23.094 c 46.684 22.547 l 45.543
 22.547 l 45.543 27 l 46.699 27 l 46.699 24.328 l 46.699 23.781 46.996 23.453
 47.48 23.453 c 47.871 23.453 48.105 23.672 48.105 24.031 c 48.105 27 l 
49.262 27 l 49.262 24.328 l 49.262 23.781 49.559 23.453 50.059 23.453 c 
50.449 23.453 50.684 23.672 50.684 24.031 c 50.684 27 l h
51.84 27 m f
57.156 24.766 m 57.156 23.453 56.453 22.469 55.297 22.469 c 54.734 22.469
 54.328 22.703 54.062 23.203 c 54.062 22.547 l 52.906 22.547 l 52.906 28.797
 l 54.062 28.797 l 54.062 26.406 l 54.328 26.906 54.734 27.078 55.297 27.078
 c 56.359 27.078 57.156 26.125 57.156 24.766 c h
56 24.781 m 56 25.594 55.594 26.109 55.031 26.109 c 54.453 26.109 54.062
 25.609 54.062 24.766 c 54.062 23.938 54.453 23.438 55.031 23.438 c 55.609
 23.438 56 23.938 56 24.781 c h
56 24.781 m f
61.793 24.938 m 61.793 23.406 61.027 22.469 59.715 22.469 c 58.434 22.469
 57.652 23.344 57.652 24.828 c 57.652 26.25 58.418 27.078 59.684 27.078 
c 60.684 27.078 61.496 26.625 61.746 25.75 c 60.605 25.75 l 60.512 26.062
 60.152 26.188 59.73 26.188 c 59.184 26.188 58.84 25.938 58.809 25.078 c
 61.793 25.078 l h
60.59 24.312 m 58.824 24.312 l 58.887 23.688 59.184 23.359 59.699 23.359
 c 60.184 23.359 60.527 23.672 60.59 24.312 c h
60.59 24.312 m f
65.105 23.656 m 65.105 22.484 l 65.043 22.469 64.996 22.469 64.965 22.469
 c 64.449 22.469 63.98 22.812 63.73 23.422 c 63.73 22.547 l 62.574 22.547
 l 62.574 27 l 63.73 27 l 63.73 24.625 l 63.73 23.953 64.074 23.625 64.746
 23.625 c 64.871 23.625 64.949 23.625 65.105 23.656 c h
65.105 23.656 m f
69.641 27 m 69.641 26.859 l 69.422 26.672 69.375 26.547 69.375 26.312 c
 69.375 23.844 l 69.375 22.938 68.75 22.469 67.547 22.469 c 66.344 22.469
 65.719 22.984 65.641 24.016 c 66.75 24.016 l 66.812 23.547 67 23.406 67.578
 23.406 c 68.016 23.406 68.234 23.547 68.234 23.844 c 68.234 24.312 67.891
 24.266 67.312 24.375 c 66.859 24.453 l 65.969 24.609 65.547 24.984 65.547
 25.797 c 65.547 26.656 66.156 27.078 66.891 27.078 c 67.391 27.078 67.844
 26.859 68.25 26.438 c 68.25 26.672 68.281 26.875 68.375 27 c h
68.234 25.094 m 68.234 25.766 67.906 26.141 67.328 26.141 c 66.938 26.141
 66.703 26 66.703 25.656 c 66.703 25.328 66.875 25.203 67.359 25.109 c 67.75
 25.031 l 68.062 24.984 68.109 24.969 68.234 24.891 c h
68.234 25.094 m f
72.387 27 m 72.387 26.188 l 72.277 26.203 72.199 26.219 72.121 26.219 c
 71.809 26.219 71.746 26.125 71.746 25.734 c 71.746 23.406 l 72.387 23.406
 l 72.387 22.641 l 71.746 22.641 l 71.746 21.438 l 70.59 21.438 l 70.59 
22.641 l 70.012 22.641 l 70.012 23.406 l 70.59 23.406 l 70.59 26.047 l 70.59
 26.75 70.965 27.031 71.715 27.031 c 71.98 27.031 72.184 27.016 72.387 27
 c h
72.387 27 m f
77.129 27 m 77.129 22.547 l 75.973 22.547 l 75.973 25.219 l 75.973 25.75
 75.598 26.094 75.035 26.094 c 74.535 26.094 74.301 25.828 74.301 25.297
 c 74.301 22.547 l 73.145 22.547 l 73.145 25.531 l 73.145 26.516 73.676 
27.078 74.629 27.078 c 75.238 27.078 75.645 26.844 75.973 26.422 c 75.973
 27 l h
77.129 27 m f
80.75 23.656 m 80.75 22.484 l 80.688 22.469 80.641 22.469 80.609 22.469
 c 80.094 22.469 79.625 22.812 79.375 23.422 c 79.375 22.547 l 78.219 22.547
 l 78.219 27 l 79.375 27 l 79.375 24.625 l 79.375 23.953 79.719 23.625 80.391
 23.625 c 80.516 23.625 80.594 23.625 80.75 23.656 c h
80.75 23.656 m f
85.285 24.938 m 85.285 23.406 84.52 22.469 83.207 22.469 c 81.926 22.469
 81.145 23.344 81.145 24.828 c 81.145 26.25 81.91 27.078 83.176 27.078 c
 84.176 27.078 84.988 26.625 85.238 25.75 c 84.098 25.75 l 84.004 26.062
 83.645 26.188 83.223 26.188 c 82.676 26.188 82.332 25.938 82.301 25.078
 c 85.285 25.078 l h
84.082 24.312 m 82.316 24.312 l 82.379 23.688 82.676 23.359 83.191 23.359
 c 83.676 23.359 84.02 23.672 84.082 24.312 c h
84.082 24.312 m f
94.246 27 m 94.246 20.984 l 92.371 20.984 l 91.324 25.766 l 90.23 20.984
 l 88.387 20.984 l 88.387 27 l 89.621 27 l 89.621 22.312 l 90.699 27 l 91.934
 27 l 93.012 22.312 l 93.012 27 l h
94.246 27 m f
99.406 24.812 m 99.406 23.297 98.594 22.469 97.203 22.469 c 95.844 22.469
 95 23.312 95 24.766 c 95 26.234 95.844 27.078 97.203 27.078 c 98.562 27.078
 99.406 26.234 99.406 24.812 c h
98.266 24.781 m 98.266 25.625 97.828 26.141 97.203 26.141 c 96.578 26.141
 96.156 25.625 96.156 24.766 c 96.156 23.922 96.578 23.406 97.203 23.406
 c 97.844 23.406 98.266 23.922 98.266 24.781 c h
98.266 24.781 m f
104.262 27 m 104.262 24.016 l 104.262 23.031 103.715 22.469 102.777 22.469
 c 102.168 22.469 101.762 22.688 101.434 23.188 c 101.434 22.547 l 100.277
 22.547 l 100.277 27 l 101.434 27 l 101.434 24.328 l 101.434 23.797 101.809
 23.453 102.371 23.453 c 102.871 23.453 103.105 23.719 103.105 24.25 c 103.105
 27 l h
104.262 27 m f
106.508 27 m 106.508 22.547 l 105.352 22.547 l 105.352 27 l h
106.523 22.016 m 106.523 20.859 l 105.367 20.859 l 105.367 22.016 l h
106.523 22.016 m f
109.578 27 m 109.578 26.188 l 109.469 26.203 109.391 26.219 109.312 26.219
 c 109 26.219 108.938 26.125 108.938 25.734 c 108.938 23.406 l 109.578 23.406
 l 109.578 22.641 l 108.938 22.641 l 108.938 21.438 l 107.781 21.438 l 107.781
 22.641 l 107.203 22.641 l 107.203 23.406 l 107.781 23.406 l 107.781 26.047
 l 107.781 26.75 108.156 27.031 108.906 27.031 c 109.172 27.031 109.375 
27.016 109.578 27 c h
109.578 27 m f
114.457 24.812 m 114.457 23.297 113.645 22.469 112.254 22.469 c 110.895
 22.469 110.051 23.312 110.051 24.766 c 110.051 26.234 110.895 27.078 112.254
 27.078 c 113.613 27.078 114.457 26.234 114.457 24.812 c h
113.316 24.781 m 113.316 25.625 112.879 26.141 112.254 26.141 c 111.629
 26.141 111.207 25.625 111.207 24.766 c 111.207 23.922 111.629 23.406 112.254
 23.406 c 112.895 23.406 113.316 23.922 113.316 24.781 c h
113.316 24.781 m f
117.859 23.656 m 117.859 22.484 l 117.797 22.469 117.75 22.469 117.719 
22.469 c 117.203 22.469 116.734 22.812 116.484 23.422 c 116.484 22.547 l
 115.328 22.547 l 115.328 27 l 116.484 27 l 116.484 24.625 l 116.484 23.953
 116.828 23.625 117.5 23.625 c 117.625 23.625 117.703 23.625 117.859 23.656
 c h
117.859 23.656 m f
1 g
3 w
q 1 0 0 1 0 0 cm
440.25 19.5 m 440.25 26.25 l 436.5 14.25 m 436.5 26.25 l 432.75 5.25 m 
432.75 26.25 l 415.5 24.75 m 424.875 24.75 l 426.738 24.75 428.25 23.238
 428.25 21.375 c 428.25 19.512 426.738 18 424.875 18 c 418.875 18 l 417.012
 18 415.5 16.488 415.5 14.625 c 415.5 12.762 417.012 11.25 418.875 11.25
 c 428.25 11.25 l 412.5 15 m 404.25 15 l 412.5 24.75 m 411 24.75 l 407.273
 24.75 404.25 21.727 404.25 18 c 404.25 3 l 386.25 33 m 386.25 18 l 386.25
 14.273 389.273 11.25 393 11.25 c 396.727 11.25 399.75 14.273 399.75 18 
c 399.75 21.727 396.727 24.75 393 24.75 c 386.25 24.75 l S Q
0.458824 g
0.75 w
[ 3.75 3.75] 0 d
q 1 0 0 1 0 0 cm
38.25 232.5 m 442.5 232.5 l S Q
[ 3.75 3.75] 0 d
q 1 0 0 1 0 0 cm
38.25 204.75 m 442.5 204.75 l S Q
[ 3.75 3.75] 0 d
q 1 0 0 1 0 0 cm
38.25 177 m 442.5 177 l S Q
[ 3.75 3.75] 0 d
q 1 0 0 1 0 0 cm
38.25 149.25 m 442.5 149.25 l S Q
[ 3.75 3.75] 0 d
q 1 0 0 1 0 0 cm
38.25 121.5 m 442.5 121.5 l S Q
[] 0.0 d
q 1 0 0 1 0 0 cm
35.25 232.5 m 41.25 232.5 l S Q
q 1 0 0 1 0 0 cm
35.25 204.75 m 41.25 204.75 l S Q
q 1 0 0 1 0 0 cm
35.25 177 m 41.25 177 l S Q
q 1 0 0 1 0 0 cm
35.25 149.25 m 41.25 149.25 l S Q
q 1 0 0 1 0 0 cm
35.25 121.5 m 41.25 121.5 l S Q
0.580392 g
[ 3.75 3.75] 0 d
q 1 0 0 1 0 0 cm
46.5 232.5 m 442.5 232.5 l S Q
[ 3.75 3.75] 0 d
q 1 0 0 1 0 0 cm
46.5 204.75 m 442.5 204.75 l S Q
[ 3.75 3.75] 0 d
q 1 0 0 1 0 0 cm
46.5 177 m 442.5 177 l S Q
[ 3.75 3.75] 0 d
q 1 0 0 1 0 0 cm
46.5 149.25 m 442.5 149.25 l S Q
[ 3.75 3.75] 0 d
q 1 0 0 1 0 0 cm
46.5 121.5 m 442.5 121.5 l S Q
0.0235294 0.337255 0.584314 rg
26.996 261.484 m 26.996 260.438 26.309 259.75 25.277 259.75 c 24.902 259.75
 24.605 259.844 24.293 260.062 c 24.512 258.703 l 26.715 258.703 l 26.715
 258.047 l 23.98 258.047 l 23.574 260.828 l 24.184 260.828 l 24.496 260.453
 24.746 260.328 25.168 260.328 c 25.871 260.328 26.324 260.797 26.324 261.578
 c 26.324 262.344 25.887 262.781 25.168 262.781 c 24.59 262.781 24.23 262.484
 24.074 261.891 c 23.418 261.891 l 23.637 262.938 24.23 263.359 25.184 263.359
 c 26.246 263.359 26.996 262.609 26.996 261.484 c h
26.996 261.484 m f
31.23 258.594 m 31.23 258.047 l 27.668 258.047 l 27.668 258.703 l 30.543
 258.703 l 29.48 260.031 28.73 261.578 28.355 263.25 c 29.059 263.25 l 29.355
 261.531 30.105 259.922 31.23 258.594 c h
31.23 258.594 m f
26.996 233.844 m 26.996 232.859 26.324 232.188 25.371 232.188 c 24.84 232.188
 24.434 232.391 24.152 232.781 c 24.152 231.484 24.574 230.766 25.34 230.766
 c 25.793 230.766 26.121 231.062 26.23 231.562 c 26.887 231.562 l 26.762
 230.703 26.184 230.188 25.387 230.188 c 24.137 230.188 23.48 231.219 23.48
 233.078 c 23.48 234.734 24.043 235.609 25.262 235.609 c 26.277 235.609 
26.996 234.891 26.996 233.844 c h
26.324 233.906 m 26.324 234.562 25.871 235.031 25.262 235.031 c 24.652 
235.031 24.184 234.547 24.184 233.859 c 24.184 233.203 24.637 232.781 25.293
 232.781 c 25.934 232.781 26.324 233.188 26.324 233.906 c h
26.324 233.906 m f
31.168 234 m 31.168 233.406 30.871 233 30.262 232.703 c 30.809 232.375 
30.98 232.109 30.98 231.594 c 30.98 230.766 30.324 230.188 29.387 230.188
 c 28.449 230.188 27.793 230.766 27.793 231.594 c 27.793 232.094 27.965 
232.359 28.512 232.703 c 27.902 233 27.605 233.406 27.605 234 c 27.605 234.969
 28.34 235.609 29.387 235.609 c 30.434 235.609 31.168 234.969 31.168 234
 c h
30.309 231.609 m 30.309 232.109 29.949 232.438 29.387 232.438 c 28.824 
232.438 28.465 232.109 28.465 231.609 c 28.465 231.094 28.824 230.766 29.387
 230.766 c 29.949 230.766 30.309 231.094 30.309 231.609 c h
30.496 234 m 30.496 234.641 30.043 235.031 29.371 235.031 c 28.73 235.031
 28.277 234.625 28.277 234 c 28.277 233.391 28.73 233 29.387 233 c 30.043
 233 30.496 233.391 30.496 234 c h
30.496 234 m f
27.059 203.094 m 27.059 202.547 l 23.496 202.547 l 23.496 203.203 l 26.371
 203.203 l 25.309 204.531 24.559 206.078 24.184 207.75 c 24.887 207.75 l
 25.184 206.031 25.934 204.422 27.059 203.094 c h
27.059 203.094 m f
31.137 204.969 m 31.137 203.297 30.559 202.438 29.355 202.438 c 28.34 202.438
 27.605 203.156 27.605 204.188 c 27.605 205.188 28.277 205.859 29.246 205.859
 c 29.746 205.859 30.121 205.672 30.465 205.266 c 30.449 206.562 30.027 
207.281 29.277 207.281 c 28.809 207.281 28.48 206.984 28.387 206.469 c 27.715
 206.469 l 27.855 207.344 28.418 207.859 29.23 207.859 c 30.48 207.859 31.137
 206.812 31.137 204.969 c h
30.418 204.188 m 30.418 204.828 29.965 205.266 29.324 205.266 c 28.684 
205.266 28.277 204.859 28.277 204.141 c 28.277 203.469 28.73 203.016 29.34
 203.016 c 29.949 203.016 30.418 203.484 30.418 204.188 c h
30.418 204.188 m f
26.965 177.219 m 26.965 175.547 26.387 174.688 25.184 174.688 c 24.168 
174.688 23.434 175.406 23.434 176.438 c 23.434 177.438 24.105 178.109 25.074
 178.109 c 25.574 178.109 25.949 177.922 26.293 177.516 c 26.277 178.812
 25.855 179.531 25.105 179.531 c 24.637 179.531 24.309 179.234 24.215 178.719
 c 23.543 178.719 l 23.684 179.594 24.246 180.109 25.059 180.109 c 26.309
 180.109 26.965 179.062 26.965 177.219 c h
26.246 176.438 m 26.246 177.078 25.793 177.516 25.152 177.516 c 24.512 
177.516 24.105 177.109 24.105 176.391 c 24.105 175.719 24.559 175.266 25.168
 175.266 c 25.777 175.266 26.246 175.734 26.246 176.438 c h
26.246 176.438 m f
31.121 177.438 m 31.121 175.594 30.543 174.688 29.387 174.688 c 28.246 
174.688 27.652 175.609 27.652 177.391 c 27.652 179.188 28.246 180.109 29.387
 180.109 c 30.512 180.109 31.121 179.188 31.121 177.438 c h
30.449 177.375 m 30.449 178.891 30.105 179.562 29.371 179.562 c 28.668 
179.562 28.324 178.859 28.324 177.406 c 28.324 175.953 28.668 175.266 29.387
 175.266 c 30.105 175.266 30.449 175.953 30.449 177.375 c h
30.449 177.375 m f
21.586 152.25 m 21.586 146.938 l 21.148 146.938 l 20.914 147.75 20.758 
147.859 19.742 147.984 c 19.742 148.469 l 20.914 148.469 l 20.914 152.25
 l h
21.586 152.25 m f
26.949 149.688 m 26.949 147.844 26.371 146.938 25.215 146.938 c 24.074 
146.938 23.48 147.859 23.48 149.641 c 23.48 151.438 24.074 152.359 25.215
 152.359 c 26.34 152.359 26.949 151.438 26.949 149.688 c h
26.277 149.625 m 26.277 151.141 25.934 151.812 25.199 151.812 c 24.496 
151.812 24.152 151.109 24.152 149.656 c 24.152 148.203 24.496 147.516 25.215
 147.516 c 25.934 147.516 26.277 148.203 26.277 149.625 c h
26.277 149.625 m f
29.934 152.25 m 29.934 146.938 l 29.496 146.938 l 29.262 147.75 29.105 
147.859 28.09 147.984 c 28.09 148.469 l 29.262 148.469 l 29.262 152.25 l
 h
29.934 152.25 m f
21.586 124.5 m 21.586 119.188 l 21.148 119.188 l 20.914 120 20.758 120.109
 19.742 120.234 c 19.742 120.719 l 20.914 120.719 l 20.914 124.5 l h
21.586 124.5 m f
25.762 124.5 m 25.762 119.188 l 25.324 119.188 l 25.09 120 24.934 120.109
 23.918 120.234 c 23.918 120.719 l 25.09 120.719 l 25.09 124.5 l h
25.762 124.5 m f
31.152 120.75 m 31.152 119.844 30.465 119.188 29.449 119.188 c 28.371 119.188
 27.73 119.734 27.699 121.031 c 28.355 121.031 l 28.418 120.141 28.777 119.766
 29.434 119.766 c 30.027 119.766 30.48 120.188 30.48 120.75 c 30.48 121.172
 30.23 121.531 29.762 121.812 c 29.074 122.203 l 27.965 122.828 27.637 123.328
 27.574 124.5 c 31.121 124.5 l 31.121 123.844 l 28.324 123.844 l 28.387 
123.406 28.637 123.141 29.277 122.75 c 30.027 122.344 l 30.777 121.953 31.152
 121.391 31.152 120.75 c h
31.152 120.75 m f
0.956863 0.262745 0.211765 rg
1.5 w
[] 0.0 d
q 1 0 0 1 0 0 cm
39.75 197.25 m 41.25 180 l 42 170.25 l 43.5 176.25 l 45 170.25 l 46.5 169.5
 l 48 168 l 50.25 170.25 l 51.75 168 l 53.25 175.5 l 54.75 175.5 l 56.25
 176.25 l 57 176.25 l 58.5 174 l 60 175.5 l 61.5 177.75 l 63 168 l 64.5 
168 l 65.25 175.5 l 66.75 176.25 l 68.25 174 l 69.75 176.25 l 71.25 168 
l 72.75 166.5 l 73.5 168 l 75 166.5 l 76.5 168 l 78 168 l 79.5 169.5 l 80.25
 168 l 81.75 168 l 83.25 174 l 84.75 176.25 l 86.25 168 l 87.75 166.5 l 
88.5 168 l 90 166.5 l 91.5 168 l 93 168 l 94.5 166.5 l 95.25 176.25 l 96.75
 176.25 l 98.25 177.75 l 99.75 169.5 l 101.25 166.5 l 102.75 166.5 l 103.5
 168 l 105 168 l 106.5 174 l 108 176.25 l 109.5 176.25 l 111 175.5 l 111.75
 175.5 l 113.25 176.25 l 114.75 175.5 l 116.25 176.25 l 117.75 174 l 118.5
 173.25 l 120 175.5 l 123 175.5 l 124.5 168 l 126 168 l 126.75 166.5 l 129.75
 166.5 l 131.25 173.25 l 132.75 173.25 l 133.5 175.5 l 135 174 l 136.5 175.5
 l 138 175.5 l 139.5 176.25 l 141 174 l 141.75 166.5 l 144.75 166.5 l 146.25
 168 l 147.75 176.25 l 148.5 174 l 150 175.5 l 151.5 174 l 153 174 l 154.5
 176.25 l 156 173.25 l 158.25 175.5 l 159.75 173.25 l 161.25 175.5 l 164.25
 175.5 l 165 174 l 166.5 175.5 l 168 168 l 169.5 168 l 171 166.5 l 171.75
 168 l 173.25 186 l 174.75 176.25 l 176.25 177.75 l 177.75 176.25 l 179.25
 176.25 l 180 174 l 181.5 174 l 183 176.25 l 184.5 175.5 l 186 175.5 l 186.75
 176.25 l 188.25 169.5 l 189.75 175.5 l 191.25 174 l 195 174 l 196.5 175.5
 l 198 174 l 199.5 175.5 l 201 174 l 202.5 175.5 l 203.25 175.5 l 204.75
 176.25 l 206.25 174 l 207.75 173.25 l 209.25 174 l 210 175.5 l 211.5 173.25
 l 213 166.5 l 214.5 168 l 216 166.5 l 217.5 168 l 218.25 168 l 219.75 169.5
 l 221.25 166.5 l 222.75 166.5 l 224.25 168 l 225 166.5 l 228 169.5 l 229.5
 168 l 231 168 l 232.5 166.5 l 233.25 176.25 l 234.75 175.5 l 236.25 174
 l 237.75 175.5 l 239.25 176.25 l 241.5 176.25 l 243 175.5 l 244.5 174 l
 246 173.25 l 247.5 176.25 l 248.25 175.5 l 251.25 175.5 l 252.75 176.25
 l 254.25 169.5 l 255.75 166.5 l 256.5 168 l 258 166.5 l 259.5 169.5 l 261
 168 l 262.5 169.5 l 263.25 168 l 264.75 166.5 l 266.25 169.5 l 267.75 166.5
 l 269.25 168 l 270.75 166.5 l 271.5 166.5 l 273 176.25 l 274.5 169.5 l 
276 166.5 l 277.5 168 l 278.25 166.5 l 281.25 166.5 l 282.75 169.5 l 284.25
 169.5 l 285.75 166.5 l 286.5 166.5 l 288 169.5 l 289.5 168 l 291 168 l 
292.5 166.5 l 294 166.5 l 294.75 170.25 l 296.25 166.5 l 303 166.5 l 304.5
 169.5 l 306 169.5 l 307.5 185.25 l 309 176.25 l 311.25 176.25 l 312.75 
175.5 l 314.25 175.5 l 315.75 171.75 l 316.5 174 l 318 176.25 l 319.5 174
 l 321 176.25 l 322.5 176.25 l 324 175.5 l 324.75 176.25 l 326.25 176.25
 l 327.75 175.5 l 333 175.5 l 334.5 177.75 l 336 175.5 l 337.5 174 l 339
 175.5 l 339.75 175.5 l 341.25 177.75 l 342.75 173.25 l 344.25 175.5 l 345.75
 174 l 347.25 175.5 l 348 174 l 349.5 175.5 l 351 176.25 l 352.5 174 l 354
 176.25 l 354.75 169.5 l 356.25 168 l 357.75 169.5 l 359.25 168 l 360.75
 168 l 362.25 169.5 l 363 166.5 l 366 169.5 l 367.5 166.5 l 369 168 l 369.75
 170.25 l 371.25 169.5 l 372.75 168 l 374.25 165.75 l 375.75 169.5 l 377.25
 166.5 l 378 168 l 379.5 169.5 l 382.5 166.5 l 385.5 166.5 l 386.25 168 
l 387.75 168 l 389.25 169.5 l 390.75 168 l 392.25 165.75 l 393 166.5 l 394.5
 166.5 l 396 170.25 l 397.5 169.5 l 399 168 l 401.25 168 l 402.75 166.5 
l 404.25 170.25 l 407.25 165.75 l 408 168 l 409.5 166.5 l 411 168 l 412.5
 166.5 l 414 169.5 l 415.5 168 l 416.25 180 l 417.75 175.5 l 419.25 173.25
 l 420.75 175.5 l 422.25 175.5 l 423.75 176.25 l 424.5 175.5 l 426 176.25
 l 427.5 174 l 429 175.5 l 430.5 175.5 l 431.25 176.25 l 434.25 176.25 l
 435.75 174 l 437.25 170.25 l 438.75 168 l 439.5 168 l 441 173.25 l S Q
42 197.25 m 42 198.492 40.992 199.5 39.75 199.5 c 38.508 199.5 37.5 198.492
 37.5 197.25 c 37.5 196.008 38.508 195 39.75 195 c 40.992 195 42 196.008
 42 197.25 c h
42 197.25 m f
0.75 w
q 1 0 0 1 0 0 cm
42 197.25 m 42 198.492 40.992 199.5 39.75 199.5 c 38.508 199.5 37.5 198.492
 37.5 197.25 c 37.5 196.008 38.508 195 39.75 195 c 40.992 195 42 196.008
 42 197.25 c h
42 197.25 m S Q
443.25 173.25 m 443.25 174.492 442.242 175.5 441 175.5 c 439.758 175.5 
438.75 174.492 438.75 173.25 c 438.75 172.008 439.758 171 441 171 c 442.242
 171 443.25 172.008 443.25 173.25 c h
443.25 173.25 m f
q 1 0 0 1 0 0 cm
443.25 173.25 m 443.25 174.492 442.242 175.5 441 175.5 c 439.758 175.5 
438.75 174.492 438.75 173.25 c 438.75 172.008 439.758 171 441 171 c 442.242
 171 443.25 172.008 443.25 173.25 c h
443.25 173.25 m S Q
0.403922 0.227451 0.717647 rg
1.5 w
q 1 0 0 1 0 0 cm
39.75 250.5 m 41.25 233.25 l 42 225 l 43.5 230.25 l 45 230.25 l 46.5 225
 l 48 226.5 l 49.5 227.25 l 50.25 226.5 l 51.75 228.75 l 53.25 220.5 l 54.75
 221.25 l 56.25 220.5 l 57 219 l 60 219 l 63 226.5 l 64.5 225 l 65.25 220.5
 l 66.75 219 l 68.25 220.5 l 69.75 220.5 l 71.25 219 l 72.75 225 l 73.5 
226.5 l 75 223.5 l 76.5 225 l 80.25 225 l 81.75 226.5 l 83.25 226.5 l 84.75
 219 l 86.25 225 l 87.75 225 l 88.5 223.5 l 90 222.75 l 91.5 225 l 93 222.75
 l 94.5 225 l 95.25 217.5 l 96.75 217.5 l 98.25 219 l 99.75 217.5 l 101.25
 223.5 l 102.75 226.5 l 103.5 223.5 l 105 225 l 106.5 223.5 l 108 225 l 
109.5 223.5 l 111.75 223.5 l 113.25 225 l 114.75 222.75 l 116.25 225 l 117.75
 225 l 118.5 223.5 l 120 223.5 l 121.5 225 l 123 223.5 l 124.5 225 l 126
 219 l 126.75 220.5 l 128.25 216.75 l 129.75 217.5 l 131.25 225 l 132.75
 226.5 l 133.5 226.5 l 135 223.5 l 136.5 225 l 138 217.5 l 139.5 219 l 141
 217.5 l 141.75 226.5 l 144.75 223.5 l 146.25 223.5 l 147.75 217.5 l 148.5
 225 l 150 226.5 l 153 223.5 l 154.5 222.75 l 156 226.5 l 156.75 225 l 158.25
 223.5 l 161.25 223.5 l 164.25 226.5 l 165 225 l 166.5 223.5 l 168 219 l
 169.5 219 l 171 217.5 l 173.25 217.5 l 174.75 222.75 l 176.25 219 l 177.75
 220.5 l 179.25 215.25 l 180 219 l 181.5 216.75 l 183 217.5 l 184.5 219 
l 186 216.75 l 186.75 217.5 l 188.25 225 l 189.75 223.5 l 191.25 225 l 192.75
 222.75 l 194.25 219 l 195 216.75 l 196.5 219 l 198 217.5 l 199.5 219 l 
201 219 l 202.5 220.5 l 203.25 220.5 l 206.25 217.5 l 207.75 219 l 209.25
 219 l 210 217.5 l 211.5 223.5 l 213 223.5 l 214.5 225 l 216 225 l 217.5
 226.5 l 218.25 223.5 l 219.75 223.5 l 221.25 225 l 222.75 223.5 l 224.25
 223.5 l 225 225 l 226.5 225 l 228 223.5 l 229.5 225 l 231 225 l 232.5 219
 l 234.75 219 l 236.25 220.5 l 239.25 217.5 l 240.75 220.5 l 241.5 219 l
 243 219 l 244.5 217.5 l 247.5 220.5 l 248.25 219 l 251.25 219 l 252.75 
226.5 l 254.25 225 l 255.75 217.5 l 256.5 220.5 l 258 219 l 264.75 219 l
 266.25 220.5 l 269.25 217.5 l 270.75 217.5 l 271.5 219 l 273 226.5 l 274.5
 226.5 l 276 223.5 l 277.5 223.5 l 278.25 222.75 l 279.75 225 l 281.25 223.5
 l 282.75 225 l 284.25 223.5 l 285.75 225 l 286.5 226.5 l 289.5 223.5 l 
291 225 l 292.5 225 l 294 220.5 l 294.75 219 l 296.25 219 l 297.75 217.5
 l 299.25 220.5 l 300.75 217.5 l 301.5 217.5 l 304.5 220.5 l 307.5 217.5
 l 309 231 l 309.75 227.25 l 311.25 226.5 l 312.75 223.5 l 314.25 226.5 
l 315.75 226.5 l 316.5 227.25 l 318 219 l 321 219 l 322.5 217.5 l 324 220.5
 l 324.75 219 l 326.25 217.5 l 329.25 217.5 l 330.75 219 l 332.25 219 l 
333 217.5 l 334.5 217.5 l 336 219 l 339.75 219 l 341.25 217.5 l 349.5 217.5
 l 351 220.5 l 352.5 217.5 l 354 217.5 l 354.75 219 l 359.25 219 l 360.75
 217.5 l 362.25 219 l 363 217.5 l 364.5 217.5 l 366 219 l 367.5 219 l 369
 217.5 l 369.75 220.5 l 371.25 219 l 374.25 219 l 375.75 220.5 l 377.25 
219 l 378 220.5 l 379.5 217.5 l 381 219 l 382.5 223.5 l 385.5 226.5 l 386.25
 225 l 387.75 225 l 389.25 227.25 l 390.75 225 l 392.25 226.5 l 396 226.5
 l 397.5 225 l 399 227.25 l 400.5 226.5 l 401.25 225 l 402.75 225 l 404.25
 223.5 l 405.75 226.5 l 407.25 220.5 l 408 219 l 411 219 l 412.5 220.5 l
 414 217.5 l 415.5 219 l 420.75 219 l 422.25 217.5 l 423.75 220.5 l 424.5
 219 l 426 219 l 427.5 217.5 l 430.5 220.5 l 432.75 220.5 l 434.25 219 l
 438.75 219 l 439.5 217.5 l 441 219 l 442.5 240.75 l S Q
42 250.5 m 42 251.742 40.992 252.75 39.75 252.75 c 38.508 252.75 37.5 251.742
 37.5 250.5 c 37.5 249.258 38.508 248.25 39.75 248.25 c 40.992 248.25 42
 249.258 42 250.5 c h
42 250.5 m f
0.75 w
q 1 0 0 1 0 0 cm
42 250.5 m 42 251.742 40.992 252.75 39.75 252.75 c 38.508 252.75 37.5 251.742
 37.5 250.5 c 37.5 249.258 38.508 248.25 39.75 248.25 c 40.992 248.25 42
 249.258 42 250.5 c h
42 250.5 m S Q
0.137255 0.121569 0.12549 rg
0 276 450 13.5 re f
0.996078 g
371.672 281.531 m 371.672 280.594 371.125 280.078 370.141 280.078 c 368.109
 280.078 l 368.109 285 l 368.734 285 l 368.734 282.922 l 370.281 282.922
 l 371.094 282.922 371.672 282.344 371.672 281.531 c h
371.016 281.5 m 371.016 282.031 370.656 282.359 370.047 282.359 c 368.734
 282.359 l 368.734 280.625 l 370.047 280.625 l 370.656 280.625 371.016 280.953
 371.016 281.5 c h
371.016 281.5 m f
375.289 285 m 375.289 282.328 l 375.289 281.734 374.867 281.359 374.18 
281.359 c 373.68 281.359 373.367 281.516 373.039 281.953 c 373.039 280.078
 l 372.477 280.078 l 372.477 285 l 373.039 285 l 373.039 283.047 l 373.039
 282.328 373.414 281.859 373.992 281.859 c 374.398 281.859 374.727 282.078
 374.727 282.547 c 374.727 285 l h
375.289 285 m f
379.203 283.266 m 379.203 282.031 378.625 281.359 377.609 281.359 c 376.609
 281.359 376.016 282.047 376.016 283.234 c 376.016 284.422 376.609 285.094
 377.609 285.094 c 378.594 285.094 379.203 284.422 379.203 283.266 c h
378.625 283.25 m 378.625 284.078 378.234 284.578 377.609 284.578 c 376.984
 284.578 376.594 284.094 376.594 283.234 c 376.594 282.375 376.984 281.875
 377.609 281.875 c 378.25 281.875 378.625 282.375 378.625 283.25 c h
378.625 283.25 m f
381.695 281.953 m 381.695 281.375 l 381.602 281.375 381.555 281.359 381.477
 281.359 c 381.117 281.359 380.836 281.578 380.508 282.109 c 380.508 281.469
 l 379.992 281.469 l 379.992 285 l 380.555 285 l 380.555 283.156 l 380.555
 282.375 380.82 281.969 381.695 281.953 c h
381.695 281.953 m f
385.176 283.266 m 385.176 282.031 384.598 281.359 383.582 281.359 c 382.582
 281.359 381.988 282.047 381.988 283.234 c 381.988 284.422 382.582 285.094
 383.582 285.094 c 384.566 285.094 385.176 284.422 385.176 283.266 c h
384.598 283.25 m 384.598 284.078 384.207 284.578 383.582 284.578 c 382.957
 284.578 382.566 284.094 382.566 283.234 c 382.566 282.375 382.957 281.875
 383.582 281.875 c 384.223 281.875 384.598 282.375 384.598 283.25 c h
384.598 283.25 m f
388.777 285 m 388.777 282.328 l 388.777 281.734 388.34 281.359 387.668 
281.359 c 387.137 281.359 386.793 281.562 386.496 282.062 c 386.496 281.469
 l 385.965 281.469 l 385.965 285 l 386.527 285 l 386.527 283.047 l 386.527
 282.328 386.918 281.859 387.496 281.859 c 387.934 281.859 388.23 282.125
 388.23 282.547 c 388.23 285 l h
388.777 285 m f
390.281 285 m 390.281 281.469 l 389.719 281.469 l 389.719 285 l h
390.359 280.922 m 390.359 280.234 l 389.656 280.234 l 389.656 280.922 l
 h
390.359 280.922 m f
393.941 285 m 392.723 283.172 l 393.91 281.469 l 393.285 281.469 l 392.426
 282.75 l 391.582 281.469 l 390.941 281.469 l 392.113 283.203 l 390.863 
285 l 391.504 285 l 392.41 283.641 l 393.285 285 l h
393.941 285 m f
400 280.625 m 400 280.078 l 396.141 280.078 l 396.141 280.625 l 397.766
 280.625 l 397.766 285 l 398.391 285 l 398.391 280.625 l h
400 280.625 m f
402.949 283.391 m 402.949 282.875 402.902 282.562 402.809 282.297 c 402.574
 281.719 402.027 281.359 401.371 281.359 c 400.387 281.359 399.746 282.094
 399.746 283.25 c 399.746 284.406 400.371 285.094 401.355 285.094 c 402.168
 285.094 402.73 284.641 402.871 283.922 c 402.309 283.922 l 402.152 284.391
 401.824 284.578 401.371 284.578 c 400.793 284.578 400.355 284.203 400.34
 283.391 c h
402.34 282.891 m 402.34 282.891 402.34 282.922 402.34 282.938 c 400.355
 282.938 l 400.402 282.312 400.793 281.875 401.371 281.875 c 401.918 281.875
 402.34 282.344 402.34 282.891 c h
402.34 282.891 m f
406.332 284 m 406.332 283.484 406.035 283.219 405.332 283.047 c 404.801
 282.922 l 404.332 282.812 404.145 282.672 404.145 282.422 c 404.145 282.094
 404.426 281.875 404.895 281.875 c 405.348 281.875 405.582 282.078 405.598
 282.453 c 406.191 282.453 l 406.191 281.75 405.723 281.359 404.91 281.359
 c 404.082 281.359 403.551 281.781 403.551 282.438 c 403.551 283 403.832
 283.266 404.676 283.469 c 405.207 283.594 l 405.598 283.688 405.754 283.797
 405.754 284.062 c 405.754 284.391 405.426 284.578 404.926 284.578 c 404.426
 284.578 404.129 284.453 404.066 283.922 c 403.473 283.922 l 403.488 284.734
 403.957 285.094 404.879 285.094 c 405.77 285.094 406.332 284.688 406.332
 284 c h
406.332 284 m f
408.293 285 m 408.293 284.531 l 408.215 284.547 408.121 284.547 408.012
 284.547 c 407.777 284.547 407.715 284.484 407.715 284.234 c 407.715 281.922
 l 408.293 281.922 l 408.293 281.469 l 407.715 281.469 l 407.715 280.484
 l 407.152 280.484 l 407.152 281.469 l 406.668 281.469 l 406.668 281.922
 l 407.152 281.922 l 407.152 284.484 l 407.152 284.844 407.387 285.047 407.824
 285.047 c 407.965 285.047 408.105 285.031 408.293 285 c h
408.293 285 m f
414.508 283.656 m 414.508 283.047 414.133 282.594 413.461 282.422 c 412.227
 282.078 l 411.633 281.922 411.414 281.734 411.414 281.359 c 411.414 280.859
 411.852 280.484 412.523 280.484 c 413.305 280.484 413.742 280.844 413.742
 281.484 c 414.336 281.484 l 414.336 280.516 413.68 279.953 412.539 279.953
 c 411.461 279.953 410.789 280.547 410.789 281.438 c 410.789 282.047 411.117
 282.422 411.758 282.594 c 412.977 282.922 l 413.602 283.078 413.883 283.328
 413.883 283.703 c 413.883 284.25 413.477 284.562 412.633 284.562 c 411.695
 284.562 411.242 284.109 411.242 283.406 c 410.648 283.406 l 410.648 284.562
 411.43 285.125 412.586 285.125 c 413.836 285.125 414.508 284.531 414.508
 283.656 c h
414.508 283.656 m f
418.078 285 m 418.078 281.469 l 417.516 281.469 l 417.516 283.406 l 417.516
 284.141 417.141 284.609 416.562 284.609 c 416.109 284.609 415.828 284.344
 415.828 283.906 c 415.828 281.469 l 415.266 281.469 l 415.266 284.141 l
 415.266 284.719 415.703 285.094 416.391 285.094 c 416.906 285.094 417.25
 284.922 417.578 284.453 c 417.578 285 l h
418.078 285 m f
419.617 285 m 419.617 281.469 l 419.055 281.469 l 419.055 285 l h
419.695 280.922 m 419.695 280.234 l 418.992 280.234 l 418.992 280.922 l
 h
419.695 280.922 m f
421.809 285 m 421.809 284.531 l 421.73 284.547 421.637 284.547 421.527 
284.547 c 421.293 284.547 421.23 284.484 421.23 284.234 c 421.23 281.922
 l 421.809 281.922 l 421.809 281.469 l 421.23 281.469 l 421.23 280.484 l
 420.668 280.484 l 420.668 281.469 l 420.184 281.469 l 420.184 281.922 l
 420.668 281.922 l 420.668 284.484 l 420.668 284.844 420.902 285.047 421.34
 285.047 c 421.48 285.047 421.621 285.031 421.809 285 c h
421.809 285 m f
425.324 283.391 m 425.324 282.875 425.277 282.562 425.184 282.297 c 424.949
 281.719 424.402 281.359 423.746 281.359 c 422.762 281.359 422.121 282.094
 422.121 283.25 c 422.121 284.406 422.746 285.094 423.73 285.094 c 424.543
 285.094 425.105 284.641 425.246 283.922 c 424.684 283.922 l 424.527 284.391
 424.199 284.578 423.746 284.578 c 423.168 284.578 422.73 284.203 422.715
 283.391 c h
424.715 282.891 m 424.715 282.891 424.715 282.922 424.715 282.938 c 422.73
 282.938 l 422.777 282.312 423.168 281.875 423.746 281.875 c 424.293 281.875
 424.715 282.344 424.715 282.891 c h
424.715 282.891 m f
431 280.812 m 431 280.312 l 427.797 280.312 l 427.797 280.906 l 430.375
 280.906 l 429.422 282.109 428.75 283.5 428.422 285 c 429.047 285 l 429.312
 283.453 429.984 282.016 431 280.812 c h
431 280.812 m f
431.836 284.297 0.703 0.703 re f
436.582 283.656 m 436.582 283.109 436.301 282.75 435.754 282.484 c 436.238
 282.188 436.41 281.938 436.41 281.484 c 436.41 280.734 435.816 280.219 
434.973 280.219 c 434.129 280.219 433.535 280.734 433.535 281.484 c 433.535
 281.938 433.691 282.172 434.176 282.484 c 433.629 282.75 433.363 283.109
 433.363 283.641 c 433.363 284.516 434.02 285.094 434.973 285.094 c 435.91
 285.094 436.582 284.516 436.582 283.656 c h
435.801 281.5 m 435.801 281.953 435.473 282.25 434.973 282.25 c 434.473
 282.25 434.145 281.953 434.145 281.5 c 434.145 281.031 434.473 280.734 
434.973 280.734 c 435.473 280.734 435.801 281.031 435.801 281.5 c h
435.973 283.656 m 435.973 284.219 435.566 284.578 434.957 284.578 c 434.379
 284.578 433.973 284.219 433.973 283.656 c 433.973 283.094 434.379 282.75
 434.973 282.75 c 435.566 282.75 435.973 283.094 435.973 283.656 c h
435.973 283.656 m f
437.465 284.297 0.703 0.703 re f
442.164 282.703 m 442.164 281.031 441.633 280.219 440.602 280.219 c 439.57
 280.219 439.039 281.047 439.039 282.656 c 439.039 284.266 439.57 285.094
 440.602 285.094 c 441.617 285.094 442.164 284.266 442.164 282.703 c h
441.555 282.641 m 441.555 284 441.242 284.609 440.586 284.609 c 439.961
 284.609 439.633 283.969 439.633 282.672 c 439.633 281.359 439.961 280.734
 440.602 280.734 c 441.242 280.734 441.555 281.359 441.555 282.641 c h
441.555 282.641 m f
0.0117647 0.545098 0.721569 rg
6.75 276.75 m 6.75 281.625 l 3 285 l 5.25 282.75 l 3 280.125 l 6.75 276.75
 l f
0.145098 0.701961 0.909804 rg
6.75 276.75 m 6.75 281.625 l 10.5 285 l 8.25 282.75 l 10.5 280.125 l 6.75
 276.75 l f
0.894118 0.956863 0.992157 rg
6.75 288.75 m 6.75 283.5 l 10.5 280.125 l 10.5 285 l 6.75 288.75 l f
0.396078 0.796078 0.956863 rg
6.75 288.75 m 6.75 283.5 l 3 280.125 l 3 285 l 6.75 288.75 l f
Q Q
showpage
%%Trailer
end
%%EOF
