%!PS-Adobe-3.0 EPSF-3.0
%%Creator: cairo 1.15.6 (http://cairographics.org)
%%CreationDate: Wed Jun 13 13:56:58 2018
%%Pages: 1
%%DocumentData: Clean7Bit
%%LanguageLevel: 2
%%BoundingBox: 27 27 205 82
%%EndComments
%%BeginProlog
save
50 dict begin
/q { gsave } bind def
/Q { grestore } bind def
/cm { 6 array astore concat } bind def
/w { setlinewidth } bind def
/J { setlinecap } bind def
/j { setlinejoin } bind def
/M { setmiterlimit } bind def
/d { setdash } bind def
/m { moveto } bind def
/l { lineto } bind def
/c { curveto } bind def
/h { closepath } bind def
/re { exch dup neg 3 1 roll 5 3 roll moveto 0 rlineto
      0 exch rlineto 0 rlineto closepath } bind def
/S { stroke } bind def
/f { fill } bind def
/f* { eofill } bind def
/n { newpath } bind def
/W { clip } bind def
/W* { eoclip } bind def
/BT { } bind def
/ET { } bind def
/pdfmark where { pop globaldict /?pdfmark /exec load put }
    { globaldict begin /?pdfmark /pop load def /pdfmark
    /cleartomark load def end } ifelse
/BDC { mark 3 1 roll /BDC pdfmark } bind def
/EMC { mark /EMC pdfmark } bind def
/cairo_store_point { /cairo_point_y exch def /cairo_point_x exch def } def
/Tj { show currentpoint cairo_store_point } bind def
/TJ {
  {
    dup
    type /stringtype eq
    { show } { -0.001 mul 0 cairo_font_matrix dtransform rmoveto } ifelse
  } forall
  currentpoint cairo_store_point
} bind def
/cairo_selectfont { cairo_font_matrix aload pop pop pop 0 0 6 array astore
    cairo_font exch selectfont cairo_point_x cairo_point_y moveto } bind def
/Tf { pop /cairo_font exch def /cairo_font_matrix where
      { pop cairo_selectfont } if } bind def
/Td { matrix translate cairo_font_matrix matrix concatmatrix dup
      /cairo_font_matrix exch def dup 4 get exch 5 get cairo_store_point
      /cairo_font where { pop cairo_selectfont } if } bind def
/Tm { 2 copy 8 2 roll 6 array astore /cairo_font_matrix exch def
      cairo_store_point /cairo_font where { pop cairo_selectfont } if } bind def
/g { setgray } bind def
/rg { setrgbcolor } bind def
/d1 { setcachedevice } bind def
/cairo_flush_ascii85_file { cairo_ascii85_file status { cairo_ascii85_file flushfile } if } def
/cairo_image { image cairo_flush_ascii85_file } def
/cairo_imagemask { imagemask cairo_flush_ascii85_file } def
%%EndProlog
%%BeginSetup
%%EndSetup
%%Page: 1 1
%%BeginPageSetup
%%PageBoundingBox: 27 27 205 82
%%EndPageSetup
q 27 27 178 55 rectclip
1 0 0 -1 0 109 cm q
0 0.568627 0.741176 rg
67.051 28.426 m 78.977 28.426 l 78.977 79.5 l 67.051 79.5 l 67.051 74.176
 l 61.801 80.25 55.426 81.074 51.75 81.074 c 36 81.074 27 67.949 27 53.926
 c 27 37.273 38.398 27.074 51.898 27.074 c 55.648 27.074 62.25 28.051 67.051
 34.352 c h
39.227 54.227 m 39.227 63 44.773 70.5 53.398 70.5 c 60.898 70.5 67.875 
65.023 67.875 54.375 c 67.875 43.199 60.977 37.875 53.398 37.875 c 44.773
 37.801 39.227 45.148 39.227 54.227 c h
93.148 28.426 m 105.074 28.426 l 105.074 33 l 106.426 31.426 108.375 29.699
 110.023 28.727 c 112.352 27.375 114.602 27 117.301 27 c 120.227 27 123.375
 27.449 126.676 29.398 c 121.801 40.199 l 119.102 38.477 116.926 38.398 
115.727 38.398 c 113.176 38.398 110.625 38.773 108.301 41.176 c 105 44.699
 105 49.574 105 52.949 c 105 79.5 l 93.074 79.5 l h
134.324 28.426 m 146.25 28.426 l 146.25 33.148 l 150.227 28.273 154.949
 27.074 158.852 27.074 c 164.176 27.074 169.199 29.625 172.051 34.574 c 
176.324 28.5 182.699 27.074 187.199 27.074 c 193.426 27.074 198.824 30 201.75
 35.102 c 202.727 36.824 204.449 40.574 204.449 48 c 204.449 79.574 l 192.523
 79.574 l 192.523 51.523 l 192.523 45.824 191.926 43.5 191.398 42.449 c 
190.648 40.5 188.852 37.949 184.574 37.949 c 181.648 37.949 179.102 39.523
 177.523 41.699 c 175.426 44.625 175.199 48.977 175.199 53.324 c 175.199
 79.648 l 163.273 79.648 l 163.273 51.523 l 163.273 45.824 162.676 43.5 
162.148 42.449 c 161.398 40.5 159.602 37.949 155.324 37.949 c 152.398 37.949
 149.852 39.523 148.273 41.699 c 146.176 44.625 145.949 48.977 145.949 53.324
 c 145.949 79.648 l 134.324 79.648 l h
134.324 28.426 m f
Q Q
showpage
%%Trailer
end restore
%%EOF
