%!PS-Adobe-3.0 EPSF-3.0
%%Creator: cairo 1.15.6 (http://cairographics.org)
%%CreationDate: Wed Jun 13 13:54:53 2018
%%Pages: 1
%%DocumentData: Clean7Bit
%%LanguageLevel: 2
%%BoundingBox: 0 0 288 561
%%EndComments
%%BeginProlog
save
50 dict begin
/q { gsave } bind def
/Q { grestore } bind def
/cm { 6 array astore concat } bind def
/w { setlinewidth } bind def
/J { setlinecap } bind def
/j { setlinejoin } bind def
/M { setmiterlimit } bind def
/d { setdash } bind def
/m { moveto } bind def
/l { lineto } bind def
/c { curveto } bind def
/h { closepath } bind def
/re { exch dup neg 3 1 roll 5 3 roll moveto 0 rlineto
      0 exch rlineto 0 rlineto closepath } bind def
/S { stroke } bind def
/f { fill } bind def
/f* { eofill } bind def
/n { newpath } bind def
/W { clip } bind def
/W* { eoclip } bind def
/BT { } bind def
/ET { } bind def
/pdfmark where { pop globaldict /?pdfmark /exec load put }
    { globaldict begin /?pdfmark /pop load def /pdfmark
    /cleartomark load def end } ifelse
/BDC { mark 3 1 roll /BDC pdfmark } bind def
/EMC { mark /EMC pdfmark } bind def
/cairo_store_point { /cairo_point_y exch def /cairo_point_x exch def } def
/Tj { show currentpoint cairo_store_point } bind def
/TJ {
  {
    dup
    type /stringtype eq
    { show } { -0.001 mul 0 cairo_font_matrix dtransform rmoveto } ifelse
  } forall
  currentpoint cairo_store_point
} bind def
/cairo_selectfont { cairo_font_matrix aload pop pop pop 0 0 6 array astore
    cairo_font exch selectfont cairo_point_x cairo_point_y moveto } bind def
/Tf { pop /cairo_font exch def /cairo_font_matrix where
      { pop cairo_selectfont } if } bind def
/Td { matrix translate cairo_font_matrix matrix concatmatrix dup
      /cairo_font_matrix exch def dup 4 get exch 5 get cairo_store_point
      /cairo_font where { pop cairo_selectfont } if } bind def
/Tm { 2 copy 8 2 roll 6 array astore /cairo_font_matrix exch def
      cairo_store_point /cairo_font where { pop cairo_selectfont } if } bind def
/g { setgray } bind def
/rg { setrgbcolor } bind def
/d1 { setcachedevice } bind def
/cairo_flush_ascii85_file { cairo_ascii85_file status { cairo_ascii85_file flushfile } if } def
/cairo_image { image cairo_flush_ascii85_file } def
/cairo_imagemask { imagemask cairo_flush_ascii85_file } def
%%EndProlog
%%BeginSetup
%%EndSetup
%%Page: 1 1
%%BeginPageSetup
%%PageBoundingBox: 0 0 288 561
%%EndPageSetup
q 0 0 288 561 rectclip
1 0 0 -1 0 561 cm q
1 0.588235 0 rg
158.965 460.461 m 158.965 465.805 155.707 470.137 151.688 470.137 c 147.672
 470.137 144.414 465.805 144.414 460.461 c 144.414 455.117 147.672 450.785
 151.688 450.785 c 155.707 450.785 158.965 455.117 158.965 460.461 c h
158.965 460.461 m f
284.289 61.613 m 238.539 41.586 192.938 21.262 147.488 0.785 c 145.387 
-0.262 142.914 -0.262 140.887 0.785 c 95.063 21.113 49.313 41.438 3.563 
61.688 c 1.238 62.285 -0.262 64.535 0.039 66.863 c 0.34 98.063 0.039 129.262
 0.34 160.387 c 0.488 199.988 12.414 238.535 34.465 271.238 c 34.465 271.91
 34.387 272.586 34.387 273.113 c 33.789 280.313 38.59 292.688 44.59 288.035
 c 45.262 287.512 45.789 287.285 46.238 287.137 c 47.137 288.262 48.039 
289.313 48.938 290.363 c 49.465 293.738 49.012 298.836 49.09 301.688 c 49.164
 306.938 49.914 320.512 60.34 315.262 c 63.188 313.836 65.215 311.512 66.715
 308.887 c 67.465 309.563 68.137 310.238 68.887 310.836 c 68.965 311.813
 69.188 312.785 69.488 313.91 c 71.438 321.262 70.313 374.66 70.313 374.66
 c 70.313 374.66 71.59 386.438 79.465 386.438 c 87.34 386.438 87.938 374.66
 87.938 374.66 c 87.938 338.738 l 87.938 338.738 89.59 332.137 97.613 334.16
 c 105.637 336.188 105.637 344.285 105.637 344.285 c 105.637 424.988 l 105.637
 424.988 106.613 433.313 114.113 433.313 c 120.938 433.313 121.988 423.711
 121.988 423.711 c 126.113 345.336 l 129.789 346.688 133.539 347.961 137.363
 349.086 c 139.313 349.688 141.414 350.063 143.438 350.063 c 143.738 392.586
 l 143.738 392.586 144.637 412.461 154.539 412.086 c 164.289 411.711 164.363
 391.238 164.363 391.238 c 164.363 359.887 l 164.363 359.887 166.238 350.137
 172.09 350.137 c 177.938 350.137 179.438 358.16 179.438 362.512 c 179.438
 366.863 180.188 378.113 180.488 380.887 c 180.789 383.66 184.09 389.063
 189.488 389.137 c 194.813 389.211 198.113 381.113 198.113 378.262 c 198.113
 375.41 198.715 340.762 198.715 340.762 c 198.715 340.762 198.113 327.637
 206.363 326.813 c 216.789 325.688 214.387 333.188 215.887 335.363 c 217.387
 337.535 219.637 337.988 222.262 338.137 c 224.887 338.285 229.988 334.988
 230.512 328.461 c 230.813 324.336 231.563 309.113 232.012 298.613 c 236.215
 294.113 240.262 289.313 244.012 284.363 c 272.512 248.512 287.965 204.035
 287.813 158.285 c 287.813 117.863 l 287.664 101.063 287.664 84.188 287.887
 67.387 c 288.188 64.91 286.688 62.512 284.289 61.613 c h
263.063 85.91 m 263.063 161.285 l 263.215 186.035 257.738 210.336 247.465
 232.535 c 234.863 262.91 217.84 287.66 212.813 287.813 c 210.34 287.887
 209.363 290.063 208.012 293.363 c 206.512 296.961 204.863 301.988 202.914
 303.035 c 199.914 304.688 198.789 304.313 195.414 304.613 c 189.715 305.137
 190.914 320.512 189.488 324.637 c 189.039 325.91 187.465 329.512 184.387
 330.262 c 182.965 330.637 181.012 330.035 179.289 328.613 c 176.063 326.063
 177.563 318.938 173.063 315.785 c 165.262 310.238 160.613 321.035 160.613
 321.035 c 160.613 332.738 l 160.613 332.738 160.313 341.512 155.664 339.785
 c 151.012 338.137 151.762 328.16 151.762 328.16 c 151.762 318.785 l 151.012
 319.012 150.262 319.238 149.438 319.535 c 145.84 320.66 141.938 320.66 
138.34 319.535 c 134.137 318.262 130.012 316.836 126.039 315.188 c 125.664
 318.262 125.063 322.012 124.09 322.762 c 122.215 324.113 119.215 324.637
 116.215 322.613 c 113.438 320.738 111.938 314.063 111.637 309.488 c 111.637
 309.113 111.637 308.813 111.563 308.512 c 90.414 297.41 71.965 281.438 
57.938 261.711 c 36.563 233.211 25.012 198.563 24.789 163.012 c 24.488 137.137
 24.789 111.336 24.789 85.461 c 24.563 83.512 25.762 81.711 27.637 81.188
 c 65.438 64.461 103.313 47.586 141.188 30.637 c 142.914 29.738 144.938 
29.738 146.664 30.637 c 184.465 47.586 222.262 64.387 260.063 81.035 c 262.164
 81.785 263.363 83.813 263.063 85.91 c h
263.063 85.91 m f
146.363 53.211 m 144.938 52.461 143.215 52.461 141.715 53.211 c 109.688
 67.461 77.813 81.637 45.863 95.813 c 44.363 96.336 43.387 97.762 43.465
 99.336 c 43.465 164.813 l 43.539 171.938 44.063 179.137 45.188 186.188 
c 46.313 193.16 47.887 199.988 49.988 206.738 c 201.863 77.961 l h
146.363 53.211 m f
242.063 95.738 m 224.289 87.863 l 58.84 227.961 l 60.563 231.262 62.363
 234.563 64.313 237.711 c 64.313 254.738 l 64.313 254.738 63.488 260.961
 68.215 262.012 c 72.863 263.063 73.164 257.586 73.164 257.586 c 73.164 
250.387 l 75.715 253.688 78.414 256.91 81.262 259.988 c 213.488 148.086 
l 213.488 152.66 l 213.488 152.66 212.664 158.887 217.387 159.938 c 222.039
 160.988 222.34 155.512 222.34 155.512 c 222.34 140.586 l 229.539 134.512
 l 230.137 135.563 231.039 136.461 232.539 136.762 c 237.188 137.813 237.488
 132.336 237.488 132.336 c 237.488 127.688 l 244.539 121.688 l 244.539 99.711
 l 244.84 97.988 243.789 96.262 242.063 95.738 c h
242.063 95.738 m f
244.613 150.711 m 97.539 275.285 l 100.09 277.313 102.789 279.188 105.488
 281.063 c 105.563 281.285 105.715 281.586 105.789 281.887 c 106.84 284.738
 111.637 290.586 115.238 288.188 c 117.039 286.988 120.039 291.113 120.039
 293.285 c 120.039 295.461 121.762 298.387 125.512 298.387 c 128.289 298.387
 129.938 296.363 130.84 294.113 c 133.613 295.16 136.387 296.063 139.164
 296.887 c 142.238 297.863 145.465 297.863 148.539 296.887 c 157.09 294.336
 165.34 290.887 173.063 286.688 c 173.063 299.66 l 173.063 299.66 174.938
 304.613 179.215 304.613 c 182.965 304.613 184.688 301.461 185.215 298.313
 c 185.738 295.238 186.34 281.438 188.813 279.41 c 191.289 277.313 192.488
 284.512 200.289 284.586 c 206.438 284.66 207.34 270.785 212.664 258.863
 c 214.688 254.363 224.289 236.586 224.289 236.586 c 237.563 214.613 244.613
 189.262 244.539 163.313 c 244.613 159.188 244.613 154.91 244.613 150.711
 c h
244.613 150.711 m f
42.141 559.035 m 32.016 559.035 l 31.641 540.211 l 31.492 535.859 31.418
 531.66 31.418 527.535 c 31.418 524.684 31.418 522.508 31.492 521.16 c 26.242
 554.008 l 16.191 554.008 l 10.641 521.086 l 10.719 523.633 10.793 527.234
 10.793 531.809 c 10.793 535.484 10.793 538.336 10.719 540.359 c 10.344 
559.109 l 0.293 559.109 l 3.141 511.559 l 16.266 511.559 l 21.293 544.035
 l 25.793 511.559 l 39.293 511.559 l h
42.141 559.035 m f
72.293 511.484 m 71.168 519.133 l 57.969 519.133 l 57.969 531.059 l 69.594
 531.059 l 69.594 538.633 l 57.969 538.633 l 57.969 551.16 l 72.066 551.16
 l 72.066 558.961 l 47.168 558.961 l 47.168 511.41 l h
72.293 511.484 m f
87.516 511.484 m 87.516 550.484 l 102.516 550.484 l 101.391 558.961 l 76.793
 558.961 l 76.793 511.41 l 87.516 511.41 l h
87.516 511.484 m f
127.418 511.484 m 126.293 519.734 l 117.141 519.734 l 117.141 559.035 l
 106.344 559.035 l 106.344 519.734 l 96.668 519.734 l 96.668 511.484 l h
127.418 511.484 m f
142.344 511.484 m 146.469 511.484 149.992 512.086 152.918 513.359 c 155.918
 514.559 158.316 516.883 160.117 520.336 c 161.992 523.785 162.891 528.66
 162.891 535.035 c 162.891 543.961 161.094 550.184 157.492 553.785 c 153.891
 557.309 149.094 559.035 143.094 559.035 c 130.344 559.035 l 130.344 511.484
 l h
141.141 519.211 m 141.141 551.16 l 143.766 551.16 l 145.566 551.16 147.066
 550.711 148.191 549.809 c 149.391 548.836 150.293 547.184 150.969 544.859
 c 151.641 542.461 151.941 539.16 151.941 534.961 c 151.941 530.684 151.566
 527.461 150.891 525.133 c 150.219 522.883 149.316 521.309 148.117 520.484
 c 146.992 519.586 145.492 519.211 143.691 519.211 c h
141.141 519.211 m f
184.719 510.285 m 190.566 510.285 194.992 512.383 198.066 516.508 c 201.141
 520.633 202.719 526.859 202.719 535.184 c 202.719 543.434 201.141 549.66
 198.066 553.859 c 194.992 558.059 190.492 560.16 184.719 560.16 c 178.941
 560.16 174.441 558.133 171.367 554.008 c 168.293 549.883 166.793 543.586
 166.793 535.184 c 166.793 526.934 168.293 520.785 171.367 516.586 c 174.441
 512.461 178.941 510.285 184.719 510.285 c h
184.719 518.234 m 182.316 518.234 180.594 519.508 179.543 522.133 c 178.492
 524.684 177.969 529.035 177.969 535.258 c 177.969 539.535 178.191 542.91
 178.641 545.383 c 179.168 547.859 179.844 549.66 180.816 550.711 c 181.793
 551.758 183.141 552.285 184.719 552.285 c 186.367 552.285 187.641 551.758
 188.617 550.711 c 189.594 549.66 190.344 547.934 190.793 545.461 c 191.316
 542.91 191.543 539.535 191.543 535.258 c 191.543 529.035 191.016 524.684
 189.891 522.059 c 188.918 519.508 187.117 518.234 184.719 518.234 c h
184.719 518.234 m f
252.891 511.484 m 246.891 559.035 l 232.867 559.035 l 228.969 522.211 l
 224.617 559.035 l 210.891 559.035 l 205.117 511.484 l 215.391 511.484 l
 218.844 550.785 l 223.492 511.484 l 234.594 511.484 l 239.016 550.785 l
 242.992 511.484 l h
252.891 511.484 m f
287.844 559.035 m 274.566 559.035 l 264.516 521.383 l 264.969 525.359 265.344
 528.734 265.566 531.359 c 265.793 533.984 265.941 537.211 265.941 541.035
 c 265.941 559.035 l 256.719 559.035 l 256.719 511.484 l 269.992 511.484
 l 279.969 549.133 l 278.992 542.836 278.543 536.91 278.543 531.359 c 278.543
 511.484 l 287.844 511.484 l h
287.844 559.035 m f
Q Q
showpage
%%Trailer
end restore
%%EOF
