%!PS-Adobe-3.0 EPSF-3.0
%%Creator: cairo 1.15.6 (http://cairographics.org)
%%CreationDate: Wed Jun 13 13:56:21 2018
%%Pages: 1
%%DocumentData: Clean7Bit
%%LanguageLevel: 2
%%BoundingBox: 0 0 527 627
%%EndComments
%%BeginProlog
save
50 dict begin
/q { gsave } bind def
/Q { grestore } bind def
/cm { 6 array astore concat } bind def
/w { setlinewidth } bind def
/J { setlinecap } bind def
/j { setlinejoin } bind def
/M { setmiterlimit } bind def
/d { setdash } bind def
/m { moveto } bind def
/l { lineto } bind def
/c { curveto } bind def
/h { closepath } bind def
/re { exch dup neg 3 1 roll 5 3 roll moveto 0 rlineto
      0 exch rlineto 0 rlineto closepath } bind def
/S { stroke } bind def
/f { fill } bind def
/f* { eofill } bind def
/n { newpath } bind def
/W { clip } bind def
/W* { eoclip } bind def
/BT { } bind def
/ET { } bind def
/pdfmark where { pop globaldict /?pdfmark /exec load put }
    { globaldict begin /?pdfmark /pop load def /pdfmark
    /cleartomark load def end } ifelse
/BDC { mark 3 1 roll /BDC pdfmark } bind def
/EMC { mark /EMC pdfmark } bind def
/cairo_store_point { /cairo_point_y exch def /cairo_point_x exch def } def
/Tj { show currentpoint cairo_store_point } bind def
/TJ {
  {
    dup
    type /stringtype eq
    { show } { -0.001 mul 0 cairo_font_matrix dtransform rmoveto } ifelse
  } forall
  currentpoint cairo_store_point
} bind def
/cairo_selectfont { cairo_font_matrix aload pop pop pop 0 0 6 array astore
    cairo_font exch selectfont cairo_point_x cairo_point_y moveto } bind def
/Tf { pop /cairo_font exch def /cairo_font_matrix where
      { pop cairo_selectfont } if } bind def
/Td { matrix translate cairo_font_matrix matrix concatmatrix dup
      /cairo_font_matrix exch def dup 4 get exch 5 get cairo_store_point
      /cairo_font where { pop cairo_selectfont } if } bind def
/Tm { 2 copy 8 2 roll 6 array astore /cairo_font_matrix exch def
      cairo_store_point /cairo_font where { pop cairo_selectfont } if } bind def
/g { setgray } bind def
/rg { setrgbcolor } bind def
/d1 { setcachedevice } bind def
/cairo_flush_ascii85_file { cairo_ascii85_file status { cairo_ascii85_file flushfile } if } def
/cairo_image { image cairo_flush_ascii85_file } def
/cairo_imagemask { imagemask cairo_flush_ascii85_file } def
%%EndProlog
%%BeginSetup
%%EndSetup
%%Page: 1 1
%%BeginPageSetup
%%PageBoundingBox: 0 0 527 627
%%EndPageSetup
q 0 0 527 627 rectclip
1 0 0 -1 0 627 cm q
0.0235294 0.698039 0.980392 rg
207.629 1.293 m 238.902 -3.207 271.453 4.145 298.453 21.395 c 321.703 36.094
 340.828 57.918 353.504 83.27 c 364.977 106.07 371.203 131.719 371.801 157.52
 c 371.879 158.945 372.102 160.367 372.102 161.719 c 372.102 327.168 l 372.102
 328.82 372.027 330.469 372.254 332.117 c 372.629 335.043 372.254 337.969
 372.852 340.895 c 373.676 344.867 374.727 348.918 376.676 352.445 c 382.078
 363.094 392.426 370.293 403.379 372.695 c 405.629 373.219 408.254 373.145
 409.977 375.094 c 412.676 377.719 412.379 382.969 409.301 385.145 c 407.801
 386.043 406.902 387.77 405.703 389.043 c 396.176 400.367 382.078 406.895
 367.902 407.492 c 351.852 408.543 335.426 402.02 324.402 389.492 c 322.602
 392.57 320.652 395.57 318.176 398.27 c 315.777 401.117 312.852 403.293 
310.004 405.395 c 307.754 406.52 305.652 408.02 303.254 408.918 c 296.652
 411.844 289.301 412.445 282.254 411.695 c 272.129 410.344 262.754 404.945
 255.926 396.918 c 248.277 409.219 234.629 417.02 220.676 416.719 c 216.703
 416.945 212.801 415.895 209.051 415.07 c 199.977 412.293 191.879 406.145
 186.402 398.043 c 180.551 406.219 171.852 411.844 162.477 414.094 c 155.203
 415.742 147.477 415.52 140.352 413.043 c 134.652 411.168 129.477 407.945
 125.051 403.742 c 123.551 402.469 122.426 400.668 120.926 399.32 c 111.777
 407.867 99.777 412.969 87.551 413.645 c 73.754 414.617 59.578 410.195 48.852
 400.82 c 45.629 398.117 42.852 394.969 40.301 391.52 c 39.328 390.168 39.102
 388.445 38.129 387.02 c 36.254 384.168 37.152 379.969 39.852 378.094 c 
41.652 376.668 44.051 376.969 46.152 376.668 c 54.102 375.543 61.754 371.945
 67.828 366.469 c 75.027 359.945 79.977 350.195 80.051 340.07 c 80.426 330.543
 80.129 321.02 80.203 311.492 c 80.203 162.242 l 80.352 160.145 79.828 157.969
 79.902 155.867 c 80.727 133.145 85.828 110.57 95.051 90.02 c 105.328 67.07
 120.703 46.668 139.754 31.293 c 159.629 15.242 183.102 4.668 207.629 1.293
 c 218.426 13.445 m 199.227 14.645 180.328 20.645 163.527 30.543 c 147.477
 39.992 133.301 53.117 122.129 68.57 c 104.652 92.492 94.453 122.195 92.801
 152.418 c 93.027 158.645 92.879 164.945 92.953 171.168 c 92.953 282.844
 l 92.879 302.043 93.102 321.242 92.879 340.367 c 92.578 349.145 90.027 
357.77 85.453 365.117 c 78.477 376.742 66.926 384.844 54.477 388.293 c 58.453
 392.117 63.027 395.195 68.051 397.219 c 74.578 399.992 81.777 400.742 88.754
 400.145 c 98.352 399.32 107.652 394.895 114.551 387.77 c 115.754 386.719
 115.602 384.844 116.652 383.645 c 118.527 381.02 122.426 380.344 124.977
 382.219 c 126.551 383.27 127.301 385.219 128.277 386.793 c 129.629 388.895
 131.129 390.918 132.777 392.719 c 136.676 396.992 141.852 399.77 147.328
 401.043 c 150.176 401.719 153.102 401.645 155.953 401.57 c 166.602 400.895
 176.504 393.543 180.703 383.117 c 182.352 378.32 189.176 377.043 192.254
 380.867 c 193.527 382.367 193.828 384.469 194.801 386.27 c 198.477 393.844
 205.078 399.695 212.727 402.094 c 215.879 402.844 219.102 403.52 222.328
 403.293 c 232.828 403.07 242.953 396.395 247.602 386.418 c 248.801 384.32
 249.102 381.695 250.602 379.742 c 252.629 377.043 256.828 376.668 259.301
 378.844 c 260.578 379.82 261.027 381.543 262.004 382.742 c 263.051 384.094
 263.879 385.594 264.926 386.945 c 270.629 394.219 279.328 398.945 288.328
 398.57 c 293.051 398.645 297.926 397.52 302.051 394.969 c 306.402 392.492
 310.301 388.895 313.078 384.469 c 314.426 382.367 315.102 379.895 316.301
 377.719 c 317.129 376.445 316.754 374.719 317.504 373.445 c 318.777 370.52
 322.152 369.02 325.004 370.145 c 327.328 370.895 328.602 373.219 330.102
 375.168 c 332.652 379.445 336.102 383.117 340.004 386.117 c 352.828 395.867
 370.676 397.145 384.852 389.945 c 388.152 388.293 391.152 385.969 394.078
 383.57 c 386.352 380.645 379.379 375.844 373.602 369.695 c 368.578 364.145
 364.602 357.32 362.578 349.895 c 361.152 345.395 360.777 340.594 360.328
 335.867 c 360.328 165.77 l 360.328 164.344 360.027 162.918 360.027 161.492
 c 359.953 147.395 358.152 133.293 354.477 119.719 c 346.754 90.395 330.402
 63.617 308.129 44.344 c 297.777 35.57 286.227 28.07 273.852 23.117 c 256.004
 15.469 237.102 12.242 218.426 13.445 c h
218.426 13.445 m f
281.801 157.367 m 274.676 159.844 266.801 160.219 259.453 158.195 c 250.754
 155.867 242.953 150.395 237.926 142.895 c 233.203 135.992 230.879 127.52
 231.402 119.195 c 231.852 110.945 235.152 102.844 240.629 96.543 c 241.004
 96.094 241.527 95.867 242.051 95.719 c 254.578 92.27 267.102 88.742 279.629
 85.219 c 280.602 84.918 281.578 85.52 282.551 85.82 c 291.551 89.117 299.129
 95.945 303.328 104.492 c 306.477 110.867 307.828 118.145 307.078 125.195
 c 306.254 133.52 302.504 141.617 296.652 147.695 c 292.602 152.117 287.426
 155.418 281.801 157.367 c h
281.801 157.367 m f
175.902 159.242 m 167.203 158.344 158.953 154.367 152.801 148.07 c 143.652
 138.844 139.754 124.742 143.129 112.145 c 146.203 99.617 156.176 88.969
 168.551 85.293 c 181.379 88.52 194.129 92.117 206.953 95.492 c 208.152 
95.645 208.828 96.77 209.504 97.594 c 213.176 102.168 215.801 107.492 217.004
 113.27 c 218.801 120.992 217.977 129.395 214.754 136.668 c 211.602 144.02
 206.051 150.242 199.152 154.219 c 192.254 158.344 183.926 160.145 175.902
 159.242 c h
175.902 159.242 m f
10.85505 w
1 J
0 j
[] 0.0 d
10 M q 1 0 0 1 0 0 cm
162.852 193.594 m 162.852 193.594 221.352 220.742 285.254 193.594 c S Q
1 j
q 1 0 0 1 0 0 cm
62.727 256.293 m 62.727 256.293 39.777 242.418 19.754 264.094 c 8.426 279.543
 5.426 296.793 5.426 296.793 c 23.051 286.367 l 25.977 306.094 l 39.703 
294.844 l 47.504 310.668 l 47.504 310.668 54.777 285.094 61.754 286.895 
c 68.801 288.617 73.227 265.445 62.727 256.293 c h
62.727 256.293 m S Q
q 1 0 0 1 0 0 cm
436.453 226.594 m 436.453 226.594 424.527 201.02 405.551 203.492 c 386.504
 206.043 398.504 217.969 398.504 217.969 c 398.504 217.969 379.902 222.469
 391.152 233.418 c 391.152 233.418 378.402 237.395 387.477 246.695 c 396.551
 255.992 401.879 264.168 418.227 261.844 c 418.152 261.918 445.152 255.695
 436.453 226.594 c h
436.453 226.594 m S Q
507.328 104.418 m 513.926 87.32 524.504 64.594 524.578 64.367 c 525.629
 62.043 524.652 59.344 522.328 58.293 c 520.004 57.242 517.301 58.219 516.254
 60.543 c 516.176 60.695 511.078 71.645 505.754 84.094 c 498.027 68.945 
l 496.902 66.695 494.129 65.793 491.879 66.918 c 489.629 68.043 488.727 
70.82 489.852 73.07 c 500.879 94.668 l 500.953 94.82 501.027 94.969 501.176
 95.117 c 500.352 97.145 499.527 99.168 498.777 101.117 c 494.051 113.344
 492.852 121.145 492.629 125.645 c 467.953 154.145 l 464.652 134.719 l 464.203
 132.242 461.801 130.52 459.328 130.969 c 456.852 131.418 455.129 133.742
 455.578 136.293 c 460.152 163.145 l 422.801 206.344 l 421.977 207.32 421.602
 208.52 421.676 209.793 c 421.828 211.07 422.426 212.195 423.402 212.945
 c 428.426 216.918 l 429.402 217.668 430.602 218.043 431.801 217.895 c 433.004
 217.742 434.129 217.145 434.879 216.168 c 499.453 133.445 l 523.977 121.219
 l 526.227 120.094 527.203 117.32 526.078 115.07 c 524.953 112.82 522.176
 111.844 519.926 112.969 c 502.902 121.445 l 502.379 121.07 l 503.051 117.242
 504.477 111.77 507.328 104.418 c h
507.328 104.418 m f
391.227 250.668 m 383.129 261.844 l 382.301 262.82 381.926 264.02 382.004
 265.293 c 382.152 266.57 382.754 267.695 383.727 268.445 c 388.754 272.418
 l 389.727 273.168 390.926 273.543 392.129 273.395 c 393.328 273.242 394.453
 272.645 395.203 271.668 c 405.551 258.469 l 396.852 258.469 l h
391.227 250.668 m f
62.324 505.512 m 69.773 506.551 l 75.664 510.016 l 79.301 516.945 l 80.863
 532.539 l 73.238 533.402 l 69.945 532.539 l 67.695 529.594 l 65.961 521.102
 l 55.738 521.102 l 54.875 537.215 l 55.395 540.508 l 56.953 544.32 l 60.418
 549.863 l 65.617 554.543 l 68.387 558.352 l 71.68 560.605 l 74.625 563.551
 l 77.918 571.348 l 79.648 579.145 l 80.688 582.262 l 80.688 600.109 l 77.223
 614.66 l 76.012 615.875 l 73.238 620.379 l 66.137 625.059 l 60.418 626.098
 l 49.848 625.23 l 41.359 619.34 l 38.414 608.598 l 37.547 602.879 l 36.855
 589.539 l 46.039 587.633 l 48.984 587.633 l 52.449 608.598 l 57.992 609.809
 l 64.75 608.945 l 64.75 599.934 l 65.789 592.484 l 65.617 588.672 l 63.883
 580.012 l 62.148 575.852 l 55.047 567.883 l 46.211 559.566 l 43.957 555.406
 l 40.32 545.879 l 39.625 531.152 l 40.32 525.609 l 41.359 520.758 l 44.477
 514.348 l 49.328 509.668 l 53.832 506.723 l h
62.324 505.512 m f
106.332 507.242 m 109.621 507.07 l 113.434 506.203 l 123.656 508.457 l 
132.32 511.574 l 133.879 512.613 l 137.344 516.598 l 139.422 521.969 l 141.156
 529.766 l 142.195 532.191 l 141.156 540.68 l 141.156 549.344 l 139.422 
558.18 l 138.383 561.816 l 132.32 570.309 l 121.922 575.16 l 113.434 576.023
 l 111.875 577.758 l 111.008 598.547 l 111.184 603.227 l 110.488 617.953
 l 111.184 623.496 l 102.691 624.191 l 96.801 624.016 l 92.645 623.152 l
 93.684 596.297 l 93.336 594.391 l 94.375 589.02 l 94.375 572.559 l 95.07
 567.707 l 95.414 560.086 l 96.109 555.234 l 96.453 544.664 l 96.109 538.949
 l 96.977 530.805 l 97.496 513.133 l 98.879 507.414 l h
114.301 523.703 m 113.605 530.98 l 114.129 533.23 l 113.262 541.719 l 113.781
 544.145 l 112.566 560.605 l 120.363 560.777 l 124.176 558.527 l 126.43 
547.785 l 126.43 529.938 l 124.523 524.566 l 118.285 523.703 l h
114.301 523.703 m f
162.641 507.59 m 170.262 506.723 l 175.633 507.242 l 183.43 507.242 l 187.242
 508.109 l 191.746 508.109 l 191.574 515.211 l 192.094 523.527 l 172.688
 523.527 l 171.82 531.5 l 172.688 540.16 l 171.301 553.676 l 178.578 554.543
 l 187.586 553.848 l 185.164 569.441 l 179.27 570.309 l 170.262 570.309 
l 170.262 578.797 l 169.57 584.688 l 170.262 596.469 l 169.57 602.012 l 
170.262 608.426 l 176.5 607.73 l 189.84 609.117 l 189.84 614.488 l 188.973
 624.016 l 184.121 624.191 l 181.695 625.059 l 174.246 623.672 l 167.316
 624.191 l 157.441 624.191 l 150.855 623.672 l 151.898 614.141 l 151.898
 594.043 l 152.938 584.516 l 152.59 580.531 l 154.148 565.805 l 154.668 
553.848 l 155.363 551.598 l 155.363 545.188 l 154.668 539.641 l 156.227 
530.113 l 156.055 527.34 l 156.922 511.922 l 157.789 507.934 l h
162.641 507.59 m f
228.824 520.063 m 222.066 523.184 l 222.066 536.004 l 220.332 552.809 l
 218.945 560.258 l 221.027 578.277 l 221.027 587.113 l 221.891 591.445 l
 221.891 600.109 l 223.797 606.863 l 226.742 609.637 l 231.941 608.426 l
 234.715 605.48 l 236.098 601.32 l 236.621 583.129 l 241.645 583.301 l 251.172
 584.516 l 251.867 590.23 l 249.785 603.227 l 249.441 608.77 l 245.977 617.086
 l 242.855 620.898 l 235.406 625.578 l 233.5 625.578 l 226.918 627.137 l
 221.547 626.617 l 217.734 625.23 l 210.629 620.898 l 207.684 614.66 l 207.164
 612.41 l 204.738 606.691 l 204.219 586.246 l 205.605 563.723 l 205.605 
546.051 l 204.914 541.547 l 207.512 525.953 l 207.512 523.527 l 211.496 
515.906 l 216.348 510.359 l 219.293 508.801 l 224.145 507.414 l 243.375 
507.414 l 247.188 509.148 l 251.867 515.73 l 253.773 533.402 l 253.773 546.227
 l 245.457 546.746 l 238.18 545.012 l 237.141 533.059 l 235.926 524.395 
l 232.289 521.969 l h
228.824 520.063 m f
284.09 507.414 m 287.383 506.551 l 294.313 507.242 l 302.977 506.723 l 
306.789 507.242 l 305.922 516.598 l 305.055 521.797 l 298.473 524.047 l 
294.313 524.395 l 289.98 525.262 l 289.98 544.84 l 289.461 558.18 l 289.98
 563.551 l 289.117 570.828 l 289.637 576.547 l 288.77 592.137 l 288.77 623.672
 l 284.09 624.883 l 273.871 624.363 l 273.523 617.953 l 272.656 611.891 
l 274.043 598.723 l 274.043 569.961 l 274.91 563.031 l 274.391 555.063 l
 275.949 535.484 l 275.949 522.664 l 271.617 523.703 l 261.914 522.316 l
 262.609 512.266 l 264.168 507.07 l h
284.09 507.414 m f
355.125 622.457 m 344.906 623.844 l 342.305 624.711 l 341.438 617.781 l
 341.266 611.371 l 339.707 604.961 l 339.879 599.414 l 338.492 593.523 l
 336.242 574.465 l 336.242 571.52 l 332.082 572.387 l 331.391 584.859 l 
332.082 589.367 l 331.219 600.801 l 331.738 604.094 l 331.043 623.152 l 
320.82 625.402 l 315.969 624.883 l 315.449 617.086 l 316.316 609.637 l 315.797
 605.824 l 317.012 591.273 l 317.012 570.652 l 317.703 564.59 l 316.836 
557.832 l 318.395 547.785 l 318.395 509.84 l 322.035 508.629 l 326.539 508.629
 l 335.547 507.762 l 346.809 508.281 l 350.273 509.148 l 355.82 511.402 
l 359.113 515.559 l 361.363 524.914 l 359.633 554.543 l 358.246 559.047 
l 354.262 566.668 l 349.41 569.441 l 352.527 581.914 l 353.223 594.043 l
 354.953 599.59 l 356.859 610.156 l 357.379 615.875 l 358.418 620.379 l 
h
338.84 556.621 m 342.652 556.102 l 343.863 553.328 l 346.117 536.695 l 
345.77 526.992 l 344.906 521.797 l 333.816 521.277 l 333.988 526.992 l 333.297
 541.027 l 332.777 542.762 l 332.777 555.754 l h
338.84 556.621 m f
381.289 507.59 m 388.91 506.723 l 394.281 507.242 l 402.078 507.242 l 405.891
 508.109 l 410.395 508.109 l 410.223 515.211 l 410.742 523.527 l 391.336
 523.527 l 390.645 531.5 l 391.336 540.16 l 389.949 553.676 l 397.227 554.543
 l 406.238 553.848 l 403.984 569.441 l 398.094 570.309 l 389.086 570.309
 l 389.086 578.797 l 388.391 584.688 l 389.086 596.469 l 388.391 602.012
 l 389.086 608.426 l 395.32 607.73 l 408.664 609.117 l 408.664 614.488 l
 407.797 624.016 l 402.945 624.191 l 400.52 625.059 l 393.07 623.672 l 386.141
 624.191 l 376.266 624.191 l 369.68 623.672 l 370.719 614.141 l 370.719 
594.043 l 371.758 584.516 l 371.414 580.531 l 372.973 565.805 l 373.492 
553.848 l 374.184 551.598 l 374.184 545.188 l 373.492 539.641 l 375.051 
530.113 l 374.879 527.34 l 375.57 511.922 l 376.438 507.934 l h
381.289 507.59 m f
Q Q
showpage
%%Trailer
end restore
%%EOF
