%!PS-Adobe-3.0 EPSF-3.0
%%Creator: cairo 1.14.10 (http://cairographics.org)
%%CreationDate: Wed Nov  1 12:29:00 2017
%%Pages: 1
%%DocumentData: Clean7Bit
%%LanguageLevel: 2
%%BoundingBox: 0 -1 568 128
%%EndComments
%%BeginProlog
save
50 dict begin
/q { gsave } bind def
/Q { grestore } bind def
/cm { 6 array astore concat } bind def
/w { setlinewidth } bind def
/J { setlinecap } bind def
/j { setlinejoin } bind def
/M { setmiterlimit } bind def
/d { setdash } bind def
/m { moveto } bind def
/l { lineto } bind def
/c { curveto } bind def
/h { closepath } bind def
/re { exch dup neg 3 1 roll 5 3 roll moveto 0 rlineto
      0 exch rlineto 0 rlineto closepath } bind def
/S { stroke } bind def
/f { fill } bind def
/f* { eofill } bind def
/n { newpath } bind def
/W { clip } bind def
/W* { eoclip } bind def
/BT { } bind def
/ET { } bind def
/pdfmark where { pop globaldict /?pdfmark /exec load put }
    { globaldict begin /?pdfmark /pop load def /pdfmark
    /cleartomark load def end } ifelse
/BDC { mark 3 1 roll /BDC pdfmark } bind def
/EMC { mark /EMC pdfmark } bind def
/cairo_store_point { /cairo_point_y exch def /cairo_point_x exch def } def
/Tj { show currentpoint cairo_store_point } bind def
/TJ {
  {
    dup
    type /stringtype eq
    { show } { -0.001 mul 0 cairo_font_matrix dtransform rmoveto } ifelse
  } forall
  currentpoint cairo_store_point
} bind def
/cairo_selectfont { cairo_font_matrix aload pop pop pop 0 0 6 array astore
    cairo_font exch selectfont cairo_point_x cairo_point_y moveto } bind def
/Tf { pop /cairo_font exch def /cairo_font_matrix where
      { pop cairo_selectfont } if } bind def
/Td { matrix translate cairo_font_matrix matrix concatmatrix dup
      /cairo_font_matrix exch def dup 4 get exch 5 get cairo_store_point
      /cairo_font where { pop cairo_selectfont } if } bind def
/Tm { 2 copy 8 2 roll 6 array astore /cairo_font_matrix exch def
      cairo_store_point /cairo_font where { pop cairo_selectfont } if } bind def
/g { setgray } bind def
/rg { setrgbcolor } bind def
/d1 { setcachedevice } bind def
/cairo_flush_ascii85_file { cairo_ascii85_file status { cairo_ascii85_file flushfile } if } def
/cairo_image { image cairo_flush_ascii85_file } def
/cairo_imagemask { imagemask cairo_flush_ascii85_file } def
%%EndProlog
%%BeginSetup
%%EndSetup
%%Page: 1 1
%%BeginPageSetup
%%PageBoundingBox: 0 -1 568 128
%%EndPageSetup
q 0 -1 568 129 rectclip q
0.913725 0.329412 0.12549 rg
67.988 4.369 m 64.531 3.505 59.973 2.587 54.309 1.619 c 48.645 0.646 42.086
 0.162 34.641 0.162 c 28.168 0.162 22.715 1.107 18.289 2.994 c 13.867 4.88
 10.305 7.552 7.609 11.005 c 4.91 14.462 2.969 18.533 1.781 23.228 c 0.59
 27.923 0 33.126 0 38.849 c 0 86.115 l 15.055 86.115 l 15.055 42.087 l 15.055
 31.833 16.672 24.494 19.91 20.072 c 23.148 15.646 28.598 13.435 36.258 
13.435 c 37.879 13.435 39.551 13.49 41.277 13.599 c 43.004 13.705 44.621
 13.841 46.133 14.001 c 47.645 14.165 49.02 14.326 50.262 14.486 c 51.5 
14.65 52.391 14.837 52.93 15.052 c 52.93 86.115 l 67.984 86.115 l 67.984
 4.369 l h
67.988 4.369 m f
104.73 82.392 m 106.562 83.58 109.344 84.818 113.066 86.115 c 116.789 87.412
 121.078 88.056 125.934 88.056 c 131.977 88.056 137.348 86.978 142.043 84.822
 c 146.734 82.662 150.703 79.642 153.938 75.755 c 157.176 71.869 159.629
 67.228 161.305 61.833 c 162.977 56.435 163.812 50.501 163.812 44.029 c 
163.812 37.228 162.812 31.103 160.82 25.654 c 158.82 20.205 155.988 15.595
 152.32 11.818 c 148.648 8.037 144.227 5.122 139.047 3.076 c 133.867 1.025
 128.039 0.001 121.562 0.001 c 114.547 0.001 108.344 0.486 102.949 1.455
 c 97.551 2.427 93.125 3.396 89.676 4.369 c 89.676 124.966 l 104.727 127.552
 l 104.727 82.392 l h
104.73 15.052 m 106.242 14.619 108.371 14.216 111.125 13.841 c 113.875 
13.462 117.301 13.275 121.402 13.275 c 129.496 13.275 135.973 15.947 140.828
 21.287 c 145.684 26.626 148.113 34.208 148.113 44.029 c 148.113 48.341 
147.68 52.388 146.816 56.169 c 145.953 59.947 144.551 63.208 142.609 65.962
 c 140.664 68.716 138.156 70.872 135.082 72.439 c 132.004 74.001 128.309
 74.787 123.992 74.787 c 119.891 74.787 116.113 74.08 112.66 72.681 c 109.207
 71.275 106.562 69.818 104.73 68.31 c h
104.73 15.052 m f
247.824 4.369 m 244.371 3.505 239.809 2.587 234.145 1.619 c 228.48 0.646
 221.926 0.162 214.477 0.162 c 208 0.162 202.551 1.107 198.129 2.994 c 193.703
 4.88 190.141 7.552 187.445 11.005 c 184.746 14.462 182.805 18.533 181.617
 23.228 c 180.43 27.923 179.836 33.126 179.836 38.849 c 179.836 86.115 l
 194.891 86.115 l 194.891 42.087 l 194.891 31.833 196.508 24.494 199.746
 20.072 c 202.984 15.646 208.434 13.435 216.098 13.435 c 217.715 13.435 
219.387 13.49 221.113 13.599 c 222.836 13.705 224.457 13.841 225.969 14.001
 c 227.48 14.165 228.855 14.326 230.098 14.486 c 231.336 14.65 232.227 14.837
 232.77 15.052 c 232.77 86.115 l 247.824 86.115 l h
247.824 4.369 m f
269.512 83.685 m 272.965 84.548 277.547 85.466 283.273 86.439 c 288.992
 87.412 295.574 87.896 303.02 87.896 c 309.711 87.896 315.266 86.951 319.691
 85.064 c 324.117 83.173 327.648 80.533 330.293 77.13 c 332.938 73.732 334.801
 69.658 335.879 64.908 c 336.957 60.158 337.5 54.927 337.5 49.208 c 337.5
 1.943 l 322.445 1.943 l 322.445 45.97 l 322.445 51.15 322.094 55.576 321.391
 59.244 c 320.691 62.912 319.531 65.88 317.914 68.146 c 316.293 70.412 314.133
 72.056 311.438 73.083 c 308.734 74.111 305.391 74.622 301.402 74.622 c 
299.785 74.622 298.105 74.568 296.383 74.458 c 294.656 74.353 293.012 74.216
 291.445 74.056 c 289.879 73.892 288.477 73.701 287.238 73.49 c 285.996 
73.271 285.105 73.107 284.566 73.005 c 284.566 1.943 l 269.512 1.943 l h
269.512 83.685 m f
372.301 86.115 m 404.188 86.115 l 404.188 73.49 l 372.301 73.49 l 372.301
 34.642 l 372.301 30.431 372.621 26.951 373.273 24.201 c 373.918 21.447 
374.891 19.287 376.184 17.724 c 377.48 16.158 379.098 15.052 381.039 14.408
 c 382.984 13.759 385.25 13.435 387.84 13.435 c 392.48 13.435 396.148 13.943
 398.848 14.97 c 401.543 15.997 403.379 16.724 404.352 17.158 c 407.586 
4.853 l 406.074 4.099 403.402 3.126 399.574 1.943 c 395.746 0.755 391.402
 0.162 386.543 0.162 c 380.824 0.162 376.102 0.888 372.383 2.345 c 368.656
 3.802 365.66 5.99 363.398 8.9 c 361.133 11.818 359.539 15.404 358.621 19.665
 c 357.703 23.927 357.246 28.865 357.246 34.478 c 357.246 109.587 l 372.301
 112.173 l h
372.301 86.115 m f
486.094 4.369 m 482.641 3.505 478.082 2.587 472.418 1.619 c 466.75 0.646
 460.195 0.162 452.75 0.162 c 446.273 0.162 440.824 1.107 436.398 2.994 
c 431.977 4.88 428.414 7.552 425.715 11.005 c 423.016 14.462 421.074 18.533
 419.887 23.228 c 418.699 27.923 418.105 33.126 418.105 38.849 c 418.105
 86.115 l 433.164 86.115 l 433.164 42.087 l 433.164 31.833 434.781 24.494
 438.016 20.072 c 441.254 15.646 446.703 13.435 454.367 13.435 c 455.988
 13.435 457.66 13.49 459.387 13.599 c 461.109 13.705 462.727 13.841 464.242
 14.001 c 465.754 14.165 467.129 14.326 468.371 14.486 c 469.609 14.65 470.5
 14.837 471.039 15.052 c 471.039 86.115 l 486.094 86.115 l h
486.094 4.369 m f
567.996 93.568 m 567.996 74.79 552.777 59.572 534.004 59.572 c 515.23 59.572
 500.012 74.79 500.012 93.568 c 500.012 112.341 515.23 127.56 534.004 127.56
 c 552.777 127.56 567.996 112.341 567.996 93.568 c h
567.996 93.568 m f
1 g
516.363 93.568 m 516.363 91.154 514.406 89.197 511.988 89.197 c 509.578
 89.197 507.621 91.154 507.621 93.568 c 507.621 95.978 509.578 97.935 511.988
 97.935 c 514.406 97.935 516.363 95.978 516.363 93.568 c h
541.227 72.314 m 542.434 70.224 545.105 69.509 547.195 70.716 c 549.289
 71.923 550.004 74.595 548.797 76.685 c 547.59 78.775 544.918 79.49 542.828
 78.283 c 540.738 77.076 540.02 74.404 541.227 72.314 c h
548.797 110.447 m 550.004 112.537 549.289 115.208 547.195 116.415 c 545.109
 117.622 542.434 116.904 541.227 114.818 c 540.02 112.724 540.738 110.052
 542.828 108.845 c 544.918 107.638 547.59 108.357 548.797 110.447 c h
534.004 106.029 m 540.516 106.029 545.859 101.037 546.418 94.669 c 552.746
 94.771 l 552.445 99.501 550.391 103.755 547.23 106.896 c 545.555 106.247
 543.613 106.337 541.938 107.302 c 540.258 108.271 539.211 109.912 538.934
 111.689 c 537.363 112.115 535.711 112.345 534.004 112.345 c 531.012 112.345
 528.188 111.642 525.676 110.4 c 528.754 104.872 l 530.348 105.615 532.129
 106.029 534.004 106.029 c h
521.539 93.568 m 521.539 97.783 523.637 101.509 526.84 103.767 c 523.594
 109.193 l 519.832 106.681 517.027 102.849 515.848 98.357 c 517.246 97.232
 518.141 95.505 518.141 93.568 c 518.141 91.626 517.246 89.9 515.848 88.775
 c 517.027 84.283 519.832 80.451 523.594 77.939 c 526.84 83.365 l 523.637
 85.622 521.539 89.349 521.539 93.568 c h
534.004 81.099 m 532.129 81.099 530.348 81.517 528.754 82.259 c 525.676
 76.732 l 528.188 75.486 531.012 74.787 534.004 74.787 c 535.707 74.787 
537.363 75.017 538.934 75.443 c 539.211 77.22 540.258 78.861 541.938 79.826
 c 543.609 80.794 545.555 80.884 547.227 80.236 c 550.391 83.376 552.441
 87.63 552.742 92.361 c 546.418 92.462 l 545.859 86.095 540.516 81.099 534.004
 81.099 c h
534.004 81.099 m f
Q Q
showpage
%%Trailer
end restore
%%EOF
